EESchema Schematic File Version 2
LIBS:ChipResistor
LIBS:Schottky
LIBS:SchottkyPack
LIBS:PowerInductors
LIBS:BatteryChargers
LIBS:power
LIBS:LDO
LIBS:Atmel
LIBS:MicAmps
LIBS:ADCs
LIBS:MOSFETs
LIBS:SPI
LIBS:m95
LIBS:DACs
LIBS:SpeakerAmps
LIBS:mma8652fcr1
LIBS:HC49
LIBS:CeramicCapacitors
LIBS:74
LIBS:Switches
LIBS:conn
LIBS:easyvr
LIBS:ABMM
LIBS:2403_260_00031
LIBS:Mic
LIBS:TVS
LIBS:Indication
LIBS:TantalumCapacitors
LIBS:PushButtons
LIBS:sim
LIBS:Standard
LIBS:JustPhone-cache
EELAYER 25 0
EELAYER END
$Descr A4 11693 8268
encoding utf-8
Sheet 4 5
Title ""
Date ""
Rev ""
Comp ""
Comment1 ""
Comment2 ""
Comment3 ""
Comment4 ""
$EndDescr
$Comp
L MAX9812LEXT+T U5
U 1 1 544BCCA0
P 3300 2200
F 0 "U5" H 3550 2400 60  0000 C CNN
F 1 "MAX9812LEXT+T" H 3750 1950 60  0000 C CNN
F 2 "SOT:SC70-6" H 3750 1950 60  0001 C CNN
F 3 "" H 3750 1950 60  0000 C CNN
F 4 "DigiKey" H 3300 2200 60  0001 C CNN "Vendor"
F 5 "MAX9812LEXT+TCT-ND" H 3300 2200 60  0001 C CNN "PN"
F 6 "Maxim Integrated" H 3300 2200 60  0001 C CNN "Manufacturer"
F 7 "MAX9812LEXT+T" H 3300 2200 60  0001 C CNN "MPN"
	1    3300 2200
	1    0    0    -1  
$EndComp
Text GLabel 2500 3500 2    60   Input ~ 0
MICP
Text GLabel 2500 3850 2    60   Input ~ 0
MICN
$Comp
L CAP_CER_0.1UF_10V_10%_X7R_0603 C9
U 1 1 544BCD22
P 2400 2300
F 0 "C9" V 2300 2300 40  0000 L CNN
F 1 "0.1UF" V 2500 2200 40  0000 L CNN
F 2 "IPC-N:CAPC1608X90N" H 2438 2150 30  0001 C CNN
F 3 "" H 2400 2300 60  0000 C CNN
F 4 "DigiKey" H 2400 2300 60  0001 C CNN "Vendor"
F 5 "399-1095-1-ND" H 2400 2300 60  0001 C CNN "PN"
F 6 "Kemet" H 2400 2300 60  0001 C CNN "Manufacturer"
F 7 "C0603C104K8RACTU" H 2400 2300 60  0001 C CNN "MPN"
	1    2400 2300
	0    1    1    0   
$EndComp
$Comp
L GND #PWR037
U 1 1 544BCE26
P 3300 2750
F 0 "#PWR037" H 3300 2750 30  0001 C CNN
F 1 "GND" H 3300 2680 30  0000 C CNN
F 2 "" H 3300 2750 60  0000 C CNN
F 3 "" H 3300 2750 60  0000 C CNN
	1    3300 2750
	1    0    0    -1  
$EndComp
$Comp
L +2.8V #PWR038
U 1 1 544BCE56
P 3300 1650
F 0 "#PWR038" H 3300 1790 20  0001 C CNN
F 1 "+2.8V" H 3300 1760 30  0000 C CNN
F 2 "" H 3300 1650 60  0000 C CNN
F 3 "" H 3300 1650 60  0000 C CNN
	1    3300 1650
	1    0    0    -1  
$EndComp
Text GLabel 3150 1000 0    60   Input ~ 0
MENUMODE
$Comp
L CAP_CER_0.1UF_10V_10%_X7R_0603 C10
U 1 1 544BCFC7
P 3800 3000
F 0 "C10" H 3650 2900 40  0000 L CNN
F 1 "0.1UF" H 3600 3050 40  0000 L CNN
F 2 "IPC-N:CAPC1608X90N" H 3838 2850 30  0001 C CNN
F 3 "" H 3800 3000 60  0000 C CNN
F 4 "DigiKey" H 3800 3000 60  0001 C CNN "Vendor"
F 5 "399-1095-1-ND" H 3800 3000 60  0001 C CNN "PN"
F 6 "Kemet" H 3800 3000 60  0001 C CNN "Manufacturer"
F 7 "C0603C104K8RACTU" H 3800 3000 60  0001 C CNN "MPN"
	1    3800 3000
	-1   0    0    1   
$EndComp
$Comp
L GND #PWR039
U 1 1 544BD08F
P 3800 3150
F 0 "#PWR039" H 3800 3150 30  0001 C CNN
F 1 "GND" H 3800 3080 30  0000 C CNN
F 2 "" H 3800 3150 60  0000 C CNN
F 3 "" H 3800 3150 60  0000 C CNN
	1    3800 3150
	1    0    0    -1  
$EndComp
$Comp
L +2.8V #PWR040
U 1 1 544BD0A0
P 3800 2800
F 0 "#PWR040" H 3800 2940 20  0001 C CNN
F 1 "+2.8V" H 3800 2910 30  0000 C CNN
F 2 "" H 3800 2800 60  0000 C CNN
F 3 "" H 3800 2800 60  0000 C CNN
	1    3800 2800
	1    0    0    -1  
$EndComp
$Comp
L ADC121S021CIMF U6
U 1 1 544BD395
P 5450 2100
F 0 "U6" H 5450 2450 60  0000 C CNN
F 1 "ADC121S021CIMF" H 5500 2350 60  0000 C CNN
F 2 "SOT:SOT23-6" H 5450 2850 60  0001 C CNN
F 3 "" H 5450 2850 60  0000 C CNN
F 4 "DigiKey" H 5450 2100 60  0001 C CNN "Vendor"
F 5 "ADC121S021CIMF/NOPBCT-ND" H 5450 2100 60  0001 C CNN "PN"
F 6 "Texas Instruments" H 5450 2100 60  0001 C CNN "Manufacturer"
F 7 "ADC121S021CIMF/NOPB" H 5450 2100 60  0001 C CNN "MPN"
	1    5450 2100
	1    0    0    -1  
$EndComp
$Comp
L GND #PWR041
U 1 1 544BD45F
P 4900 2350
F 0 "#PWR041" H 4900 2350 30  0001 C CNN
F 1 "GND" H 4900 2280 30  0000 C CNN
F 2 "" H 4900 2350 60  0000 C CNN
F 3 "" H 4900 2350 60  0000 C CNN
	1    4900 2350
	1    0    0    -1  
$EndComp
$Comp
L CAP_CER_0.1UF_10V_10%_X7R_0603 C11
U 1 1 544BD49F
P 4550 2350
F 0 "C11" H 4400 2250 40  0000 L CNN
F 1 "0.1UF" H 4350 2400 40  0000 L CNN
F 2 "IPC-N:CAPC1608X90N" H 4588 2200 30  0001 C CNN
F 3 "" H 4550 2350 60  0000 C CNN
F 4 "DigiKey" H 4550 2350 60  0001 C CNN "Vendor"
F 5 "399-1095-1-ND" H 4550 2350 60  0001 C CNN "PN"
F 6 "Kemet" H 4550 2350 60  0001 C CNN "Manufacturer"
F 7 "C0603C104K8RACTU" H 4550 2350 60  0001 C CNN "MPN"
	1    4550 2350
	-1   0    0    1   
$EndComp
$Comp
L GND #PWR042
U 1 1 544BD507
P 4550 2500
F 0 "#PWR042" H 4550 2500 30  0001 C CNN
F 1 "GND" H 4550 2430 30  0000 C CNN
F 2 "" H 4550 2500 60  0000 C CNN
F 3 "" H 4550 2500 60  0000 C CNN
	1    4550 2500
	1    0    0    -1  
$EndComp
Text GLabel 6200 2100 2    60   Input ~ 0
MISO
Text GLabel 6200 2250 2    60   Input ~ 0
SPI_CLK
Text GLabel 6100 1600 0    60   Input ~ 0
ADCSEL
$Comp
L RES_470_OHM_1/10W_5%_0603_SMD R9
U 1 1 544BD96D
P 4350 2000
F 0 "R9" V 4300 2000 50  0000 C CNN
F 1 "470" V 4450 2000 50  0000 C CNN
F 2 "IPC-N:RESC1608X50N" H 4350 2000 60  0001 C CNN
F 3 "" H 4350 2000 60  0000 C CNN
F 4 "DigiKey" H 4350 2000 60  0001 C CNN "Vendor"
F 5 "RHM470CGCT-ND" H 4350 2000 60  0001 C CNN "PN"
F 6 "Rohm Semicondctor" H 4350 2000 60  0001 C CNN "Manufacturer"
F 7 "MCR03ERTJ471" H 4350 2000 60  0001 C CNN "MPN"
	1    4350 2000
	0    1    1    0   
$EndComp
$Comp
L +2.8V #PWR043
U 1 1 544BDA6D
P 4200 1850
F 0 "#PWR043" H 4200 1990 20  0001 C CNN
F 1 "+2.8V" H 4200 1960 30  0000 C CNN
F 2 "" H 4200 1850 60  0000 C CNN
F 3 "" H 4200 1850 60  0000 C CNN
	1    4200 1850
	1    0    0    -1  
$EndComp
$Comp
L +2.8V #PWR044
U 1 1 544D323E
P 6150 3050
F 0 "#PWR044" H 6150 3190 20  0001 C CNN
F 1 "+2.8V" H 6150 3160 30  0000 C CNN
F 2 "" H 6150 3050 60  0000 C CNN
F 3 "" H 6150 3050 60  0000 C CNN
	1    6150 3050
	1    0    0    -1  
$EndComp
$Comp
L GND #PWR045
U 1 1 544D3296
P 6150 3600
F 0 "#PWR045" H 6150 3600 30  0001 C CNN
F 1 "GND" H 6150 3530 30  0000 C CNN
F 2 "" H 6150 3600 60  0000 C CNN
F 3 "" H 6150 3600 60  0000 C CNN
	1    6150 3600
	1    0    0    -1  
$EndComp
Text GLabel 4750 3150 0    60   Input ~ 0
FLASHSEL
Text GLabel 4750 3450 0    60   Input ~ 0
SPI_CLK
Text GLabel 4750 3250 0    60   Input ~ 0
MISO
Text GLabel 4750 3350 0    60   Input ~ 0
MOSI
$Comp
L CAP_CER_0.1UF_10V_10%_X7R_0603 C12
U 1 1 544D36E0
P 6250 3300
F 0 "C12" H 6100 3200 40  0000 L CNN
F 1 "0.1UF" H 6050 3350 40  0000 L CNN
F 2 "IPC-N:CAPC1608X90N" H 6288 3150 30  0001 C CNN
F 3 "" H 6250 3300 60  0000 C CNN
F 4 "DigiKey" H 6250 3300 60  0001 C CNN "Vendor"
F 5 "399-1095-1-ND" H 6250 3300 60  0001 C CNN "PN"
F 6 "Kemet" H 6250 3300 60  0001 C CNN "Manufacturer"
F 7 "C0603C104K8RACTU" H 6250 3300 60  0001 C CNN "MPN"
	1    6250 3300
	-1   0    0    1   
$EndComp
$Comp
L S25FL132K0XMFI041 U7
U 1 1 544D3BC5
P 5500 3300
F 0 "U7" H 5500 3800 60  0000 C CNN
F 1 "S25FL132K0XMFI041" H 5450 3650 60  0000 C CNN
F 2 "IPC-N:SOIC127P600X173-8N" H 5500 3300 60  0001 C CNN
F 3 "" H 5500 3300 60  0000 C CNN
F 4 "DigiKey" H 5500 3300 60  0001 C CNN "Vendor"
F 5 "1274-1134-ND" H 5500 3300 60  0001 C CNN "PN"
F 6 "Spansion Inc" H 5500 3300 60  0001 C CNN "Manufacturer"
F 7 "S25FL132K0XMFI041" H 5500 3300 60  0001 C CNN "MPN"
	1    5500 3300
	1    0    0    -1  
$EndComp
$Comp
L DAC7311IDCKR U9
U 1 1 54517B07
P 5500 4300
F 0 "U9" H 5500 4600 60  0000 C CNN
F 1 "DAC7311IDCKR" H 5450 4500 60  0000 C CNN
F 2 "SOT:SC70-6" H 5450 4500 60  0001 C CNN
F 3 "" H 5450 4500 60  0000 C CNN
F 4 "DigiKey" H 5500 4300 60  0001 C CNN "Vendor"
F 5 "296-23717-2-ND" H 5500 4300 60  0001 C CNN "PN"
F 6 "Texas Instruments" H 5500 4300 60  0001 C CNN "Manufacturer"
F 7 "DAC7311IDCKR" H 5500 4300 60  0001 C CNN "MPN"
	1    5500 4300
	1    0    0    -1  
$EndComp
Text GLabel 4700 4400 0    60   Input ~ 0
MOSI
Text GLabel 4700 4300 0    60   Input ~ 0
SPI_CLK
Text GLabel 4700 4200 0    60   Input ~ 0
DACSEL
$Comp
L GND #PWR046
U 1 1 54517E2E
P 6300 4400
F 0 "#PWR046" H 6300 4400 30  0001 C CNN
F 1 "GND" H 6300 4330 30  0000 C CNN
F 2 "" H 6300 4400 60  0000 C CNN
F 3 "" H 6300 4400 60  0000 C CNN
	1    6300 4400
	1    0    0    -1  
$EndComp
$Comp
L RES_470_OHM_1/10W_5%_0603_SMD R10
U 1 1 54517EC9
P 5650 4600
F 0 "R10" V 5600 4600 50  0000 C CNN
F 1 "470" V 5750 4600 50  0000 C CNN
F 2 "IPC-N:RESC1608X50N" H 5650 4600 60  0001 C CNN
F 3 "" H 5650 4600 60  0000 C CNN
F 4 "DigiKey" H 5650 4600 60  0001 C CNN "Vendor"
F 5 "RHM470CGCT-ND" H 5650 4600 60  0001 C CNN "PN"
F 6 "Rohm Semicondctor" H 5650 4600 60  0001 C CNN "Manufacturer"
F 7 "MCR03ERTJ471" H 5650 4600 60  0001 C CNN "MPN"
	1    5650 4600
	0    1    1    0   
$EndComp
$Comp
L CAP_CER_0.1UF_10V_10%_X7R_0603 C37
U 1 1 54517FAA
P 6000 4750
F 0 "C37" H 5850 4650 40  0000 L CNN
F 1 "0.1UF" H 5800 4800 40  0000 L CNN
F 2 "IPC-N:CAPC1608X90N" H 6038 4600 30  0001 C CNN
F 3 "" H 6000 4750 60  0000 C CNN
F 4 "DigiKey" H 6000 4750 60  0001 C CNN "Vendor"
F 5 "399-1095-1-ND" H 6000 4750 60  0001 C CNN "PN"
F 6 "Kemet" H 6000 4750 60  0001 C CNN "Manufacturer"
F 7 "C0603C104K8RACTU" H 6000 4750 60  0001 C CNN "MPN"
	1    6000 4750
	-1   0    0    1   
$EndComp
$Comp
L GND #PWR047
U 1 1 5451807C
P 6000 4900
F 0 "#PWR047" H 6000 4900 30  0001 C CNN
F 1 "GND" H 6000 4830 30  0000 C CNN
F 2 "" H 6000 4900 60  0000 C CNN
F 3 "" H 6000 4900 60  0000 C CNN
	1    6000 4900
	1    0    0    -1  
$EndComp
$Comp
L +2.8V #PWR048
U 1 1 54518187
P 5100 4600
F 0 "#PWR048" H 5100 4740 20  0001 C CNN
F 1 "+2.8V" H 5100 4710 30  0000 C CNN
F 2 "" H 5100 4600 60  0000 C CNN
F 3 "" H 5100 4600 60  0000 C CNN
	1    5100 4600
	1    0    0    -1  
$EndComp
$Comp
L CAP_CER_1UF_50V_10%_X5R_0603 C38
U 1 1 54518955
P 6450 4200
F 0 "C38" V 6500 4250 40  0000 L CNN
F 1 "1UF" V 6400 4250 40  0000 L CNN
F 2 "IPC-N:CAPC1608X90N" H 6488 4050 30  0001 C CNN
F 3 "" H 6450 4200 60  0000 C CNN
F 4 "DigiKey" H 6450 4200 60  0001 C CNN "Vendor"
F 5 "587-2400-1-ND" H 6450 4200 60  0001 C CNN "PN"
F 6 "Taiyo Yuden" H 6450 4200 60  0001 C CNN "Manufacturer"
F 7 "UMK107BJ105KA-T" H 6450 4200 60  0001 C CNN "MPN"
	1    6450 4200
	0    1    1    0   
$EndComp
$Comp
L LM4865MM U10
U 1 1 54519F7E
P 7500 4400
F 0 "U10" H 7950 4200 60  0000 C CNN
F 1 "LM4865MM" H 7950 4100 60  0000 C CNN
F 2 "IPC-N:SOP65P490X110-8N" H 7500 4400 60  0001 C CNN
F 3 "http://www.ti.com/lit/ds/symlink/lm4865.pdf" H 7500 4400 60  0001 C CNN
F 4 "DigiKey" H 7500 4400 60  0001 C CNN "Vendor"
F 5 "LM4865MM/NOPBCT-ND" H 7500 4400 60  0001 C CNN "PN"
F 6 "Texas Instruments" H 7500 4400 60  0001 C CNN "Manufacturer"
F 7 "LM4865MM/NOPB" H 7500 4400 60  0001 C CNN "MPN"
	1    7500 4400
	1    0    0    -1  
$EndComp
$Comp
L +2.8V #PWR049
U 1 1 5451A05B
P 7500 3750
F 0 "#PWR049" H 7500 3890 20  0001 C CNN
F 1 "+2.8V" H 7500 3860 30  0000 C CNN
F 2 "" H 7500 3750 60  0000 C CNN
F 3 "" H 7500 3750 60  0000 C CNN
	1    7500 3750
	1    0    0    -1  
$EndComp
$Comp
L GND #PWR050
U 1 1 5451A0B5
P 7500 5100
F 0 "#PWR050" H 7500 5100 30  0001 C CNN
F 1 "GND" H 7500 5030 30  0000 C CNN
F 2 "" H 7500 5100 60  0000 C CNN
F 3 "" H 7500 5100 60  0000 C CNN
	1    7500 5100
	1    0    0    -1  
$EndComp
$Comp
L GND #PWR051
U 1 1 5451A110
P 7650 4950
F 0 "#PWR051" H 7650 4950 30  0001 C CNN
F 1 "GND" H 7650 4880 30  0000 C CNN
F 2 "" H 7650 4950 60  0000 C CNN
F 3 "" H 7650 4950 60  0000 C CNN
	1    7650 4950
	1    0    0    -1  
$EndComp
$Comp
L CAP_CER_1UF_50V_10%_X5R_0603 C39
U 1 1 5451A170
P 8300 3800
F 0 "C39" H 8150 3700 40  0000 L CNN
F 1 "1UF" H 8150 3850 40  0000 L CNN
F 2 "IPC-N:CAPC1608X90N" H 8338 3650 30  0001 C CNN
F 3 "" H 8300 3800 60  0000 C CNN
F 4 "DigiKey" H 8300 3800 60  0001 C CNN "Vendor"
F 5 "587-2400-1-ND" H 8300 3800 60  0001 C CNN "PN"
F 6 "Taiyo Yuden" H 8300 3800 60  0001 C CNN "Manufacturer"
F 7 "UMK107BJ105KA-T" H 8300 3800 60  0001 C CNN "MPN"
	1    8300 3800
	-1   0    0    1   
$EndComp
$Comp
L +2.8V #PWR052
U 1 1 5451A247
P 8300 3600
F 0 "#PWR052" H 8300 3740 20  0001 C CNN
F 1 "+2.8V" H 8300 3710 30  0000 C CNN
F 2 "" H 8300 3600 60  0000 C CNN
F 3 "" H 8300 3600 60  0000 C CNN
	1    8300 3600
	1    0    0    -1  
$EndComp
$Comp
L GND #PWR053
U 1 1 5451A2C2
P 8300 4000
F 0 "#PWR053" H 8300 4000 30  0001 C CNN
F 1 "GND" H 8300 3930 30  0000 C CNN
F 2 "" H 8300 4000 60  0000 C CNN
F 3 "" H 8300 4000 60  0000 C CNN
	1    8300 4000
	1    0    0    -1  
$EndComp
$Comp
L CAP_CER_0.1UF_10V_10%_X7R_0603 C47
U 1 1 54547532
P 8050 3800
F 0 "C47" H 7900 3700 40  0000 L CNN
F 1 "0.1UF" H 7850 3850 40  0000 L CNN
F 2 "IPC-N:CAPC1608X90N" H 8088 3650 30  0001 C CNN
F 3 "" H 8050 3800 60  0000 C CNN
F 4 "DigiKey" H 8050 3800 60  0001 C CNN "Vendor"
F 5 "399-1095-1-ND" H 8050 3800 60  0001 C CNN "PN"
F 6 "Kemet" H 8050 3800 60  0001 C CNN "Manufacturer"
F 7 "C0603C104K8RACTU" H 8050 3800 60  0001 C CNN "MPN"
	1    8050 3800
	-1   0    0    1   
$EndComp
$Comp
L CAP_CER_1UF_50V_10%_X5R_0603 C46
U 1 1 54547975
P 6850 4800
F 0 "C46" H 6700 4700 40  0000 L CNN
F 1 "33NF" H 6650 4850 40  0000 L CNN
F 2 "IPC-N:CAPC1608X90N" H 6888 4650 30  0001 C CNN
F 3 "" H 6850 4800 60  0000 C CNN
	1    6850 4800
	-1   0    0    1   
$EndComp
$Comp
L GND #PWR054
U 1 1 54547A2F
P 6850 5000
F 0 "#PWR054" H 6850 5000 30  0001 C CNN
F 1 "GND" H 6850 4930 30  0000 C CNN
F 2 "" H 6850 5000 60  0000 C CNN
F 3 "" H 6850 5000 60  0000 C CNN
	1    6850 5000
	1    0    0    -1  
$EndComp
$Comp
L TS3A24157DGSR U13
U 1 1 5456BE82
P 9400 4450
F 0 "U13" H 9550 3800 60  0000 C CNN
F 1 "TS3A24157DGSR" H 9850 3700 60  0000 C CNN
F 2 "IPC-N:SOP50P490X110-10N" H 10600 4300 60  0001 C CNN
F 3 "" H 10600 4300 60  0000 C CNN
	1    9400 4450
	1    0    0    -1  
$EndComp
Text GLabel 10250 3750 2    60   Input ~ 0
MENUMODE
Text GLabel 8800 4200 0    60   Input ~ 0
SPEAKERP
Text GLabel 8800 4650 0    60   Input ~ 0
SPEAKERN
$Comp
L +2.8V #PWR055
U 1 1 5456CABA
P 9400 3850
F 0 "#PWR055" H 9400 3990 20  0001 C CNN
F 1 "+2.8V" H 9400 3960 30  0000 C CNN
F 2 "" H 9400 3850 60  0000 C CNN
F 3 "" H 9400 3850 60  0000 C CNN
	1    9400 3850
	1    0    0    -1  
$EndComp
$Comp
L GND #PWR056
U 1 1 5456CC29
P 9400 5250
F 0 "#PWR056" H 9400 5250 30  0001 C CNN
F 1 "GND" H 9400 5180 30  0000 C CNN
F 2 "" H 9400 5250 60  0000 C CNN
F 3 "" H 9400 5250 60  0000 C CNN
	1    9400 5250
	1    0    0    -1  
$EndComp
$Comp
L EasyVR U14
U 1 1 545E63F6
P 2350 5150
F 0 "U14" H 2750 5700 60  0000 C CNN
F 1 "EasyVR" H 1700 5700 60  0000 C CNN
F 2 "Modules:EasyVR" H 2350 5150 60  0001 C CNN
F 3 "" H 2350 5150 60  0000 C CNN
	1    2350 5150
	1    0    0    -1  
$EndComp
Wire Wire Line
	2850 2300 2450 2300
Wire Wire Line
	2300 2300 2100 2300
Wire Wire Line
	2100 2300 2100 3500
Wire Wire Line
	1900 3500 2500 3500
Wire Wire Line
	3300 2600 3300 2750
Wire Wire Line
	3300 1800 3300 1650
Wire Wire Line
	3150 1000 3400 1000
Wire Wire Line
	3400 1000 3400 1850
Wire Wire Line
	3800 2900 3800 2800
Wire Wire Line
	3800 3150 3800 3050
Wire Wire Line
	3950 2200 5000 2200
Wire Wire Line
	5000 2100 4900 2100
Wire Wire Line
	4900 2100 4900 2350
Wire Wire Line
	4450 2000 5000 2000
Wire Wire Line
	4550 2000 4550 2250
Wire Wire Line
	4550 2400 4550 2500
Wire Wire Line
	5950 2100 6200 2100
Wire Wire Line
	5950 2200 6050 2200
Wire Wire Line
	6050 2200 6050 2250
Wire Wire Line
	6050 2250 6200 2250
Wire Wire Line
	6100 1600 6350 1600
Wire Wire Line
	6350 1600 6350 2000
Wire Wire Line
	6350 2000 5950 2000
Connection ~ 4550 2000
Wire Wire Line
	4200 1850 4200 2000
Wire Wire Line
	4200 2000 4250 2000
Wire Wire Line
	6000 3150 6250 3150
Wire Wire Line
	6150 3150 6150 3050
Wire Wire Line
	6000 3450 6250 3450
Wire Wire Line
	6150 3450 6150 3600
Wire Wire Line
	4750 3150 4950 3150
Wire Wire Line
	4950 3450 4750 3450
Wire Wire Line
	4750 3250 4950 3250
Wire Wire Line
	4750 3350 4950 3350
Wire Wire Line
	6250 3150 6250 3200
Connection ~ 6150 3150
Wire Wire Line
	6250 3450 6250 3350
Connection ~ 6150 3450
Wire Wire Line
	4700 4400 5000 4400
Wire Wire Line
	5000 4300 4700 4300
Wire Wire Line
	5000 4200 4700 4200
Wire Wire Line
	5950 4300 6300 4300
Wire Wire Line
	6300 4300 6300 4400
Wire Wire Line
	5950 4400 6000 4400
Wire Wire Line
	6000 4400 6000 4650
Wire Wire Line
	6000 4800 6000 4900
Wire Wire Line
	5750 4600 6000 4600
Connection ~ 6000 4600
Wire Wire Line
	5100 4600 5550 4600
Wire Wire Line
	6350 4200 5950 4200
Wire Wire Line
	6500 4200 7050 4200
Wire Wire Line
	7500 3750 7500 3950
Wire Wire Line
	7500 4850 7500 5100
Wire Wire Line
	7650 4800 7650 4950
Wire Wire Line
	8300 3600 8300 3700
Wire Wire Line
	8300 3850 8300 4000
Wire Wire Line
	8050 3700 8050 3650
Wire Wire Line
	8050 3650 8300 3650
Connection ~ 8300 3650
Wire Wire Line
	8050 3850 8050 3950
Wire Wire Line
	8050 3950 8300 3950
Connection ~ 8300 3950
Wire Wire Line
	7050 4600 6850 4600
Wire Wire Line
	6850 4600 6850 4700
Wire Wire Line
	6850 4850 6850 5000
Wire Wire Line
	9900 4200 10250 4200
Wire Wire Line
	10250 4200 10250 5050
Wire Wire Line
	10250 4350 10400 4350
Wire Wire Line
	9900 4650 10200 4650
Wire Wire Line
	10200 4650 10200 4550
Wire Wire Line
	10200 4550 10400 4550
Wire Wire Line
	10150 4750 9900 4750
Wire Wire Line
	10150 3750 10150 4750
Wire Wire Line
	9900 4300 10150 4300
Connection ~ 10150 4300
Wire Wire Line
	10150 3750 10250 3750
Wire Wire Line
	8350 4350 8400 4350
Wire Wire Line
	8400 4350 8400 4300
Wire Wire Line
	8400 4300 8900 4300
Wire Wire Line
	8350 4450 8500 4450
Wire Wire Line
	8500 4450 8500 4750
Wire Wire Line
	8500 4750 8900 4750
Wire Wire Line
	8800 4650 8900 4650
Wire Wire Line
	8800 4200 8900 4200
Wire Wire Line
	9400 3850 9400 3900
Wire Wire Line
	9400 5100 9400 5250
Wire Wire Line
	1900 3850 2500 3850
Wire Wire Line
	2400 3850 2400 4850
Wire Wire Line
	2400 4850 2100 4850
Wire Wire Line
	2100 4750 2250 4750
Wire Wire Line
	2250 4750 2250 3500
Connection ~ 2250 3500
$Comp
L +2.8V #PWR057
U 1 1 545E66CA
P 4100 5550
F 0 "#PWR057" H 4100 5690 20  0001 C CNN
F 1 "+2.8V" H 4100 5660 30  0000 C CNN
F 2 "" H 4100 5550 60  0000 C CNN
F 3 "" H 4100 5550 60  0000 C CNN
	1    4100 5550
	1    0    0    -1  
$EndComp
$Comp
L GND #PWR058
U 1 1 545E66DE
P 3750 5900
F 0 "#PWR058" H 3750 5900 30  0001 C CNN
F 1 "GND" H 3750 5830 30  0000 C CNN
F 2 "" H 3750 5900 60  0000 C CNN
F 3 "" H 3750 5900 60  0000 C CNN
	1    3750 5900
	1    0    0    -1  
$EndComp
Wire Wire Line
	3050 5700 3750 5700
Wire Wire Line
	3750 5700 3750 5900
Wire Wire Line
	3050 5600 4100 5600
Wire Wire Line
	4100 5600 4100 5550
Text GLabel 3250 5400 2    60   Input ~ 0
SPEECHTX
Text GLabel 3250 5500 2    60   Input ~ 0
SPEECHRX
Wire Wire Line
	3050 5400 3250 5400
Wire Wire Line
	3050 5500 3250 5500
$Comp
L 2403_260_00031 SP1
U 1 1 54612A3D
P 10600 4400
F 0 "SP1" H 10600 4000 60  0000 C CNN
F 1 "2403_260_00031" H 10650 3900 60  0000 C CNN
F 2 "Speakers:2403_260_00031" H 10600 4400 60  0001 C CNN
F 3 "" H 10600 4400 60  0000 C CNN
F 4 "DigiKey" H 10600 4400 60  0001 C CNN "Vendor"
F 5 "423-1172-1-ND" H 10600 4400 60  0001 C CNN "PN"
F 6 "Knowles" H 10600 4400 60  0001 C CNN "Manufacturer"
F 7 "2403_260_00031" H 10600 4400 60  0001 C CNN "MPN"
	1    10600 4400
	1    0    0    -1  
$EndComp
$Comp
L AOM-4546P-NF-R MIC1
U 1 1 546249CB
P 1300 3750
F 0 "MIC1" H 1400 4100 60  0000 C CNN
F 1 "AOM-4546P-NF-R" H 1650 3350 60  0000 C CNN
F 2 "mic:MIC" H 1300 3750 60  0001 C CNN
F 3 "" H 1300 3750 60  0000 C CNN
	1    1300 3750
	1    0    0    -1  
$EndComp
Wire Wire Line
	1900 3650 1900 3500
Connection ~ 2100 3500
Connection ~ 2400 3850
$Comp
L PESD5V2S2UT,215 D1
U 1 1 5468E3CE
P 3050 4250
F 0 "D1" V 2900 4450 60  0000 C CNN
F 1 "PESD5V2S2UT,215" V 3150 4750 60  0000 C CNN
F 2 "SOT:SOT23" H 3000 4250 60  0001 C CNN
F 3 "" H 3025 4250 60  0000 C CNN
F 4 "DigiKey" H 3025 4250 60  0001 C CNN "Vendor"
F 5 "568-4060-1-ND" H 3025 4250 60  0001 C CNN "PN"
F 6 "NXP Semiconductors" H 3025 4250 60  0001 C CNN "Manufacturer"
F 7 "PESD5V2S2UT,215" H 3025 4250 60  0001 C CNN "MPN"
	1    3050 4250
	0    1    1    0   
$EndComp
Wire Wire Line
	2950 4050 2400 4050
Connection ~ 2400 4050
Wire Wire Line
	3150 4050 3150 3650
Wire Wire Line
	3150 3650 2250 3650
Connection ~ 2250 3650
$Comp
L GND #PWR059
U 1 1 5468E81A
P 3050 4450
F 0 "#PWR059" H 3050 4450 30  0001 C CNN
F 1 "GND" H 3050 4380 30  0000 C CNN
F 2 "" H 3050 4450 60  0000 C CNN
F 3 "" H 3050 4450 60  0000 C CNN
	1    3050 4450
	1    0    0    -1  
$EndComp
Wire Wire Line
	3050 4400 3050 4450
$Comp
L PESD5V2S2UT,215 D2
U 1 1 5468F41A
P 10200 5600
F 0 "D2" V 10050 5800 60  0000 C CNN
F 1 "PESD5V2S2UT,215" V 10300 6100 60  0000 C CNN
F 2 "SOT:SOT23" H 10150 5600 60  0001 C CNN
F 3 "" H 10175 5600 60  0000 C CNN
F 4 "DigiKey" H 10175 5600 60  0001 C CNN "Vendor"
F 5 "568-4060-1-ND" H 10175 5600 60  0001 C CNN "PN"
F 6 "NXP Semiconductors" H 10175 5600 60  0001 C CNN "Manufacturer"
F 7 "PESD5V2S2UT,215" H 10175 5600 60  0001 C CNN "MPN"
	1    10200 5600
	0    1    1    0   
$EndComp
Wire Wire Line
	10300 5400 10300 4550
Wire Wire Line
	10300 4550 10350 4550
Connection ~ 10350 4550
Wire Wire Line
	10100 5050 10100 5400
Wire Wire Line
	10250 5050 10100 5050
Connection ~ 10250 4350
$Comp
L GND #PWR060
U 1 1 5468F7C9
P 10200 5900
F 0 "#PWR060" H 10200 5900 30  0001 C CNN
F 1 "GND" H 10200 5830 30  0000 C CNN
F 2 "" H 10200 5900 60  0000 C CNN
F 3 "" H 10200 5900 60  0000 C CNN
	1    10200 5900
	1    0    0    -1  
$EndComp
Wire Wire Line
	10200 5750 10200 5900
$Comp
L RES_TBD_0603 R17
U 1 1 54767338
P 7550 3250
F 0 "R17" H 7650 3300 50  0000 C CNN
F 1 "TBD" H 7650 3200 50  0000 C CNN
F 2 "IPC-N:RESC1608X50N" H 7550 3250 60  0001 C CNN
F 3 "" H 7550 3250 60  0000 C CNN
F 4 "DigiKey" H 7550 3250 60  0001 C CNN "Vendor"
F 5 "TBD" H 7550 3250 60  0001 C CNN "PN"
F 6 "TBD" H 7550 3250 60  0001 C CNN "Manufacturer"
F 7 "TBD" H 7550 3250 60  0001 C CNN "MPN"
	1    7550 3250
	1    0    0    -1  
$EndComp
$Comp
L RES_TBD_0603 R16
U 1 1 54767610
P 7550 2900
F 0 "R16" H 7650 2950 50  0000 C CNN
F 1 "TBD" H 7650 2850 50  0000 C CNN
F 2 "IPC-N:RESC1608X50N" H 7550 2900 60  0001 C CNN
F 3 "" H 7550 2900 60  0000 C CNN
F 4 "DigiKey" H 7550 2900 60  0001 C CNN "Vendor"
F 5 "TBD" H 7550 2900 60  0001 C CNN "PN"
F 6 "TBD" H 7550 2900 60  0001 C CNN "Manufacturer"
F 7 "TBD" H 7550 2900 60  0001 C CNN "MPN"
	1    7550 2900
	1    0    0    -1  
$EndComp
Wire Wire Line
	7550 3150 7550 3000
Wire Wire Line
	7550 2650 7550 2800
$Comp
L CAP_CER_1UF_50V_10%_X5R_0603 C55
U 1 1 5476799A
P 7200 3250
F 0 "C55" H 7050 3150 40  0000 L CNN
F 1 "1UF" H 7050 3300 40  0000 L CNN
F 2 "IPC-N:CAPC1608X90N" H 7238 3100 30  0001 C CNN
F 3 "" H 7200 3250 60  0000 C CNN
F 4 "DigiKey" H 7200 3250 60  0001 C CNN "Vendor"
F 5 "587-2400-1-ND" H 7200 3250 60  0001 C CNN "PN"
F 6 "Taiyo Yuden" H 7200 3250 60  0001 C CNN "Manufacturer"
F 7 "UMK107BJ105KA-T" H 7200 3250 60  0001 C CNN "MPN"
	1    7200 3250
	-1   0    0    1   
$EndComp
Wire Wire Line
	7200 3150 7200 3050
Wire Wire Line
	7200 3050 7650 3050
Connection ~ 7550 3050
Wire Wire Line
	7650 3050 7650 4000
$Comp
L GND #PWR061
U 1 1 54767EB5
P 7350 3400
F 0 "#PWR061" H 7350 3400 30  0001 C CNN
F 1 "GND" H 7350 3330 30  0000 C CNN
F 2 "" H 7350 3400 60  0000 C CNN
F 3 "" H 7350 3400 60  0000 C CNN
	1    7350 3400
	1    0    0    -1  
$EndComp
Wire Wire Line
	7200 3300 7200 3350
Wire Wire Line
	7200 3350 7550 3350
Wire Wire Line
	7350 3350 7350 3400
Connection ~ 7350 3350
Text GLabel 7300 2650 0    60   Input ~ 0
MENUMODE
Wire Wire Line
	7300 2650 7550 2650
$EndSCHEMATC
