EESchema Schematic File Version 2
LIBS:ChipResistor
LIBS:Schottky
LIBS:SchottkyPack
LIBS:PowerInductors
LIBS:BatteryChargers
LIBS:power
LIBS:LDO
LIBS:Atmel
LIBS:MicAmps
LIBS:ADCs
LIBS:MOSFETs
LIBS:SPI
LIBS:m95
LIBS:DACs
LIBS:SpeakerAmps
LIBS:mma8652fcr1
LIBS:HC49
LIBS:CeramicCapacitors
LIBS:74
LIBS:Switches
LIBS:conn
LIBS:easyvr
LIBS:ABMM
LIBS:2403_260_00031
LIBS:Mic
LIBS:TVS
LIBS:Indication
LIBS:TantalumCapacitors
LIBS:PushButtons
LIBS:sim
LIBS:Standard
LIBS:JustPhone-cache
EELAYER 25 0
EELAYER END
$Descr A4 11693 8268
encoding utf-8
Sheet 5 5
Title ""
Date ""
Rev ""
Comp ""
Comment1 ""
Comment2 ""
Comment3 ""
Comment4 ""
$EndDescr
$Comp
L M95 U8
U 1 1 54508350
P 6150 3650
F 0 "U8" H 6050 3750 60  0000 C CNN
F 1 "M95" H 6050 3600 60  0000 C CNN
F 2 "Modules:M95" H 6100 3450 60  0001 C CNN
F 3 "" H 6100 3600 60  0000 C CNN
	1    6150 3650
	1    0    0    -1  
$EndComp
$Comp
L CAP_CER_10PF_50V_5%_NP0_0402 C13
U 1 1 54507602
P 1200 3000
F 0 "C13" H 1250 3050 40  0000 L CNN
F 1 "10PF" H 1250 2900 40  0000 L CNN
F 2 "IPC-N:CAPC1005X60N" H 1238 2850 30  0001 C CNN
F 3 "" H 1200 3000 60  0000 C CNN
F 4 "DigiKey" H 1200 3000 60  0001 C CNN "Vendor"
F 5 "399-1011-1-ND" H 1200 3000 60  0001 C CNN "PN"
F 6 "Kemet" H 1200 3000 60  0001 C CNN "Manufacturer"
F 7 "C0402C100J5GACTU" H 1200 3000 60  0001 C CNN "MPN"
	1    1200 3000
	1    0    0    -1  
$EndComp
$Comp
L CAP_CER_10PF_50V_5%_NP0_0402 C14
U 1 1 54507705
P 1200 3350
F 0 "C14" H 1250 3400 40  0000 L CNN
F 1 "10PF" H 1250 3250 40  0000 L CNN
F 2 "IPC-N:CAPC1005X60N" H 1238 3200 30  0001 C CNN
F 3 "" H 1200 3350 60  0000 C CNN
F 4 "DigiKey" H 1200 3350 60  0001 C CNN "Vendor"
F 5 "399-1011-1-ND" H 1200 3350 60  0001 C CNN "PN"
F 6 "Kemet" H 1200 3350 60  0001 C CNN "Manufacturer"
F 7 "C0402C100J5GACTU" H 1200 3350 60  0001 C CNN "MPN"
	1    1200 3350
	1    0    0    -1  
$EndComp
$Comp
L CAP_CER_10PF_50V_5%_NP0_0402 C15
U 1 1 54507732
P 1200 3650
F 0 "C15" H 1250 3700 40  0000 L CNN
F 1 "10PF" H 1250 3550 40  0000 L CNN
F 2 "IPC-N:CAPC1005X60N" H 1238 3500 30  0001 C CNN
F 3 "" H 1200 3650 60  0000 C CNN
F 4 "DigiKey" H 1200 3650 60  0001 C CNN "Vendor"
F 5 "399-1011-1-ND" H 1200 3650 60  0001 C CNN "PN"
F 6 "Kemet" H 1200 3650 60  0001 C CNN "Manufacturer"
F 7 "C0402C100J5GACTU" H 1200 3650 60  0001 C CNN "MPN"
	1    1200 3650
	1    0    0    -1  
$EndComp
$Comp
L CAP_CER_33PF_50V_5%_NP0_0603 C22
U 1 1 5450775C
P 1750 3000
F 0 "C22" H 1800 3050 40  0000 L CNN
F 1 "33PF" H 1850 2900 40  0000 L CNN
F 2 "IPC-N:CAPC1608X90N" H 1788 2850 30  0001 C CNN
F 3 "" H 1750 3000 60  0000 C CNN
F 4 "DigiKey" H 1750 3000 60  0001 C CNN "Vendor"
F 5 "399-1055-1-ND" H 1750 3000 60  0001 C CNN "PN"
F 6 "Kemet" H 1750 3000 60  0001 C CNN "Manufacturer"
F 7 "C0603C330J5GACTU" H 1750 3000 60  0001 C CNN "MPN"
	1    1750 3000
	1    0    0    -1  
$EndComp
$Comp
L CAP_CER_33PF_50V_5%_NP0_0603 C23
U 1 1 545077E3
P 1750 3350
F 0 "C23" H 1800 3400 40  0000 L CNN
F 1 "33PF" H 1850 3250 40  0000 L CNN
F 2 "IPC-N:CAPC1608X90N" H 1788 3200 30  0001 C CNN
F 3 "" H 1750 3350 60  0000 C CNN
F 4 "DigiKey" H 1750 3350 60  0001 C CNN "Vendor"
F 5 "399-1055-1-ND" H 1750 3350 60  0001 C CNN "PN"
F 6 "Kemet" H 1750 3350 60  0001 C CNN "Manufacturer"
F 7 "C0603C330J5GACTU" H 1750 3350 60  0001 C CNN "MPN"
	1    1750 3350
	1    0    0    -1  
$EndComp
$Comp
L CAP_CER_33PF_50V_5%_NP0_0603 C24
U 1 1 54507813
P 1750 3650
F 0 "C24" H 1800 3700 40  0000 L CNN
F 1 "33PF" H 1850 3550 40  0000 L CNN
F 2 "IPC-N:CAPC1608X90N" H 1788 3500 30  0001 C CNN
F 3 "" H 1750 3650 60  0000 C CNN
F 4 "DigiKey" H 1750 3650 60  0001 C CNN "Vendor"
F 5 "399-1055-1-ND" H 1750 3650 60  0001 C CNN "PN"
F 6 "Kemet" H 1750 3650 60  0001 C CNN "Manufacturer"
F 7 "C0603C330J5GACTU" H 1750 3650 60  0001 C CNN "MPN"
	1    1750 3650
	1    0    0    -1  
$EndComp
$Comp
L CAP_CER_10PF_50V_5%_NP0_0402 C31
U 1 1 54507868
P 2350 3000
F 0 "C31" H 2400 3050 40  0000 L CNN
F 1 "10PF" H 2400 2900 40  0000 L CNN
F 2 "IPC-N:CAPC1005X60N" H 2388 2850 30  0001 C CNN
F 3 "" H 2350 3000 60  0000 C CNN
F 4 "DigiKey" H 2350 3000 60  0001 C CNN "Vendor"
F 5 "399-1011-1-ND" H 2350 3000 60  0001 C CNN "PN"
F 6 "Kemet" H 2350 3000 60  0001 C CNN "Manufacturer"
F 7 "C0402C100J5GACTU" H 2350 3000 60  0001 C CNN "MPN"
	1    2350 3000
	1    0    0    -1  
$EndComp
$Comp
L CAP_CER_10PF_50V_5%_NP0_0402 C32
U 1 1 545078FA
P 2350 3350
F 0 "C32" H 2400 3400 40  0000 L CNN
F 1 "10PF" H 2400 3250 40  0000 L CNN
F 2 "IPC-N:CAPC1005X60N" H 2388 3200 30  0001 C CNN
F 3 "" H 2350 3350 60  0000 C CNN
F 4 "DigiKey" H 2350 3350 60  0001 C CNN "Vendor"
F 5 "399-1011-1-ND" H 2350 3350 60  0001 C CNN "PN"
F 6 "Kemet" H 2350 3350 60  0001 C CNN "Manufacturer"
F 7 "C0402C100J5GACTU" H 2350 3350 60  0001 C CNN "MPN"
	1    2350 3350
	1    0    0    -1  
$EndComp
$Comp
L CAP_CER_10PF_50V_5%_NP0_0402 C33
U 1 1 54507929
P 2350 3650
F 0 "C33" H 2400 3700 40  0000 L CNN
F 1 "10PF" H 2400 3550 40  0000 L CNN
F 2 "IPC-N:CAPC1005X60N" H 2388 3500 30  0001 C CNN
F 3 "" H 2350 3650 60  0000 C CNN
F 4 "DigiKey" H 2350 3650 60  0001 C CNN "Vendor"
F 5 "399-1011-1-ND" H 2350 3650 60  0001 C CNN "PN"
F 6 "Kemet" H 2350 3650 60  0001 C CNN "Manufacturer"
F 7 "C0402C100J5GACTU" H 2350 3650 60  0001 C CNN "MPN"
	1    2350 3650
	1    0    0    -1  
$EndComp
$Comp
L CAP_CER_33PF_50V_5%_NP0_0603 C34
U 1 1 5450795F
P 2900 3000
F 0 "C34" H 2950 3050 40  0000 L CNN
F 1 "33PF" H 3000 2900 40  0000 L CNN
F 2 "IPC-N:CAPC1608X90N" H 2938 2850 30  0001 C CNN
F 3 "" H 2900 3000 60  0000 C CNN
F 4 "DigiKey" H 2900 3000 60  0001 C CNN "Vendor"
F 5 "399-1055-1-ND" H 2900 3000 60  0001 C CNN "PN"
F 6 "Kemet" H 2900 3000 60  0001 C CNN "Manufacturer"
F 7 "C0603C330J5GACTU" H 2900 3000 60  0001 C CNN "MPN"
	1    2900 3000
	1    0    0    -1  
$EndComp
$Comp
L CAP_CER_33PF_50V_5%_NP0_0603 C35
U 1 1 545079AA
P 2900 3350
F 0 "C35" H 2950 3400 40  0000 L CNN
F 1 "33PF" H 3000 3250 40  0000 L CNN
F 2 "IPC-N:CAPC1608X90N" H 2938 3200 30  0001 C CNN
F 3 "" H 2900 3350 60  0000 C CNN
F 4 "DigiKey" H 2900 3350 60  0001 C CNN "Vendor"
F 5 "399-1055-1-ND" H 2900 3350 60  0001 C CNN "PN"
F 6 "Kemet" H 2900 3350 60  0001 C CNN "Manufacturer"
F 7 "C0603C330J5GACTU" H 2900 3350 60  0001 C CNN "MPN"
	1    2900 3350
	1    0    0    -1  
$EndComp
$Comp
L CAP_CER_33PF_50V_5%_NP0_0603 C36
U 1 1 545079E4
P 2900 3650
F 0 "C36" H 2950 3700 40  0000 L CNN
F 1 "33PF" H 3000 3550 40  0000 L CNN
F 2 "IPC-N:CAPC1608X90N" H 2938 3500 30  0001 C CNN
F 3 "" H 2900 3650 60  0000 C CNN
F 4 "DigiKey" H 2900 3650 60  0001 C CNN "Vendor"
F 5 "399-1055-1-ND" H 2900 3650 60  0001 C CNN "PN"
F 6 "Kemet" H 2900 3650 60  0001 C CNN "Manufacturer"
F 7 "C0603C330J5GACTU" H 2900 3650 60  0001 C CNN "MPN"
	1    2900 3650
	1    0    0    -1  
$EndComp
$Comp
L GND #PWR062
U 1 1 54507A88
P 2100 2600
F 0 "#PWR062" H 2100 2600 30  0001 C CNN
F 1 "GND" H 2100 2530 30  0000 C CNN
F 2 "" H 2100 2600 60  0000 C CNN
F 3 "" H 2100 2600 60  0000 C CNN
	1    2100 2600
	1    0    0    -1  
$EndComp
$Comp
L GND #PWR063
U 1 1 54507B64
P 2100 4050
F 0 "#PWR063" H 2100 4050 30  0001 C CNN
F 1 "GND" H 2100 3980 30  0000 C CNN
F 2 "" H 2100 4050 60  0000 C CNN
F 3 "" H 2100 4050 60  0000 C CNN
	1    2100 4050
	1    0    0    -1  
$EndComp
Text GLabel 3300 3200 2    60   Input ~ 0
MICP
Text GLabel 3300 3500 2    60   Input ~ 0
MICN
Text GLabel 4600 3400 0    60   Input ~ 0
MICP
Text GLabel 4600 3500 0    60   Input ~ 0
MICN
$Comp
L CAP_CER_10PF_50V_5%_NP0_0402 C16
U 1 1 545087F3
P 1350 4550
F 0 "C16" H 1400 4600 40  0000 L CNN
F 1 "10PF" H 1400 4450 40  0000 L CNN
F 2 "IPC-N:CAPC1005X60N" H 1388 4400 30  0001 C CNN
F 3 "" H 1350 4550 60  0000 C CNN
F 4 "DigiKey" H 1350 4550 60  0001 C CNN "Vendor"
F 5 "399-1011-1-ND" H 1350 4550 60  0001 C CNN "PN"
F 6 "Kemet" H 1350 4550 60  0001 C CNN "Manufacturer"
F 7 "C0402C100J5GACTU" H 1350 4550 60  0001 C CNN "MPN"
	1    1350 4550
	1    0    0    -1  
$EndComp
$Comp
L CAP_CER_10PF_50V_5%_NP0_0402 C17
U 1 1 5450883D
P 1350 4900
F 0 "C17" H 1400 4950 40  0000 L CNN
F 1 "10PF" H 1400 4800 40  0000 L CNN
F 2 "IPC-N:CAPC1005X60N" H 1388 4750 30  0001 C CNN
F 3 "" H 1350 4900 60  0000 C CNN
F 4 "DigiKey" H 1350 4900 60  0001 C CNN "Vendor"
F 5 "399-1011-1-ND" H 1350 4900 60  0001 C CNN "PN"
F 6 "Kemet" H 1350 4900 60  0001 C CNN "Manufacturer"
F 7 "C0402C100J5GACTU" H 1350 4900 60  0001 C CNN "MPN"
	1    1350 4900
	1    0    0    -1  
$EndComp
$Comp
L CAP_CER_10PF_50V_5%_NP0_0402 C18
U 1 1 54508870
P 1350 5250
F 0 "C18" H 1400 5300 40  0000 L CNN
F 1 "10PF" H 1400 5150 40  0000 L CNN
F 2 "IPC-N:CAPC1005X60N" H 1388 5100 30  0001 C CNN
F 3 "" H 1350 5250 60  0000 C CNN
F 4 "DigiKey" H 1350 5250 60  0001 C CNN "Vendor"
F 5 "399-1011-1-ND" H 1350 5250 60  0001 C CNN "PN"
F 6 "Kemet" H 1350 5250 60  0001 C CNN "Manufacturer"
F 7 "C0402C100J5GACTU" H 1350 5250 60  0001 C CNN "MPN"
	1    1350 5250
	1    0    0    -1  
$EndComp
$Comp
L CAP_CER_10PF_50V_5%_NP0_0402 C19
U 1 1 545088A8
P 1350 5600
F 0 "C19" H 1400 5650 40  0000 L CNN
F 1 "10PF" H 1400 5500 40  0000 L CNN
F 2 "IPC-N:CAPC1005X60N" H 1388 5450 30  0001 C CNN
F 3 "" H 1350 5600 60  0000 C CNN
F 4 "DigiKey" H 1350 5600 60  0001 C CNN "Vendor"
F 5 "399-1011-1-ND" H 1350 5600 60  0001 C CNN "PN"
F 6 "Kemet" H 1350 5600 60  0001 C CNN "Manufacturer"
F 7 "C0402C100J5GACTU" H 1350 5600 60  0001 C CNN "MPN"
	1    1350 5600
	1    0    0    -1  
$EndComp
$Comp
L CAP_CER_10PF_50V_5%_NP0_0402 C20
U 1 1 545088DF
P 1350 5950
F 0 "C20" H 1400 6000 40  0000 L CNN
F 1 "10PF" H 1400 5850 40  0000 L CNN
F 2 "IPC-N:CAPC1005X60N" H 1388 5800 30  0001 C CNN
F 3 "" H 1350 5950 60  0000 C CNN
F 4 "DigiKey" H 1350 5950 60  0001 C CNN "Vendor"
F 5 "399-1011-1-ND" H 1350 5950 60  0001 C CNN "PN"
F 6 "Kemet" H 1350 5950 60  0001 C CNN "Manufacturer"
F 7 "C0402C100J5GACTU" H 1350 5950 60  0001 C CNN "MPN"
	1    1350 5950
	1    0    0    -1  
$EndComp
$Comp
L CAP_CER_10PF_50V_5%_NP0_0402 C21
U 1 1 5450898B
P 1350 6300
F 0 "C21" H 1400 6350 40  0000 L CNN
F 1 "10PF" H 1400 6200 40  0000 L CNN
F 2 "IPC-N:CAPC1005X60N" H 1388 6150 30  0001 C CNN
F 3 "" H 1350 6300 60  0000 C CNN
F 4 "DigiKey" H 1350 6300 60  0001 C CNN "Vendor"
F 5 "399-1011-1-ND" H 1350 6300 60  0001 C CNN "PN"
F 6 "Kemet" H 1350 6300 60  0001 C CNN "Manufacturer"
F 7 "C0402C100J5GACTU" H 1350 6300 60  0001 C CNN "MPN"
	1    1350 6300
	1    0    0    -1  
$EndComp
$Comp
L CAP_CER_33PF_50V_5%_NP0_0603 C25
U 1 1 545091BA
P 2050 4550
F 0 "C25" H 2100 4600 40  0000 L CNN
F 1 "33PF" H 2150 4450 40  0000 L CNN
F 2 "IPC-N:CAPC1608X90N" H 2088 4400 30  0001 C CNN
F 3 "" H 2050 4550 60  0000 C CNN
F 4 "DigiKey" H 2050 4550 60  0001 C CNN "Vendor"
F 5 "399-1055-1-ND" H 2050 4550 60  0001 C CNN "PN"
F 6 "Kemet" H 2050 4550 60  0001 C CNN "Manufacturer"
F 7 "C0603C330J5GACTU" H 2050 4550 60  0001 C CNN "MPN"
	1    2050 4550
	1    0    0    -1  
$EndComp
$Comp
L CAP_CER_33PF_50V_5%_NP0_0603 C26
U 1 1 545092B4
P 2050 4900
F 0 "C26" H 2100 4950 40  0000 L CNN
F 1 "33PF" H 2150 4800 40  0000 L CNN
F 2 "IPC-N:CAPC1608X90N" H 2088 4750 30  0001 C CNN
F 3 "" H 2050 4900 60  0000 C CNN
F 4 "DigiKey" H 2050 4900 60  0001 C CNN "Vendor"
F 5 "399-1055-1-ND" H 2050 4900 60  0001 C CNN "PN"
F 6 "Kemet" H 2050 4900 60  0001 C CNN "Manufacturer"
F 7 "C0603C330J5GACTU" H 2050 4900 60  0001 C CNN "MPN"
	1    2050 4900
	1    0    0    -1  
$EndComp
$Comp
L CAP_CER_33PF_50V_5%_NP0_0603 C27
U 1 1 545092EF
P 2050 5250
F 0 "C27" H 2100 5300 40  0000 L CNN
F 1 "33PF" H 2150 5150 40  0000 L CNN
F 2 "IPC-N:CAPC1608X90N" H 2088 5100 30  0001 C CNN
F 3 "" H 2050 5250 60  0000 C CNN
F 4 "DigiKey" H 2050 5250 60  0001 C CNN "Vendor"
F 5 "399-1055-1-ND" H 2050 5250 60  0001 C CNN "PN"
F 6 "Kemet" H 2050 5250 60  0001 C CNN "Manufacturer"
F 7 "C0603C330J5GACTU" H 2050 5250 60  0001 C CNN "MPN"
	1    2050 5250
	1    0    0    -1  
$EndComp
$Comp
L CAP_CER_33PF_50V_5%_NP0_0603 C28
U 1 1 54509487
P 2050 5600
F 0 "C28" H 2100 5650 40  0000 L CNN
F 1 "33PF" H 2150 5500 40  0000 L CNN
F 2 "IPC-N:CAPC1608X90N" H 2088 5450 30  0001 C CNN
F 3 "" H 2050 5600 60  0000 C CNN
F 4 "DigiKey" H 2050 5600 60  0001 C CNN "Vendor"
F 5 "399-1055-1-ND" H 2050 5600 60  0001 C CNN "PN"
F 6 "Kemet" H 2050 5600 60  0001 C CNN "Manufacturer"
F 7 "C0603C330J5GACTU" H 2050 5600 60  0001 C CNN "MPN"
	1    2050 5600
	1    0    0    -1  
$EndComp
$Comp
L CAP_CER_33PF_50V_5%_NP0_0603 C29
U 1 1 545094C4
P 2050 5950
F 0 "C29" H 2100 6000 40  0000 L CNN
F 1 "33PF" H 2150 5850 40  0000 L CNN
F 2 "IPC-N:CAPC1608X90N" H 2088 5800 30  0001 C CNN
F 3 "" H 2050 5950 60  0000 C CNN
F 4 "DigiKey" H 2050 5950 60  0001 C CNN "Vendor"
F 5 "399-1055-1-ND" H 2050 5950 60  0001 C CNN "PN"
F 6 "Kemet" H 2050 5950 60  0001 C CNN "Manufacturer"
F 7 "C0603C330J5GACTU" H 2050 5950 60  0001 C CNN "MPN"
	1    2050 5950
	1    0    0    -1  
$EndComp
$Comp
L CAP_CER_33PF_50V_5%_NP0_0603 C30
U 1 1 54509502
P 2050 6300
F 0 "C30" H 2100 6350 40  0000 L CNN
F 1 "33PF" H 2150 6200 40  0000 L CNN
F 2 "IPC-N:CAPC1608X90N" H 2088 6150 30  0001 C CNN
F 3 "" H 2050 6300 60  0000 C CNN
F 4 "DigiKey" H 2050 6300 60  0001 C CNN "Vendor"
F 5 "399-1055-1-ND" H 2050 6300 60  0001 C CNN "PN"
F 6 "Kemet" H 2050 6300 60  0001 C CNN "Manufacturer"
F 7 "C0603C330J5GACTU" H 2050 6300 60  0001 C CNN "MPN"
	1    2050 6300
	1    0    0    -1  
$EndComp
$Comp
L GND #PWR064
U 1 1 545E6E59
P 1750 4500
F 0 "#PWR064" H 1750 4500 30  0001 C CNN
F 1 "GND" H 1750 4430 30  0000 C CNN
F 2 "" H 1750 4500 60  0000 C CNN
F 3 "" H 1750 4500 60  0000 C CNN
	1    1750 4500
	1    0    0    -1  
$EndComp
$Comp
L GND #PWR065
U 1 1 545E7043
P 1700 6650
F 0 "#PWR065" H 1700 6650 30  0001 C CNN
F 1 "GND" H 1700 6580 30  0000 C CNN
F 2 "" H 1700 6650 60  0000 C CNN
F 3 "" H 1700 6650 60  0000 C CNN
	1    1700 6650
	1    0    0    -1  
$EndComp
$Comp
L GND #PWR066
U 1 1 545E719E
P 1700 5550
F 0 "#PWR066" H 1700 5550 30  0001 C CNN
F 1 "GND" H 1700 5480 30  0000 C CNN
F 2 "" H 1700 5550 60  0000 C CNN
F 3 "" H 1700 5550 60  0000 C CNN
	1    1700 5550
	1    0    0    -1  
$EndComp
Text GLabel 4300 5800 2    60   Input ~ 0
SPEAKERP
Text GLabel 4300 6150 2    60   Input ~ 0
SPEAKERN
Text GLabel 7400 3750 2    60   Input ~ 0
RI
Text GLabel 7400 3850 2    60   Input ~ 0
DCD
Text GLabel 7400 4150 2    60   Input ~ 0
GSMTX
Text GLabel 7400 4250 2    60   Input ~ 0
GSMRX
Text GLabel 6800 5050 3    60   Input ~ 0
DTR
Text GLabel 5300 5150 0    60   Input ~ 0
STATUS
$Comp
L FDV301N Q1
U 1 1 54626D43
P 4750 5300
F 0 "Q1" H 4650 5400 70  0000 C CNN
F 1 "FDV301N" H 4550 5150 60  0000 C CNN
F 2 "SOT:SOT23" H 4800 5300 60  0001 C CNN
F 3 "" H 4750 5300 60  0000 C CNN
F 4 "DigiKey" H 4750 5300 60  0001 C CNN "Vendor"
F 5 "FDV301NCT-ND" H 4750 5300 60  0001 C CNN "PN"
F 6 "Fairchild Semiconductor" H 4750 5300 60  0001 C CNN "Manufacturer"
F 7 "FDV301N" H 4750 5300 60  0001 C CNN "MPN"
	1    4750 5300
	1    0    0    -1  
$EndComp
Text GLabel 4500 5300 0    60   Input ~ 0
PWRK
$Comp
L GND #PWR067
U 1 1 5462728F
P 4800 5550
F 0 "#PWR067" H 4800 5550 30  0001 C CNN
F 1 "GND" H 4800 5480 30  0000 C CNN
F 2 "" H 4800 5550 60  0000 C CNN
F 3 "" H 4800 5550 60  0000 C CNN
	1    4800 5550
	1    0    0    -1  
$EndComp
$Comp
L 2403_260_00001 SP2
U 1 1 546275BD
P 3150 4500
F 0 "SP2" H 3150 4100 60  0000 C CNN
F 1 "2403_260_00001" H 3200 4000 60  0000 C CNN
F 2 "Speakers:2403_260_00001" H 3150 4500 60  0001 C CNN
F 3 "" H 3150 4500 60  0000 C CNN
F 4 "DigiKey" H 3150 4500 60  0001 C CNN "Vendor"
F 5 "423-1171-ND" H 3150 4500 60  0001 C CNN "PN"
F 6 "Knowles" H 3150 4500 60  0001 C CNN "Manufacturer"
F 7 "2403_260_00001" H 3150 4500 60  0001 C CNN "MPN"
	1    3150 4500
	0    -1   -1   0   
$EndComp
$Comp
L GND #PWR068
U 1 1 546299E5
P 4650 2650
F 0 "#PWR068" H 4650 2650 30  0001 C CNN
F 1 "GND" H 4650 2580 30  0000 C CNN
F 2 "" H 4650 2650 60  0000 C CNN
F 3 "" H 4650 2650 60  0000 C CNN
	1    4650 2650
	1    0    0    -1  
$EndComp
$Comp
L CONN_4 N3
U 1 1 546419CD
P 6800 5800
F 0 "N3" V 6750 5800 50  0000 C CNN
F 1 "CONN_4" V 6850 5800 50  0000 C CNN
F 2 "pin_array:PIN_ARRAY_4x1" H 6800 5800 60  0001 C CNN
F 3 "" H 6800 5800 60  0000 C CNN
	1    6800 5800
	1    0    0    -1  
$EndComp
$Comp
L GND #PWR069
U 1 1 54641E8C
P 6400 6100
F 0 "#PWR069" H 6400 6100 30  0001 C CNN
F 1 "GND" H 6400 6030 30  0000 C CNN
F 2 "" H 6400 6100 60  0000 C CNN
F 3 "" H 6400 6100 60  0000 C CNN
	1    6400 6100
	1    0    0    -1  
$EndComp
$Comp
L RES_22_OHM_1/10W_5%_0603_SMD R13
U 1 1 5464279A
P 7550 3200
F 0 "R13" V 7500 3150 50  0000 C CNN
F 1 "22" V 7500 3300 50  0000 C CNN
F 2 "IPC-N:RESC1608X50N" H 7550 3200 60  0001 C CNN
F 3 "" H 7550 3200 60  0000 C CNN
F 4 "DigiKey" H 7550 3200 60  0001 C CNN "Vendor"
F 5 "RHM22CGCT-ND" H 7550 3200 60  0001 C CNN "PN"
F 6 "Rohm Semicondctor" H 7550 3200 60  0001 C CNN "Manufacturer"
F 7 "MCR03ERTJ220" H 7550 3200 60  0001 C CNN "MPN"
	1    7550 3200
	0    1    1    0   
$EndComp
$Comp
L RES_22_OHM_1/10W_5%_0603_SMD R14
U 1 1 54642AC8
P 7700 3300
F 0 "R14" V 7650 3250 50  0000 C CNN
F 1 "22" V 7650 3400 50  0000 C CNN
F 2 "IPC-N:RESC1608X50N" H 7700 3300 60  0001 C CNN
F 3 "" H 7700 3300 60  0000 C CNN
F 4 "DigiKey" H 7700 3300 60  0001 C CNN "Vendor"
F 5 "RHM22CGCT-ND" H 7700 3300 60  0001 C CNN "PN"
F 6 "Rohm Semicondctor" H 7700 3300 60  0001 C CNN "Manufacturer"
F 7 "MCR03ERTJ220" H 7700 3300 60  0001 C CNN "MPN"
	1    7700 3300
	0    1    1    0   
$EndComp
$Comp
L RES_22_OHM_1/10W_5%_0603_SMD R12
U 1 1 54642B40
P 7500 3400
F 0 "R12" V 7450 3350 50  0000 C CNN
F 1 "22" V 7450 3500 50  0000 C CNN
F 2 "IPC-N:RESC1608X50N" H 7500 3400 60  0001 C CNN
F 3 "" H 7500 3400 60  0000 C CNN
F 4 "DigiKey" H 7500 3400 60  0001 C CNN "Vendor"
F 5 "RHM22CGCT-ND" H 7500 3400 60  0001 C CNN "PN"
F 6 "Rohm Semicondctor" H 7500 3400 60  0001 C CNN "Manufacturer"
F 7 "MCR03ERTJ220" H 7500 3400 60  0001 C CNN "MPN"
	1    7500 3400
	0    1    1    0   
$EndComp
$Comp
L CAP_CER_33PF_50V_5%_NP0_0603 C49
U 1 1 54642F72
P 8500 3600
F 0 "C49" H 8550 3650 40  0000 L CNN
F 1 "33PF" H 8506 3515 40  0000 L CNN
F 2 "IPC-N:CAPC1608X90N" H 8538 3450 30  0001 C CNN
F 3 "" H 8500 3600 60  0000 C CNN
F 4 "DigiKey" H 8500 3600 60  0001 C CNN "Vendor"
F 5 "399-1055-1-ND" H 8500 3600 60  0001 C CNN "PN"
F 6 "Kemet" H 8500 3600 60  0001 C CNN "Manufacturer"
F 7 "C0603C330J5GACTU" H 8500 3600 60  0001 C CNN "MPN"
	1    8500 3600
	1    0    0    -1  
$EndComp
$Comp
L CAP_CER_33PF_50V_5%_NP0_0603 C48
U 1 1 5464316C
P 8300 3600
F 0 "C48" H 8350 3650 40  0000 L CNN
F 1 "33PF" H 8306 3515 40  0000 L CNN
F 2 "IPC-N:CAPC1608X90N" H 8338 3450 30  0001 C CNN
F 3 "" H 8300 3600 60  0000 C CNN
F 4 "DigiKey" H 8300 3600 60  0001 C CNN "Vendor"
F 5 "399-1055-1-ND" H 8300 3600 60  0001 C CNN "PN"
F 6 "Kemet" H 8300 3600 60  0001 C CNN "Manufacturer"
F 7 "C0603C330J5GACTU" H 8300 3600 60  0001 C CNN "MPN"
	1    8300 3600
	1    0    0    -1  
$EndComp
$Comp
L CAP_CER_33PF_50V_5%_NP0_0603 C50
U 1 1 546431F8
P 8700 3600
F 0 "C50" H 8750 3650 40  0000 L CNN
F 1 "33PF" H 8706 3515 40  0000 L CNN
F 2 "IPC-N:CAPC1608X90N" H 8738 3450 30  0001 C CNN
F 3 "" H 8700 3600 60  0000 C CNN
F 4 "DigiKey" H 8700 3600 60  0001 C CNN "Vendor"
F 5 "399-1055-1-ND" H 8700 3600 60  0001 C CNN "PN"
F 6 "Kemet" H 8700 3600 60  0001 C CNN "Manufacturer"
F 7 "C0603C330J5GACTU" H 8700 3600 60  0001 C CNN "MPN"
	1    8700 3600
	1    0    0    -1  
$EndComp
$Comp
L CAP_CER_33PF_50V_5%_NP0_0603 C51
U 1 1 5464323C
P 8850 3600
F 0 "C51" H 8900 3650 40  0000 L CNN
F 1 "33PF" H 8856 3515 40  0000 L CNN
F 2 "IPC-N:CAPC1608X90N" H 8888 3450 30  0001 C CNN
F 3 "" H 8850 3600 60  0000 C CNN
F 4 "DigiKey" H 8850 3600 60  0001 C CNN "Vendor"
F 5 "399-1055-1-ND" H 8850 3600 60  0001 C CNN "PN"
F 6 "Kemet" H 8850 3600 60  0001 C CNN "Manufacturer"
F 7 "C0603C330J5GACTU" H 8850 3600 60  0001 C CNN "MPN"
	1    8850 3600
	1    0    0    -1  
$EndComp
$Comp
L GND #PWR070
U 1 1 54643619
P 8600 3900
F 0 "#PWR070" H 8600 3900 30  0001 C CNN
F 1 "GND" H 8600 3830 30  0000 C CNN
F 2 "" H 8600 3900 60  0000 C CNN
F 3 "" H 8600 3900 60  0000 C CNN
	1    8600 3900
	1    0    0    -1  
$EndComp
$Comp
L PESD5V2S2UT,215 D3
U 1 1 546D3D3D
P 3150 5400
F 0 "D3" V 3000 5650 60  0000 C CNN
F 1 "PESD5V2S2UT,215" H 3150 5150 60  0000 C CNN
F 2 "SOT:SOT23" H 3100 5400 60  0001 C CNN
F 3 "" H 3125 5400 60  0000 C CNN
F 4 "DigiKey" H 3125 5400 60  0001 C CNN "Vendor"
F 5 "568-4060-1-ND" H 3125 5400 60  0001 C CNN "PN"
F 6 "NXP Semiconductors" H 3125 5400 60  0001 C CNN "Manufacturer"
F 7 "PESD5V2S2UT,215" H 3125 5400 60  0001 C CNN "MPN"
	1    3150 5400
	0    1    1    0   
$EndComp
$Comp
L GND #PWR071
U 1 1 546D4145
P 3150 5650
F 0 "#PWR071" H 3150 5650 30  0001 C CNN
F 1 "GND" H 3150 5580 30  0000 C CNN
F 2 "" H 3150 5650 60  0000 C CNN
F 3 "" H 3150 5650 60  0000 C CNN
	1    3150 5650
	1    0    0    -1  
$EndComp
$Comp
L FDV301N Q2
U 1 1 546D4F36
P 7700 6000
F 0 "Q2" H 7600 6100 70  0000 C CNN
F 1 "FDV301N" H 7500 5850 60  0000 C CNN
F 2 "SOT:SOT23" H 7750 6000 60  0001 C CNN
F 3 "" H 7700 6000 60  0000 C CNN
F 4 "DigiKey" H 7700 6000 60  0001 C CNN "Vendor"
F 5 "FDV301NCT-ND" H 7700 6000 60  0001 C CNN "PN"
F 6 "Fairchild Semiconductor" H 7700 6000 60  0001 C CNN "Manufacturer"
F 7 "FDV301N" H 7700 6000 60  0001 C CNN "MPN"
	1    7700 6000
	1    0    0    -1  
$EndComp
$Comp
L GND #PWR072
U 1 1 546D5158
P 7750 6250
F 0 "#PWR072" H 7750 6250 30  0001 C CNN
F 1 "GND" H 7750 6180 30  0000 C CNN
F 2 "" H 7750 6250 60  0000 C CNN
F 3 "" H 7750 6250 60  0000 C CNN
	1    7750 6250
	1    0    0    -1  
$EndComp
$Comp
L RES_300_OHM_1/10W_1%_0603_SMD R15
U 1 1 546D5F7A
P 7750 5600
F 0 "R15" H 7850 5650 50  0000 C CNN
F 1 "300" H 7850 5550 50  0000 C CNN
F 2 "IPC-N:RESC1608X50N" H 7750 5600 60  0001 C CNN
F 3 "" H 7750 5600 60  0000 C CNN
F 4 "DigiKey" H 7750 5600 60  0001 C CNN "Vendor"
F 5 "RHM300CFCT-ND" H 7750 5600 60  0001 C CNN "PN"
F 6 "Rohm Semiconductor" H 7750 5600 60  0001 C CNN "Manufacturer"
F 7 "MCR03ERTF3000" H 7750 5600 60  0001 C CNN "MPN"
	1    7750 5600
	1    0    0    -1  
$EndComp
$Comp
L LED_GREEN_CLEAR_THIN_0603_SMD LED1
U 1 1 546D6746
P 7750 5300
F 0 "LED1" V 7700 5450 40  0000 C CNN
F 1 "GREEN" V 7800 5450 40  0000 C CNN
F 2 "IPC-N:LEDC1608X60N" H 7750 5300 60  0001 C CNN
F 3 "" H 7750 5300 60  0000 C CNN
F 4 "DigiKey" H 7750 5300 60  0001 C CNN "Vendor"
F 5 "160-1446-1-ND" H 7750 5300 60  0001 C CNN "PN"
F 6 "Lite-On Inc" H 7750 5300 60  0001 C CNN "Manufacturer"
F 7 "LTST-C191KGKT" H 7750 5300 60  0001 C CNN "MPN"
	1    7750 5300
	0    1    1    0   
$EndComp
$Comp
L VBAT #PWR073
U 1 1 546D6B64
P 7750 5150
F 0 "#PWR073" H 7750 5290 20  0001 C CNN
F 1 "VBAT" H 7750 5260 30  0000 C CNN
F 2 "" H 7750 5150 60  0000 C CNN
F 3 "" H 7750 5150 60  0000 C CNN
	1    7750 5150
	1    0    0    -1  
$EndComp
$Comp
L VBAT #PWR074
U 1 1 546D7432
P 6600 2200
F 0 "#PWR074" H 6600 2340 20  0001 C CNN
F 1 "VBAT" H 6600 2310 30  0000 C CNN
F 2 "" H 6600 2200 60  0000 C CNN
F 3 "" H 6600 2200 60  0000 C CNN
	1    6600 2200
	1    0    0    -1  
$EndComp
$Comp
L GND #PWR075
U 1 1 546D9001
P 7200 2700
F 0 "#PWR075" H 7200 2700 30  0001 C CNN
F 1 "GND" H 7200 2630 30  0000 C CNN
F 2 "" H 7200 2700 60  0000 C CNN
F 3 "" H 7200 2700 60  0000 C CNN
	1    7200 2700
	1    0    0    -1  
$EndComp
$Comp
L CAP_TANT_100UF_6.3V_20%_2413 C53
U 1 1 546E9825
P 7500 2550
F 0 "C53" H 7550 2650 50  0000 L CNN
F 1 "100UF" H 7550 2500 50  0000 L CNN
F 2 "IPC-N:CAPMP6032X250N" H 7500 2550 60  0001 C CNN
F 3 "" H 7500 2550 60  0000 C CNN
F 4 "DigiKey" H 7500 2550 60  0001 C CNN "Vendor"
F 5 "399-8339-1-ND" H 7500 2550 60  0001 C CNN "PN"
F 6 "Kemet" H 7500 2550 60  0001 C CNN "Manufacturer"
F 7 "T491C107M006AT" H 7500 2550 60  0001 C CNN "MPN"
	1    7500 2550
	1    0    0    -1  
$EndComp
$Comp
L GND #PWR076
U 1 1 546E9B2E
P 7500 2700
F 0 "#PWR076" H 7500 2700 30  0001 C CNN
F 1 "GND" H 7500 2630 30  0000 C CNN
F 2 "" H 7500 2700 60  0000 C CNN
F 3 "" H 7500 2700 60  0000 C CNN
	1    7500 2700
	1    0    0    -1  
$EndComp
$Comp
L CAP_CER_1UF_50V_10%_X5R_0603 C52
U 1 1 546EA690
P 7200 2500
F 0 "C52" H 7200 2600 40  0000 L CNN
F 1 "1UF" H 7206 2415 40  0000 L CNN
F 2 "IPC-N:CAPC1608X90N" H 7238 2350 30  0001 C CNN
F 3 "" H 7200 2500 60  0000 C CNN
F 4 "DigiKey" H 7200 2500 60  0001 C CNN "Vendor"
F 5 "587-2400-1-ND" H 7200 2500 60  0001 C CNN "PN"
F 6 "Taiyo Yuden" H 7200 2500 60  0001 C CNN "Manufacturer"
F 7 "UMK107BJ105KA-T" H 7200 2500 60  0001 C CNN "MPN"
	1    7200 2500
	1    0    0    -1  
$EndComp
$Comp
L 0788000001 N7
U 1 1 547692EC
P 9950 3250
F 0 "N7" H 10050 3250 60  0000 C CNN
F 1 "0788000001" H 10150 2800 60  0000 C CNN
F 2 "Sim:MicroSim" H 9950 3250 60  0001 C CNN
F 3 "" H 9950 3250 60  0000 C CNN
	1    9950 3250
	1    0    0    1   
$EndComp
$Comp
L CAP_CER_0.1UF_10V_10%_X7R_0603 C56
U 1 1 54769F68
P 8950 2900
F 0 "C56" H 8800 2800 40  0000 L CNN
F 1 "0.1UF" H 8750 2950 40  0000 L CNN
F 2 "IPC-N:CAPC1608X90N" H 8988 2750 30  0001 C CNN
F 3 "" H 8950 2900 60  0000 C CNN
F 4 "DigiKey" H 8950 2900 60  0001 C CNN "Vendor"
F 5 "399-1095-1-ND" H 8950 2900 60  0001 C CNN "PN"
F 6 "Kemet" H 8950 2900 60  0001 C CNN "Manufacturer"
F 7 "C0603C104K8RACTU" H 8950 2900 60  0001 C CNN "MPN"
	1    8950 2900
	0    1    1    0   
$EndComp
$Comp
L RES_0.0_OHM_1/8W_JUMP_0805 R18
U 1 1 5476AC32
P 5450 1500
F 0 "R18" H 5550 1550 50  0000 C CNN
F 1 "0.0" H 5550 1450 50  0000 C CNN
F 2 "IPC-N:RESC1608X55N" H 5450 1500 60  0001 C CNN
F 3 "" H 5450 1500 60  0000 C CNN
	1    5450 1500
	1    0    0    -1  
$EndComp
$Comp
L CAP_CER_33PF_50V_5%_NP0_0603 C58
U 1 1 5476B011
P 5700 1850
F 0 "C58" H 5700 1950 40  0000 L CNN
F 1 "TBD" H 5706 1765 40  0000 L CNN
F 2 "IPC-N:CAPC1608X90N" H 5738 1700 30  0001 C CNN
F 3 "" H 5700 1850 60  0000 C CNN
F 4 "DigiKey" H 5700 1850 60  0001 C CNN "Vendor"
F 5 "TBD" H 5700 1850 60  0001 C CNN "PN"
F 6 "TBD" H 5700 1850 60  0001 C CNN "Manufacturer"
F 7 "TBD" H 5700 1850 60  0001 C CNN "MPN"
	1    5700 1850
	0    1    1    0   
$EndComp
$Comp
L CAP_CER_33PF_50V_5%_NP0_0603 C57
U 1 1 5476B1AD
P 5750 1200
F 0 "C57" H 5750 1300 40  0000 L CNN
F 1 "TBD" H 5756 1115 40  0000 L CNN
F 2 "IPC-N:CAPC1608X90N" H 5788 1050 30  0001 C CNN
F 3 "" H 5750 1200 60  0000 C CNN
F 4 "DigiKey" H 5750 1200 60  0001 C CNN "Vendor"
F 5 "TBD" H 5750 1200 60  0001 C CNN "PN"
F 6 "TBD" H 5750 1200 60  0001 C CNN "Manufacturer"
F 7 "TBD" H 5750 1200 60  0001 C CNN "MPN"
	1    5750 1200
	0    1    1    0   
$EndComp
Wire Wire Line
	1200 3100 1200 3300
Wire Wire Line
	1200 3450 1200 3600
Wire Wire Line
	1750 3600 1750 3450
Wire Wire Line
	1750 3300 1750 3100
Wire Wire Line
	2350 3100 2350 3300
Wire Wire Line
	2350 3450 2350 3600
Wire Wire Line
	2900 3600 2900 3450
Wire Wire Line
	2900 3300 2900 3100
Wire Wire Line
	1200 2950 1200 2450
Wire Wire Line
	1200 2450 2900 2450
Wire Wire Line
	2100 2450 2100 2600
Wire Wire Line
	1750 2950 1750 2450
Connection ~ 1750 2450
Wire Wire Line
	2900 2450 2900 2950
Connection ~ 2100 2450
Wire Wire Line
	2350 2950 2350 2450
Connection ~ 2350 2450
Wire Wire Line
	1200 3750 1200 3950
Wire Wire Line
	1200 3950 2900 3950
Wire Wire Line
	2100 3950 2100 4050
Wire Wire Line
	2350 3950 2350 3750
Connection ~ 2100 3950
Wire Wire Line
	2900 3950 2900 3750
Connection ~ 2350 3950
Wire Wire Line
	1750 3750 1750 3950
Connection ~ 1750 3950
Wire Wire Line
	1200 3200 3300 3200
Connection ~ 2900 3200
Wire Wire Line
	1200 3500 3300 3500
Connection ~ 2900 3500
Wire Wire Line
	4600 3400 5000 3400
Wire Wire Line
	4600 3500 5000 3500
Connection ~ 2350 3200
Connection ~ 1750 3200
Connection ~ 1200 3200
Wire Wire Line
	1200 3850 2900 3850
Connection ~ 1750 3850
Connection ~ 1200 3850
Connection ~ 2350 3850
Connection ~ 2900 3850
Wire Wire Line
	1350 4650 1350 4850
Wire Wire Line
	1350 5000 1350 5200
Wire Wire Line
	1350 5350 1350 5550
Wire Wire Line
	1350 5700 1350 5900
Wire Wire Line
	1350 6050 1350 6250
Wire Wire Line
	2050 6250 2050 6050
Wire Wire Line
	2050 5900 2050 5700
Wire Wire Line
	2050 5550 2050 5350
Wire Wire Line
	2050 5200 2050 5000
Wire Wire Line
	2050 4850 2050 4650
Wire Wire Line
	1350 4500 1350 4400
Wire Wire Line
	1350 4400 2050 4400
Wire Wire Line
	2050 4400 2050 4500
Wire Wire Line
	1350 4750 3750 4750
Connection ~ 2050 4750
Connection ~ 1350 4750
Wire Wire Line
	1350 5100 4400 5100
Connection ~ 2050 5100
Connection ~ 1350 5100
Wire Wire Line
	1350 5450 2050 5450
Connection ~ 2050 5450
Connection ~ 1350 5450
Wire Wire Line
	1350 5800 4300 5800
Connection ~ 2050 5800
Connection ~ 1350 5800
Wire Wire Line
	1350 6150 4300 6150
Connection ~ 2050 6150
Connection ~ 1350 6150
Wire Wire Line
	1350 6400 1350 6550
Wire Wire Line
	1350 6550 2050 6550
Wire Wire Line
	2050 6550 2050 6400
Connection ~ 1750 3500
Connection ~ 1200 3500
Connection ~ 2350 3500
Wire Wire Line
	1750 4400 1750 4500
Connection ~ 1750 4400
Wire Wire Line
	1700 6550 1700 6650
Connection ~ 1700 6550
Wire Wire Line
	1700 5450 1700 5550
Connection ~ 1700 5450
Wire Wire Line
	5000 3750 3900 3750
Wire Wire Line
	3900 3750 3900 6150
Wire Wire Line
	5000 3850 4100 3850
Wire Wire Line
	4100 3850 4100 5800
Wire Wire Line
	5000 3950 4400 3950
Wire Wire Line
	4400 3950 4400 5100
Wire Wire Line
	5000 4050 3750 4050
Wire Wire Line
	3750 4050 3750 4750
Connection ~ 4100 5800
Connection ~ 3900 6150
Wire Wire Line
	7100 3750 7400 3750
Wire Wire Line
	7100 3850 7400 3850
Wire Wire Line
	7100 4150 7400 4150
Wire Wire Line
	7100 4250 7400 4250
Wire Wire Line
	6800 4900 6800 5050
Wire Wire Line
	5400 4900 5400 5150
Wire Wire Line
	5400 5150 5300 5150
Wire Wire Line
	4500 5300 4600 5300
Wire Wire Line
	4800 5150 4800 4150
Wire Wire Line
	4800 4150 5000 4150
Wire Wire Line
	4800 5450 4800 5550
Wire Wire Line
	3100 4700 3100 4950
Connection ~ 3100 4750
Wire Wire Line
	3300 4700 3300 5150
Connection ~ 3300 5100
Wire Wire Line
	5650 2450 5650 2300
Wire Wire Line
	4650 2300 6450 2300
Wire Wire Line
	6450 2300 6450 2450
Wire Wire Line
	6350 2450 6350 2300
Connection ~ 6350 2300
Wire Wire Line
	5550 2450 5550 2300
Connection ~ 5650 2300
Wire Wire Line
	5350 2450 5350 2300
Connection ~ 5550 2300
Wire Wire Line
	4650 2300 4650 2650
Connection ~ 5350 2300
Wire Wire Line
	5000 3100 4850 3100
Wire Wire Line
	4850 3100 4850 2300
Connection ~ 4850 2300
Wire Wire Line
	5700 4900 5700 5650
Wire Wire Line
	5700 5650 6450 5650
Wire Wire Line
	5600 4900 5600 5750
Wire Wire Line
	5600 5750 6450 5750
Wire Wire Line
	5500 4900 5500 5850
Wire Wire Line
	5500 5850 6450 5850
Wire Wire Line
	6450 5950 6400 5950
Wire Wire Line
	6400 5950 6400 6100
Wire Wire Line
	7100 3200 7450 3200
Wire Wire Line
	7100 3300 7600 3300
Wire Wire Line
	7100 3400 7400 3400
Wire Wire Line
	7100 3500 9750 3500
Wire Wire Line
	8300 3500 8300 3550
Wire Wire Line
	7600 3400 9750 3400
Wire Wire Line
	8500 3400 8500 3550
Wire Wire Line
	7800 3300 9750 3300
Wire Wire Line
	8700 3300 8700 3550
Wire Wire Line
	7650 3200 9450 3200
Wire Wire Line
	8850 3200 8850 3550
Wire Wire Line
	8300 3700 8300 3800
Wire Wire Line
	8300 3800 8850 3800
Wire Wire Line
	8600 3800 8600 3900
Wire Wire Line
	8850 3800 8850 3700
Connection ~ 8600 3800
Wire Wire Line
	8700 3700 8700 3800
Connection ~ 8700 3800
Wire Wire Line
	8500 3700 8500 3800
Connection ~ 8500 3800
Wire Wire Line
	3250 5200 3250 5150
Wire Wire Line
	3250 5150 3300 5150
Wire Wire Line
	3050 5200 3050 4950
Wire Wire Line
	3050 4950 3100 4950
Wire Wire Line
	3150 5550 3150 5650
Wire Wire Line
	7550 6000 7150 6000
Wire Wire Line
	7150 6000 7150 6300
Wire Wire Line
	7150 6300 6200 6300
Wire Wire Line
	6200 6300 6200 5850
Connection ~ 6200 5850
Wire Wire Line
	7750 6150 7750 6250
Wire Wire Line
	7750 5700 7750 5850
Wire Wire Line
	7750 5400 7750 5500
Wire Wire Line
	7750 5150 7750 5250
Wire Wire Line
	6550 2450 6650 2450
Wire Wire Line
	6600 2450 6600 2200
Connection ~ 6600 2450
Wire Wire Line
	7200 2450 7200 2300
Wire Wire Line
	6600 2300 7500 2300
Connection ~ 6600 2300
Wire Wire Line
	7200 2600 7200 2700
Wire Wire Line
	7500 2300 7500 2450
Connection ~ 7200 2300
Wire Wire Line
	7500 2600 7500 2700
Connection ~ 8300 3500
Connection ~ 8500 3400
Connection ~ 8700 3300
Wire Wire Line
	9750 3000 9450 3000
Wire Wire Line
	9450 3000 9450 3200
Connection ~ 8850 3200
Wire Wire Line
	7100 3100 9600 3100
Wire Wire Line
	8700 3100 8700 2900
Wire Wire Line
	8700 2900 8850 2900
Wire Wire Line
	9750 3200 9600 3200
Wire Wire Line
	9600 3200 9600 3100
Connection ~ 8700 3100
Wire Wire Line
	9000 2900 9300 2900
Wire Wire Line
	9300 2900 9300 3850
Connection ~ 9300 3500
Wire Wire Line
	5450 1600 5450 2450
Wire Wire Line
	5650 1200 5450 1200
Wire Wire Line
	5450 950  5450 1400
Wire Wire Line
	5600 1850 5450 1850
Connection ~ 5450 1850
$Comp
L GND #PWR077
U 1 1 5476B61A
P 6100 1850
F 0 "#PWR077" H 6100 1850 30  0001 C CNN
F 1 "GND" H 6100 1780 30  0000 C CNN
F 2 "" H 6100 1850 60  0000 C CNN
F 3 "" H 6100 1850 60  0000 C CNN
	1    6100 1850
	1    0    0    -1  
$EndComp
Wire Wire Line
	5800 1200 6100 1200
Wire Wire Line
	6100 1200 6100 1850
Wire Wire Line
	5750 1850 5800 1850
Wire Wire Line
	5800 1850 5800 1700
Wire Wire Line
	5800 1700 6100 1700
Connection ~ 6100 1700
$Comp
L Ant ANT1
U 1 1 5476C510
P 5700 950
F 0 "ANT1" H 5780 950 40  0000 L CNN
F 1 "Ant" H 5700 1005 30  0001 C CNN
F 2 "Antennas:A10340" H 5700 950 60  0001 C CNN
F 3 "" H 5700 950 60  0000 C CNN
	1    5700 950 
	1    0    0    -1  
$EndComp
Wire Wire Line
	5550 950  5450 950 
Connection ~ 5450 1200
$Comp
L PESD5V2S2UT,215 D4
U 1 1 5476F437
P 9550 2350
F 0 "D4" V 9400 2600 60  0000 C CNN
F 1 "PESD5V2S2UT,215" V 9650 2900 60  0000 C CNN
F 2 "SOT:SOT23" H 9500 2350 60  0001 C CNN
F 3 "" H 9525 2350 60  0000 C CNN
F 4 "DigiKey" H 9525 2350 60  0001 C CNN "Vendor"
F 5 "568-4060-1-ND" H 9525 2350 60  0001 C CNN "PN"
F 6 "NXP Semiconductors" H 9525 2350 60  0001 C CNN "Manufacturer"
F 7 "PESD5V2S2UT,215" H 9525 2350 60  0001 C CNN "MPN"
	1    9550 2350
	0    1    -1   0   
$EndComp
Wire Wire Line
	9450 2550 9400 2550
Wire Wire Line
	9400 2550 9400 3100
Connection ~ 9400 3100
Wire Wire Line
	9650 2550 9650 3000
Connection ~ 9650 3000
$Comp
L GND #PWR078
U 1 1 5476FC2F
P 9250 2250
F 0 "#PWR078" H 9250 2250 30  0001 C CNN
F 1 "GND" H 9250 2180 30  0000 C CNN
F 2 "" H 9250 2250 60  0000 C CNN
F 3 "" H 9250 2250 60  0000 C CNN
	1    9250 2250
	1    0    0    -1  
$EndComp
Wire Wire Line
	9550 2200 9250 2200
Wire Wire Line
	9250 2200 9250 2250
$Comp
L PESD5V2S2UT,215 D5
U 1 1 54770C1D
P 9400 4050
F 0 "D5" V 9250 4300 60  0000 C CNN
F 1 "PESD5V2S2UT,215" V 9550 3600 60  0000 C CNN
F 2 "SOT:SOT23" H 9350 4050 60  0001 C CNN
F 3 "" H 9375 4050 60  0000 C CNN
F 4 "DigiKey" H 9375 4050 60  0001 C CNN "Vendor"
F 5 "568-4060-1-ND" H 9375 4050 60  0001 C CNN "PN"
F 6 "NXP Semiconductors" H 9375 4050 60  0001 C CNN "Manufacturer"
F 7 "PESD5V2S2UT,215" H 9375 4050 60  0001 C CNN "MPN"
	1    9400 4050
	0    -1   1    0   
$EndComp
Wire Wire Line
	9500 3850 9500 3400
Connection ~ 9500 3400
$Comp
L PESD5V2S2UT,215 D6
U 1 1 54771357
P 9800 4550
F 0 "D6" V 9650 4800 60  0000 C CNN
F 1 "PESD5V2S2UT,215" V 9950 4100 60  0000 C CNN
F 2 "SOT:SOT23" H 9750 4550 60  0001 C CNN
F 3 "" H 9775 4550 60  0000 C CNN
F 4 "DigiKey" H 9775 4550 60  0001 C CNN "Vendor"
F 5 "568-4060-1-ND" H 9775 4550 60  0001 C CNN "PN"
F 6 "NXP Semiconductors" H 9775 4550 60  0001 C CNN "Manufacturer"
F 7 "PESD5V2S2UT,215" H 9775 4550 60  0001 C CNN "MPN"
	1    9800 4550
	0    -1   1    0   
$EndComp
Wire Wire Line
	9700 4350 9700 3300
Connection ~ 9700 3300
Wire Wire Line
	9400 4200 9400 4800
Wire Wire Line
	9400 4800 9800 4800
Wire Wire Line
	9800 4800 9800 4700
$Comp
L GND #PWR079
U 1 1 54771695
P 9550 4900
F 0 "#PWR079" H 9550 4900 30  0001 C CNN
F 1 "GND" H 9550 4830 30  0000 C CNN
F 2 "" H 9550 4900 60  0000 C CNN
F 3 "" H 9550 4900 60  0000 C CNN
	1    9550 4900
	1    0    0    -1  
$EndComp
Wire Wire Line
	9550 4800 9550 4900
Connection ~ 9550 4800
$EndSCHEMATC
