EESchema Schematic File Version 2
LIBS:ChipResistor
LIBS:Schottky
LIBS:SchottkyPack
LIBS:PowerInductors
LIBS:BatteryChargers
LIBS:power
LIBS:LDO
LIBS:Atmel
LIBS:MicAmps
LIBS:ADCs
LIBS:MOSFETs
LIBS:SPI
LIBS:m95
LIBS:DACs
LIBS:SpeakerAmps
LIBS:mma8652fcr1
LIBS:HC49
LIBS:CeramicCapacitors
LIBS:74
LIBS:Switches
LIBS:conn
LIBS:easyvr
LIBS:ABMM
LIBS:2403_260_00031
LIBS:Mic
LIBS:TVS
LIBS:Indication
LIBS:TantalumCapacitors
LIBS:PushButtons
LIBS:sim
LIBS:Standard
LIBS:JustPhone-cache
EELAYER 25 0
EELAYER END
$Descr A4 11693 8268
encoding utf-8
Sheet 2 4
Title ""
Date ""
Rev ""
Comp ""
Comment1 ""
Comment2 ""
Comment3 ""
Comment4 ""
$EndDescr
$Comp
L A4940KLPTR-T U1
U 1 1 549B64DF
P 5750 3500
AR Path="/549B635A/549B64DF" Ref="U1"  Part="1" 
AR Path="/54A30C9B/549B64DF" Ref="U2"  Part="1" 
F 0 "U2" H 5750 4300 60  0000 C CNN
F 1 "A4940KLPTR-T" H 5750 4200 60  0000 C CNN
F 2 "IPC-N:SOP65P640X110-25N" H 5800 3000 60  0001 C CNN
F 3 "" H 5800 3000 60  0000 C CNN
F 4 "DigiKey" H 5750 3500 60  0001 C CNN "Vendor"
F 5 "620-1319-1-ND" H 5750 3500 60  0001 C CNN "PN"
F 6 "Allegro MicroSystems LLC" H 5750 3500 60  0001 C CNN "Manufacturer"
F 7 "A4940KLPTR-T" H 5750 3500 60  0001 C CNN "MPN"
	1    5750 3500
	1    0    0    -1  
$EndComp
$Comp
L CAP_CER_1UF_50V_10%_X5R_0603 C3
U 1 1 549B659C
P 6700 3100
AR Path="/549B635A/549B659C" Ref="C3"  Part="1" 
AR Path="/54A30C9B/549B659C" Ref="C9"  Part="1" 
F 0 "C9" V 6750 3200 40  0000 L CNN
F 1 "1UF" V 6650 3150 40  0000 L CNN
F 2 "IPC-N:CAPC1608X90N" H 6738 2950 30  0001 C CNN
F 3 "" H 6700 3100 60  0000 C CNN
F 4 "DigiKey" H 6700 3100 60  0001 C CNN "Vendor"
F 5 "587-2400-1-ND" H 6700 3100 60  0001 C CNN "PN"
F 6 "Taiyo Yuden" H 6700 3100 60  0001 C CNN "Manufacturer"
F 7 "UMK107BJ105KA-T" H 6700 3100 60  0001 C CNN "MPN"
	1    6700 3100
	0    1    1    0   
$EndComp
$Comp
L CAP_CER_1UF_50V_10%_X5R_0603 C4
U 1 1 549B66C4
P 6700 3550
AR Path="/549B635A/549B66C4" Ref="C4"  Part="1" 
AR Path="/54A30C9B/549B66C4" Ref="C10"  Part="1" 
F 0 "C10" V 6750 3650 40  0000 L CNN
F 1 "1UF" V 6650 3600 40  0000 L CNN
F 2 "IPC-N:CAPC1608X90N" H 6738 3400 30  0001 C CNN
F 3 "" H 6700 3550 60  0000 C CNN
F 4 "DigiKey" H 6700 3550 60  0001 C CNN "Vendor"
F 5 "587-2400-1-ND" H 6700 3550 60  0001 C CNN "PN"
F 6 "Taiyo Yuden" H 6700 3550 60  0001 C CNN "Manufacturer"
F 7 "UMK107BJ105KA-T" H 6700 3550 60  0001 C CNN "MPN"
	1    6700 3550
	0    1    1    0   
$EndComp
$Comp
L CAP_CER_1UF_50V_10%_X5R_0603 C5
U 1 1 549B66F9
P 6700 4000
AR Path="/549B635A/549B66F9" Ref="C5"  Part="1" 
AR Path="/54A30C9B/549B66F9" Ref="C11"  Part="1" 
F 0 "C11" V 6750 4100 40  0000 L CNN
F 1 "1UF" V 6650 4050 40  0000 L CNN
F 2 "IPC-N:CAPC1608X90N" H 6738 3850 30  0001 C CNN
F 3 "" H 6700 4000 60  0000 C CNN
F 4 "DigiKey" H 6700 4000 60  0001 C CNN "Vendor"
F 5 "587-2400-1-ND" H 6700 4000 60  0001 C CNN "PN"
F 6 "Taiyo Yuden" H 6700 4000 60  0001 C CNN "Manufacturer"
F 7 "UMK107BJ105KA-T" H 6700 4000 60  0001 C CNN "MPN"
	1    6700 4000
	0    1    1    0   
$EndComp
$Comp
L CAP_CER_0.1UF_50V_10%_X7R_0603 C1
U 1 1 549B687A
P 4200 3050
AR Path="/549B635A/549B687A" Ref="C1"  Part="1" 
AR Path="/54A30C9B/549B687A" Ref="C7"  Part="1" 
F 0 "C7" H 4100 3100 40  0000 L CNN
F 1 "0.1UF" H 4206 2965 40  0000 L CNN
F 2 "IPC-N:CAPC1608X90N" H 4238 2900 30  0001 C CNN
F 3 "" H 4200 3050 60  0000 C CNN
F 4 "DigiKey" H 4200 3050 60  0001 C CNN "Vendor"
F 5 "490-1519-1-ND" H 4200 3050 60  0001 C CNN "PN"
F 6 "Murata Electronics North America" H 4200 3050 60  0001 C CNN "Manufacturer"
F 7 "GRM188R71H104KA93D" H 4200 3050 60  0001 C CNN "MPN"
	1    4200 3050
	1    0    0    -1  
$EndComp
$Comp
L CAP_CER_0.1UF_50V_10%_X7R_0603 C6
U 1 1 549C3343
P 6950 2700
AR Path="/549B635A/549C3343" Ref="C6"  Part="1" 
AR Path="/54A30C9B/549C3343" Ref="C12"  Part="1" 
F 0 "C12" H 6850 2750 40  0000 L CNN
F 1 "0.1UF" H 6956 2615 40  0000 L CNN
F 2 "IPC-N:CAPC1608X90N" H 6988 2550 30  0001 C CNN
F 3 "" H 6950 2700 60  0000 C CNN
F 4 "DigiKey" H 6950 2700 60  0001 C CNN "Vendor"
F 5 "490-1519-1-ND" H 6950 2700 60  0001 C CNN "PN"
F 6 "Murata Electronics North America" H 6950 2700 60  0001 C CNN "Manufacturer"
F 7 "GRM188R71H104KA93D" H 6950 2700 60  0001 C CNN "MPN"
	1    6950 2700
	1    0    0    -1  
$EndComp
$Comp
L RES_10K_OHM_1/10W_5%_0603 R2
U 1 1 549C34CB
P 4050 3900
AR Path="/549B635A/549C34CB" Ref="R2"  Part="1" 
AR Path="/54A30C9B/549C34CB" Ref="R9"  Part="1" 
F 0 "R9" V 4000 3950 50  0000 C CNN
F 1 "10K" V 4100 3950 50  0000 C CNN
F 2 "IPC-N:RESC1608X50N" H 4050 3900 60  0001 C CNN
F 3 "" H 4050 3900 60  0000 C CNN
F 4 "DigiKey" H 4050 3900 60  0001 C CNN "Vendor"
F 5 "RMCF0603JT10K0CT-ND" H 4050 3900 60  0001 C CNN "PN"
F 6 "Stackpole Electronics Inc" H 4050 3900 60  0001 C CNN "Manufacturer"
F 7 "RMCF0603JT10K0" H 4050 3900 60  0001 C CNN "MPN"
	1    4050 3900
	1    0    0    -1  
$EndComp
Wire Wire Line
	6300 3100 6600 3100
Wire Wire Line
	6600 3550 6300 3550
Wire Wire Line
	6300 4000 6600 4000
Wire Wire Line
	6750 4000 6950 4000
Wire Wire Line
	6300 4100 6950 4100
Wire Wire Line
	6750 3550 6950 3550
Wire Wire Line
	6950 3550 6950 3750
Wire Wire Line
	6300 3750 7950 3750
Wire Wire Line
	6750 3100 7000 3100
Wire Wire Line
	7000 3100 7000 3300
Wire Wire Line
	6300 3300 8000 3300
Wire Wire Line
	5200 2950 4200 2950
Wire Wire Line
	4200 2850 4200 3000
Wire Wire Line
	6300 2950 6650 2950
Wire Wire Line
	6650 2950 6650 2600
Wire Wire Line
	6650 2600 6950 2600
Wire Wire Line
	6950 2600 6950 2650
Wire Wire Line
	5200 4050 4050 4050
Wire Wire Line
	6950 4100 6950 4000
Wire Wire Line
	6300 4250 6450 4250
Wire Wire Line
	6450 4250 6450 4750
Wire Wire Line
	6450 4350 6300 4350
Wire Wire Line
	6450 4450 6300 4450
Connection ~ 6450 4350
Wire Wire Line
	6450 4750 5750 4750
Connection ~ 6450 4450
$Comp
L AOD476 Q1
U 1 1 54A03B8B
P 8700 2550
AR Path="/549B635A/54A03B8B" Ref="Q1"  Part="1" 
AR Path="/54A30C9B/54A03B8B" Ref="Q5"  Part="1" 
F 0 "Q5" H 8850 2650 70  0000 C CNN
F 1 "AOD476" H 8950 2450 60  0000 C CNN
F 2 "DPAK:DPAK" H 8750 2550 60  0001 C CNN
F 3 "" H 8700 2550 60  0000 C CNN
F 4 "DigiKey" H 8700 2550 60  0001 C CNN "Vendor"
F 5 "785-1112-1-ND" H 8700 2550 60  0001 C CNN "PN"
F 6 "Alpha & Omega Semiconductor Inc" H 8700 2550 60  0001 C CNN "Manufacturer"
F 7 "AOD476" H 8700 2550 60  0001 C CNN "MPN"
	1    8700 2550
	1    0    0    -1  
$EndComp
$Comp
L AOD476 Q2
U 1 1 54A03C80
P 8700 3300
AR Path="/549B635A/54A03C80" Ref="Q2"  Part="1" 
AR Path="/54A30C9B/54A03C80" Ref="Q6"  Part="1" 
F 0 "Q6" H 8850 3400 70  0000 C CNN
F 1 "AOD476" H 8950 3200 60  0000 C CNN
F 2 "DPAK:DPAK" H 8750 3300 60  0001 C CNN
F 3 "" H 8700 3300 60  0000 C CNN
F 4 "DigiKey" H 8700 3300 60  0001 C CNN "Vendor"
F 5 "785-1112-1-ND" H 8700 3300 60  0001 C CNN "PN"
F 6 "Alpha & Omega Semiconductor Inc" H 8700 3300 60  0001 C CNN "Manufacturer"
F 7 "AOD476" H 8700 3300 60  0001 C CNN "MPN"
	1    8700 3300
	1    0    0    -1  
$EndComp
$Comp
L AOD476 Q3
U 1 1 54A03CD9
P 8700 4200
AR Path="/549B635A/54A03CD9" Ref="Q3"  Part="1" 
AR Path="/54A30C9B/54A03CD9" Ref="Q7"  Part="1" 
F 0 "Q7" H 8850 4300 70  0000 C CNN
F 1 "AOD476" H 8950 4100 60  0000 C CNN
F 2 "DPAK:DPAK" H 8750 4200 60  0001 C CNN
F 3 "" H 8700 4200 60  0000 C CNN
F 4 "DigiKey" H 8700 4200 60  0001 C CNN "Vendor"
F 5 "785-1112-1-ND" H 8700 4200 60  0001 C CNN "PN"
F 6 "Alpha & Omega Semiconductor Inc" H 8700 4200 60  0001 C CNN "Manufacturer"
F 7 "AOD476" H 8700 4200 60  0001 C CNN "MPN"
	1    8700 4200
	1    0    0    -1  
$EndComp
$Comp
L AOD476 Q4
U 1 1 54A03F5A
P 8700 5000
AR Path="/549B635A/54A03F5A" Ref="Q4"  Part="1" 
AR Path="/54A30C9B/54A03F5A" Ref="Q8"  Part="1" 
F 0 "Q8" H 8850 5100 70  0000 C CNN
F 1 "AOD476" H 8950 4900 60  0000 C CNN
F 2 "DPAK:DPAK" H 8750 5000 60  0001 C CNN
F 3 "" H 8700 5000 60  0000 C CNN
F 4 "DigiKey" H 8700 5000 60  0001 C CNN "Vendor"
F 5 "785-1112-1-ND" H 8700 5000 60  0001 C CNN "PN"
F 6 "Alpha & Omega Semiconductor Inc" H 8700 5000 60  0001 C CNN "Manufacturer"
F 7 "AOD476" H 8700 5000 60  0001 C CNN "MPN"
	1    8700 5000
	1    0    0    -1  
$EndComp
Wire Wire Line
	8000 3000 8750 3000
Wire Wire Line
	8750 2700 8750 3150
Connection ~ 8750 3000
Wire Wire Line
	8750 4350 8750 4850
Wire Wire Line
	7950 3750 7950 4600
Wire Wire Line
	7950 4600 8750 4600
Connection ~ 8750 4600
Connection ~ 6950 3750
$Comp
L VBAT #PWR13
U 1 1 54A0444F
P 8750 2300
AR Path="/549B635A/54A0444F" Ref="#PWR13"  Part="1" 
AR Path="/54A30C9B/54A0444F" Ref="#PWR24"  Part="1" 
F 0 "#PWR24" H 8750 2440 20  0001 C CNN
F 1 "VBAT" H 8750 2410 30  0000 C CNN
F 2 "" H 8750 2300 60  0000 C CNN
F 3 "" H 8750 2300 60  0000 C CNN
	1    8750 2300
	1    0    0    -1  
$EndComp
Wire Wire Line
	8750 2400 8750 2300
$Comp
L VBAT #PWR15
U 1 1 54A0454D
P 8750 3950
AR Path="/549B635A/54A0454D" Ref="#PWR15"  Part="1" 
AR Path="/54A30C9B/54A0454D" Ref="#PWR26"  Part="1" 
F 0 "#PWR26" H 8750 4090 20  0001 C CNN
F 1 "VBAT" H 8750 4060 30  0000 C CNN
F 2 "" H 8750 3950 60  0000 C CNN
F 3 "" H 8750 3950 60  0000 C CNN
	1    8750 3950
	1    0    0    -1  
$EndComp
Wire Wire Line
	8750 4050 8750 3950
$Comp
L GND #PWR14
U 1 1 54A04605
P 8750 3500
AR Path="/549B635A/54A04605" Ref="#PWR14"  Part="1" 
AR Path="/54A30C9B/54A04605" Ref="#PWR25"  Part="1" 
F 0 "#PWR25" H 8750 3500 30  0001 C CNN
F 1 "GND" H 8750 3430 30  0000 C CNN
F 2 "" H 8750 3500 60  0000 C CNN
F 3 "" H 8750 3500 60  0000 C CNN
	1    8750 3500
	1    0    0    -1  
$EndComp
$Comp
L GND #PWR16
U 1 1 54A0465B
P 8750 5300
AR Path="/549B635A/54A0465B" Ref="#PWR16"  Part="1" 
AR Path="/54A30C9B/54A0465B" Ref="#PWR27"  Part="1" 
F 0 "#PWR27" H 8750 5300 30  0001 C CNN
F 1 "GND" H 8750 5230 30  0000 C CNN
F 2 "" H 8750 5300 60  0000 C CNN
F 3 "" H 8750 5300 60  0000 C CNN
	1    8750 5300
	1    0    0    -1  
$EndComp
Wire Wire Line
	8750 5150 8750 5300
Wire Wire Line
	8750 3450 8750 3500
$Comp
L GND #PWR11
U 1 1 54A0475A
P 5750 5050
AR Path="/549B635A/54A0475A" Ref="#PWR11"  Part="1" 
AR Path="/54A30C9B/54A0475A" Ref="#PWR22"  Part="1" 
F 0 "#PWR22" H 5750 5050 30  0001 C CNN
F 1 "GND" H 5750 4980 30  0000 C CNN
F 2 "" H 5750 5050 60  0000 C CNN
F 3 "" H 5750 5050 60  0000 C CNN
	1    5750 5050
	1    0    0    -1  
$EndComp
Wire Wire Line
	5750 4750 5750 5050
$Comp
L GND #PWR9
U 1 1 54A0481A
P 4200 3300
AR Path="/549B635A/54A0481A" Ref="#PWR9"  Part="1" 
AR Path="/54A30C9B/54A0481A" Ref="#PWR20"  Part="1" 
F 0 "#PWR20" H 4200 3300 30  0001 C CNN
F 1 "GND" H 4200 3230 30  0000 C CNN
F 2 "" H 4200 3300 60  0000 C CNN
F 3 "" H 4200 3300 60  0000 C CNN
	1    4200 3300
	1    0    0    -1  
$EndComp
Wire Wire Line
	4200 3150 4200 3300
$Comp
L GND #PWR12
U 1 1 54A0490B
P 6950 2900
AR Path="/549B635A/54A0490B" Ref="#PWR12"  Part="1" 
AR Path="/54A30C9B/54A0490B" Ref="#PWR23"  Part="1" 
F 0 "#PWR23" H 6950 2900 30  0001 C CNN
F 1 "GND" H 6950 2830 30  0000 C CNN
F 2 "" H 6950 2900 60  0000 C CNN
F 3 "" H 6950 2900 60  0000 C CNN
	1    6950 2900
	1    0    0    -1  
$EndComp
Wire Wire Line
	6950 2800 6950 2900
$Comp
L +3.3V #PWR8
U 1 1 54A04BE3
P 4200 2850
AR Path="/549B635A/54A04BE3" Ref="#PWR8"  Part="1" 
AR Path="/54A30C9B/54A04BE3" Ref="#PWR19"  Part="1" 
F 0 "#PWR19" H 4200 2990 20  0001 C CNN
F 1 "+3.3V" H 4200 2960 30  0000 C CNN
F 2 "" H 4200 2850 60  0000 C CNN
F 3 "" H 4200 2850 60  0000 C CNN
	1    4200 2850
	1    0    0    -1  
$EndComp
Connection ~ 4200 2950
$Comp
L +3.3V #PWR7
U 1 1 54A04C86
P 4050 3750
AR Path="/549B635A/54A04C86" Ref="#PWR7"  Part="1" 
AR Path="/54A30C9B/54A04C86" Ref="#PWR18"  Part="1" 
F 0 "#PWR18" H 4050 3890 20  0001 C CNN
F 1 "+3.3V" H 4050 3860 30  0000 C CNN
F 2 "" H 4050 3750 60  0000 C CNN
F 3 "" H 4050 3750 60  0000 C CNN
	1    4050 3750
	1    0    0    -1  
$EndComp
$Comp
L RES_SMD_33_OHM_1%_1/10W_0603 R5
U 1 1 54A042E0
P 8350 2550
AR Path="/549B635A/54A042E0" Ref="R5"  Part="1" 
AR Path="/54A30C9B/54A042E0" Ref="R12"  Part="1" 
F 0 "R12" V 8300 2600 50  0000 C CNN
F 1 "33" V 8400 2600 50  0000 C CNN
F 2 "IPC-N:RESC1608X50N" H 8350 2550 60  0001 C CNN
F 3 "" H 8350 2550 60  0000 C CNN
F 4 "DigiKey" H 8350 2550 60  0001 C CNN "Vendor"
F 5 "RHM33.0CFCT-ND" H 8350 2550 60  0001 C CNN "PN"
F 6 "Rohm Semiconductor" H 8350 2550 60  0001 C CNN "Manufacturer"
F 7 "MCR03ERTF33R0" H 8350 2550 60  0001 C CNN "MPN"
	1    8350 2550
	0    1    1    0   
$EndComp
$Comp
L RES_SMD_33_OHM_1%_1/10W_0603 R6
U 1 1 54A043DB
P 8350 3300
AR Path="/549B635A/54A043DB" Ref="R6"  Part="1" 
AR Path="/54A30C9B/54A043DB" Ref="R13"  Part="1" 
F 0 "R13" V 8300 3350 50  0000 C CNN
F 1 "33" V 8400 3350 50  0000 C CNN
F 2 "IPC-N:RESC1608X50N" H 8350 3300 60  0001 C CNN
F 3 "" H 8350 3300 60  0000 C CNN
F 4 "DigiKey" H 8350 3300 60  0001 C CNN "Vendor"
F 5 "RHM33.0CFCT-ND" H 8350 3300 60  0001 C CNN "PN"
F 6 "Rohm Semiconductor" H 8350 3300 60  0001 C CNN "Manufacturer"
F 7 "MCR03ERTF33R0" H 8350 3300 60  0001 C CNN "MPN"
	1    8350 3300
	0    1    1    0   
$EndComp
$Comp
L RES_SMD_33_OHM_1%_1/10W_0603 R4
U 1 1 54A04424
P 8300 4200
AR Path="/549B635A/54A04424" Ref="R4"  Part="1" 
AR Path="/54A30C9B/54A04424" Ref="R11"  Part="1" 
F 0 "R11" V 8250 4250 50  0000 C CNN
F 1 "33" V 8350 4250 50  0000 C CNN
F 2 "IPC-N:RESC1608X50N" H 8300 4200 60  0001 C CNN
F 3 "" H 8300 4200 60  0000 C CNN
F 4 "DigiKey" H 8300 4200 60  0001 C CNN "Vendor"
F 5 "RHM33.0CFCT-ND" H 8300 4200 60  0001 C CNN "PN"
F 6 "Rohm Semiconductor" H 8300 4200 60  0001 C CNN "Manufacturer"
F 7 "MCR03ERTF33R0" H 8300 4200 60  0001 C CNN "MPN"
	1    8300 4200
	0    1    1    0   
$EndComp
$Comp
L RES_SMD_33_OHM_1%_1/10W_0603 R7
U 1 1 54A04470
P 8350 5000
AR Path="/549B635A/54A04470" Ref="R7"  Part="1" 
AR Path="/54A30C9B/54A04470" Ref="R14"  Part="1" 
F 0 "R14" V 8300 5050 50  0000 C CNN
F 1 "33" V 8400 5050 50  0000 C CNN
F 2 "IPC-N:RESC1608X50N" H 8350 5000 60  0001 C CNN
F 3 "" H 8350 5000 60  0000 C CNN
F 4 "DigiKey" H 8350 5000 60  0001 C CNN "Vendor"
F 5 "RHM33.0CFCT-ND" H 8350 5000 60  0001 C CNN "PN"
F 6 "Rohm Semiconductor" H 8350 5000 60  0001 C CNN "Manufacturer"
F 7 "MCR03ERTF33R0" H 8350 5000 60  0001 C CNN "MPN"
	1    8350 5000
	0    1    1    0   
$EndComp
Wire Wire Line
	8450 2550 8550 2550
Wire Wire Line
	8550 3300 8450 3300
Wire Wire Line
	8400 4200 8550 4200
Wire Wire Line
	8450 5000 8550 5000
Wire Wire Line
	8250 5000 7350 5000
Wire Wire Line
	7350 5000 7350 3850
Wire Wire Line
	7350 3850 6300 3850
Wire Wire Line
	8200 4200 8200 3650
Wire Wire Line
	8200 3650 6300 3650
Wire Wire Line
	8000 3300 8000 3000
Connection ~ 7000 3300
Wire Wire Line
	6300 3400 8250 3400
Wire Wire Line
	8250 3400 8250 3300
Wire Wire Line
	6300 3200 7850 3200
Wire Wire Line
	7850 3200 7850 2550
Wire Wire Line
	7850 2550 8250 2550
$Comp
L CAP_CER_10UF_25V_10%_X5R_0805 C2
U 1 1 54A1001E
P 4450 3100
AR Path="/549B635A/54A1001E" Ref="C2"  Part="1" 
AR Path="/54A30C9B/54A1001E" Ref="C8"  Part="1" 
F 0 "C8" H 4450 3200 40  0000 L CNN
F 1 "10UF" H 4456 3015 40  0000 L CNN
F 2 "IPC-N:CAPC2012X140N" H 4488 2950 30  0001 C CNN
F 3 "" H 4450 3100 60  0000 C CNN
F 4 "DigiKey" H 4450 3100 60  0001 C CNN "Vendor"
F 5 "1276-2891-1-ND" H 4450 3100 60  0001 C CNN "PN"
F 6 "Samsung Electro-Mechanics America Inc" H 4450 3100 60  0001 C CNN "Manufacturer"
F 7 "CL21A106KAYNNNE" H 4450 3100 60  0001 C CNN "MPN"
	1    4450 3100
	1    0    0    -1  
$EndComp
Wire Wire Line
	5200 3050 4450 3050
Wire Wire Line
	4450 3200 4450 3250
Wire Wire Line
	4450 3250 4200 3250
Connection ~ 4200 3250
Wire Wire Line
	4050 4050 4050 4000
Wire Wire Line
	4050 3800 4050 3750
$Comp
L RES_10K_OHM_1/10W_5%_0603 R1
U 1 1 54A10563
P 3900 4000
AR Path="/549B635A/54A10563" Ref="R1"  Part="1" 
AR Path="/54A30C9B/54A10563" Ref="R8"  Part="1" 
F 0 "R8" V 3850 4050 50  0000 C CNN
F 1 "10K" V 3950 4050 50  0000 C CNN
F 2 "IPC-N:RESC1608X50N" H 3900 4000 60  0001 C CNN
F 3 "" H 3900 4000 60  0000 C CNN
F 4 "DigiKey" H 3900 4000 60  0001 C CNN "Vendor"
F 5 "RMCF0603JT10K0CT-ND" H 3900 4000 60  0001 C CNN "PN"
F 6 "Stackpole Electronics Inc" H 3900 4000 60  0001 C CNN "Manufacturer"
F 7 "RMCF0603JT10K0" H 3900 4000 60  0001 C CNN "MPN"
	1    3900 4000
	1    0    0    -1  
$EndComp
Wire Wire Line
	5200 4150 3900 4150
Wire Wire Line
	3900 4150 3900 4100
$Comp
L +3.3V #PWR6
U 1 1 54A1061C
P 3900 3800
AR Path="/549B635A/54A1061C" Ref="#PWR6"  Part="1" 
AR Path="/54A30C9B/54A1061C" Ref="#PWR17"  Part="1" 
F 0 "#PWR17" H 3900 3940 20  0001 C CNN
F 1 "+3.3V" H 3900 3910 30  0000 C CNN
F 2 "" H 3900 3800 60  0000 C CNN
F 3 "" H 3900 3800 60  0000 C CNN
	1    3900 3800
	1    0    0    -1  
$EndComp
Wire Wire Line
	3900 3900 3900 3800
$Comp
L RES_33.2K_OHM_1/8W_1%_0805_SMD R3
U 1 1 54A114AA
P 4850 4450
AR Path="/549B635A/54A114AA" Ref="R3"  Part="1" 
AR Path="/54A30C9B/54A114AA" Ref="R10"  Part="1" 
F 0 "R10" H 4950 4500 50  0000 C CNN
F 1 "33.2K" H 5000 4400 50  0000 C CNN
F 2 "IPC-N:RESC2012X70N" H 4850 4450 60  0001 C CNN
F 3 "" H 4850 4450 60  0000 C CNN
F 4 "DigiKey" H 4850 4450 60  0001 C CNN "Vendor"
F 5 "P33.2KCCT-ND" H 4850 4450 60  0001 C CNN "PN"
F 6 "Panasonic Electronic Components" H 4850 4450 60  0001 C CNN "Manufacturer"
F 7 "ERJ-6ENF3322V" H 4850 4450 60  0001 C CNN "MPN"
	1    4850 4450
	1    0    0    -1  
$EndComp
Wire Wire Line
	5200 4350 4850 4350
Wire Wire Line
	5200 4450 5200 4650
Wire Wire Line
	5200 4550 4850 4550
$Comp
L GND #PWR10
U 1 1 54A11776
P 5200 4650
AR Path="/549B635A/54A11776" Ref="#PWR10"  Part="1" 
AR Path="/54A30C9B/54A11776" Ref="#PWR21"  Part="1" 
F 0 "#PWR21" H 5200 4650 30  0001 C CNN
F 1 "GND" H 5200 4580 30  0000 C CNN
F 2 "" H 5200 4650 60  0000 C CNN
F 3 "" H 5200 4650 60  0000 C CNN
	1    5200 4650
	1    0    0    -1  
$EndComp
Connection ~ 5200 4550
Text HLabel 5050 3250 0    60   Input ~ 0
AHI
Wire Wire Line
	5050 3250 5200 3250
Text HLabel 5050 3400 0    60   Input ~ 0
ALO
Wire Wire Line
	5050 3400 5200 3400
Text HLabel 5050 3700 0    60   Input ~ 0
BHI
Text HLabel 5050 3850 0    60   Input ~ 0
BLO
Wire Wire Line
	5050 3700 5200 3700
Wire Wire Line
	5050 3850 5200 3850
$EndSCHEMATC
