EESchema Schematic File Version 2
LIBS:ChipResistor
LIBS:Schottky
LIBS:SchottkyPack
LIBS:PowerInductors
LIBS:BatteryChargers
LIBS:power
LIBS:LDO
LIBS:Atmel
LIBS:MicAmps
LIBS:ADCs
LIBS:MOSFETs
LIBS:SPI
LIBS:m95
LIBS:DACs
LIBS:SpeakerAmps
LIBS:mma8652fcr1
LIBS:HC49
LIBS:CeramicCapacitors
LIBS:74
LIBS:Switches
LIBS:conn
LIBS:easyvr
LIBS:ABMM
LIBS:2403_260_00031
LIBS:Mic
LIBS:TVS
LIBS:Indication
LIBS:TantalumCapacitors
LIBS:PushButtons
LIBS:sim
LIBS:Standard
LIBS:JustPhone-cache
EELAYER 25 0
EELAYER END
$Descr A4 11693 8268
encoding utf-8
Sheet 3 5
Title ""
Date ""
Rev ""
Comp ""
Comment1 ""
Comment2 ""
Comment3 ""
Comment4 ""
$EndDescr
$Comp
L ATMEGA328A-AUR U3
U 1 1 54428101
P 5500 3450
F 0 "U3" H 4750 4700 40  0000 L BNN
F 1 "ATMEGA328A-AUR" H 5900 2050 40  0000 L BNN
F 2 "IPC-N:QFP80P900X900X120-32N" H 5500 3450 30  0001 C CIN
F 3 "" H 5500 3450 60  0000 C CNN
F 4 "DigiKey" H 5500 3450 60  0001 C CNN "Vendor"
F 5 "ATMEGA328-AURCT-ND" H 5500 3450 60  0001 C CNN "PN"
F 6 "Atmel" H 5500 3450 60  0001 C CNN "Manufacturer"
F 7 "ATMEGA328-AUR" H 5500 3450 60  0001 C CNN "MPN"
	1    5500 3450
	1    0    0    -1  
$EndComp
$Comp
L CAP_CER_0.1UF_10V_10%_X7R_0603 C6
U 1 1 5442832E
P 1650 1900
F 0 "C6" H 1700 1950 40  0000 L CNN
F 1 "0.1UF" H 1700 1800 40  0000 L CNN
F 2 "IPC-N:CAPC1608X90N" H 1688 1750 30  0001 C CNN
F 3 "" H 1650 1900 60  0000 C CNN
F 4 "DigiKey" H 1650 1900 60  0001 C CNN "Vendor"
F 5 "399-1095-1-ND" H 1650 1900 60  0001 C CNN "PN"
F 6 "Kemet" H 1650 1900 60  0001 C CNN "Manufacturer"
F 7 "C0603C104K8RACTU" H 1650 1900 60  0001 C CNN "MPN"
	1    1650 1900
	1    0    0    -1  
$EndComp
$Comp
L GND #PWR012
U 1 1 544283E0
P 1850 2150
F 0 "#PWR012" H 1850 2150 30  0001 C CNN
F 1 "GND" H 1850 2080 30  0000 C CNN
F 2 "" H 1850 2150 60  0000 C CNN
F 3 "" H 1850 2150 60  0000 C CNN
	1    1850 2150
	1    0    0    -1  
$EndComp
$Comp
L CAP_CER_0.1UF_10V_10%_X7R_0603 C7
U 1 1 54428510
P 2000 1900
F 0 "C7" H 2050 1950 40  0000 L CNN
F 1 "0.1UF" H 2050 1800 40  0000 L CNN
F 2 "IPC-N:CAPC1608X90N" H 2038 1750 30  0001 C CNN
F 3 "" H 2000 1900 60  0000 C CNN
F 4 "DigiKey" H 2000 1900 60  0001 C CNN "Vendor"
F 5 "399-1095-1-ND" H 2000 1900 60  0001 C CNN "PN"
F 6 "Kemet" H 2000 1900 60  0001 C CNN "Manufacturer"
F 7 "C0603C104K8RACTU" H 2000 1900 60  0001 C CNN "MPN"
	1    2000 1900
	1    0    0    -1  
$EndComp
$Comp
L GND #PWR013
U 1 1 544286A3
P 4300 4850
F 0 "#PWR013" H 4300 4850 30  0001 C CNN
F 1 "GND" H 4300 4780 30  0000 C CNN
F 2 "" H 4300 4850 60  0000 C CNN
F 3 "" H 4300 4850 60  0000 C CNN
	1    4300 4850
	1    0    0    -1  
$EndComp
NoConn ~ 4600 2950
NoConn ~ 4600 3700
NoConn ~ 4600 3800
Text GLabel 7100 3300 2    60   Input ~ 0
PWRK
Text GLabel 7100 3200 2    60   Input ~ 0
DTR
Text GLabel 7100 3500 2    60   Input ~ 0
DCD
Text GLabel 7100 3400 2    60   Input ~ 0
RI
Text Label 6750 3600 0    60   ~ 0
SDA
Text Label 6750 3700 0    60   ~ 0
SCL
Text GLabel 7100 2850 2    60   Input ~ 0
SPI_CLK
Text GLabel 7100 2750 2    60   Input ~ 0
MISO
Text GLabel 7100 2650 2    60   Input ~ 0
MOSI
Text GLabel 7100 4550 2    60   Input ~ 0
STATUS
Text Notes 7550 4650 0    60   ~ 0
Timer\nInterrupt
$Comp
L +2.8V #PWR014
U 1 1 544287F9
P 3900 2200
F 0 "#PWR014" H 3900 2340 20  0001 C CNN
F 1 "+2.8V" H 3900 2310 30  0000 C CNN
F 2 "" H 3900 2200 60  0000 C CNN
F 3 "" H 3900 2200 60  0000 C CNN
	1    3900 2200
	1    0    0    -1  
$EndComp
$Comp
L +2.8V #PWR015
U 1 1 54428B26
P 1850 1700
F 0 "#PWR015" H 1850 1840 20  0001 C CNN
F 1 "+2.8V" H 1850 1810 30  0000 C CNN
F 2 "" H 1850 1700 60  0000 C CNN
F 3 "" H 1850 1700 60  0000 C CNN
	1    1850 1700
	1    0    0    -1  
$EndComp
$Comp
L RES_4.7K_OHM_1/10W_5%_0603_SMD R7
U 1 1 54428E36
P 7550 3450
F 0 "R7" H 7650 3500 50  0000 C CNN
F 1 "4.7K" H 7700 3400 50  0000 C CNN
F 2 "IPC-N:RESC1608X50N" H 7550 3450 60  0001 C CNN
F 3 "" H 7550 3450 60  0000 C CNN
F 4 "DigiKey" H 7550 3450 60  0001 C CNN "Vendor"
F 5 "P4.7KGCT-ND" H 7550 3450 60  0001 C CNN "PN"
F 6 "Panasonic Electronic Components" H 7550 3450 60  0001 C CNN "Manufacturer"
F 7 "ERJ-3GEYJ472V" H 7550 3450 60  0001 C CNN "MPN"
	1    7550 3450
	1    0    0    -1  
$EndComp
$Comp
L RES_4.7K_OHM_1/10W_5%_0603_SMD R8
U 1 1 54428F0D
P 7850 3450
F 0 "R8" H 7950 3500 50  0000 C CNN
F 1 "4.7K" H 8000 3400 50  0000 C CNN
F 2 "IPC-N:RESC1608X50N" H 7850 3450 60  0001 C CNN
F 3 "" H 7850 3450 60  0000 C CNN
F 4 "DigiKey" H 7850 3450 60  0001 C CNN "Vendor"
F 5 "P4.7KGCT-ND" H 7850 3450 60  0001 C CNN "PN"
F 6 "Panasonic Electronic Components" H 7850 3450 60  0001 C CNN "Manufacturer"
F 7 "ERJ-3GEYJ472V" H 7850 3450 60  0001 C CNN "MPN"
	1    7850 3450
	1    0    0    -1  
$EndComp
$Comp
L +2.8V #PWR016
U 1 1 54428FB2
P 7750 3250
F 0 "#PWR016" H 7750 3390 20  0001 C CNN
F 1 "+2.8V" H 7750 3360 30  0000 C CNN
F 2 "" H 7750 3250 60  0000 C CNN
F 3 "" H 7750 3250 60  0000 C CNN
	1    7750 3250
	1    0    0    -1  
$EndComp
$Comp
L RES_1.00K_OHM_1/8W_1%_SMD_0603 R5
U 1 1 54429481
P 6750 3950
F 0 "R5" V 6700 4000 50  0000 C CNN
F 1 "1.00K" V 6800 4000 50  0000 C CNN
F 2 "IPC-N:RESC1608X50N" H 6750 3950 60  0001 C CNN
F 3 "" H 6750 3950 60  0000 C CNN
F 4 "DigiKey" H 6750 3950 60  0001 C CNN "Vendor"
F 5 "MCT0603-1.00K-CFCT-ND" H 6750 3950 60  0001 C CNN "PN"
F 6 "Vishay Beyschlag" H 6750 3950 60  0001 C CNN "Manufacturer"
F 7 "MCT06030C1001FP500" H 6750 3950 60  0001 C CNN "MPN"
	1    6750 3950
	0    1    1    0   
$EndComp
Text Label 6950 3800 2    60   ~ 0
/RESET
$Comp
L RES_4.7K_OHM_1/10W_5%_0603_SMD R4
U 1 1 54429B3A
P 4350 1200
F 0 "R4" H 4450 1250 50  0000 C CNN
F 1 "4.7K" H 4500 1150 50  0000 C CNN
F 2 "IPC-N:RESC1608X50N" H 4350 1200 60  0001 C CNN
F 3 "" H 4350 1200 60  0000 C CNN
F 4 "DigiKey" H 4350 1200 60  0001 C CNN "Vendor"
F 5 "P4.7KGCT-ND" H 4350 1200 60  0001 C CNN "PN"
F 6 "Panasonic Electronic Components" H 4350 1200 60  0001 C CNN "Manufacturer"
F 7 "ERJ-3GEYJ472V" H 4350 1200 60  0001 C CNN "MPN"
	1    4350 1200
	1    0    0    -1  
$EndComp
$Comp
L +2.8V #PWR017
U 1 1 54429C17
P 4350 850
F 0 "#PWR017" H 4350 990 20  0001 C CNN
F 1 "+2.8V" H 4350 960 30  0000 C CNN
F 2 "" H 4350 850 60  0000 C CNN
F 3 "" H 4350 850 60  0000 C CNN
	1    4350 850 
	1    0    0    -1  
$EndComp
Text Label 3950 1400 0    60   ~ 0
/RESET
$Comp
L CAP_CER_0.1UF_10V_10%_X7R_0603 C5
U 1 1 5442A2A5
P 1400 1900
F 0 "C5" H 1450 1950 40  0000 L CNN
F 1 "0.1UF" H 1450 1800 40  0000 L CNN
F 2 "IPC-N:CAPC1608X90N" H 1438 1750 30  0001 C CNN
F 3 "" H 1400 1900 60  0000 C CNN
F 4 "DigiKey" H 1400 1900 60  0001 C CNN "Vendor"
F 5 "399-1095-1-ND" H 1400 1900 60  0001 C CNN "PN"
F 6 "Kemet" H 1400 1900 60  0001 C CNN "Manufacturer"
F 7 "C0603C104K8RACTU" H 1400 1900 60  0001 C CNN "MPN"
	1    1400 1900
	1    0    0    -1  
$EndComp
$Comp
L CAP_CER_0.1UF_10V_10%_X7R_0603 C8
U 1 1 5442A2CF
P 2300 1900
F 0 "C8" H 2350 1950 40  0000 L CNN
F 1 "0.1UF" H 2350 1800 40  0000 L CNN
F 2 "IPC-N:CAPC1608X90N" H 2338 1750 30  0001 C CNN
F 3 "" H 2300 1900 60  0000 C CNN
F 4 "DigiKey" H 2300 1900 60  0001 C CNN "Vendor"
F 5 "399-1095-1-ND" H 2300 1900 60  0001 C CNN "PN"
F 6 "Kemet" H 2300 1900 60  0001 C CNN "Manufacturer"
F 7 "C0603C104K8RACTU" H 2300 1900 60  0001 C CNN "MPN"
	1    2300 1900
	1    0    0    -1  
$EndComp
$Comp
L 74HC139 U4
U 1 1 544340A0
P 1750 4750
F 0 "U4" H 1900 5100 60  0000 C CNN
F 1 "74HC139" H 2000 5000 60  0000 C CNN
F 2 "IPC-N:SOP65P640X110-16N" H 1750 4750 60  0001 C CNN
F 3 "" H 1750 4750 60  0000 C CNN
	1    1750 4750
	1    0    0    -1  
$EndComp
$Comp
L 74HC139 U4
U 2 1 54434165
P 9700 3600
F 0 "U4" H 9700 3950 60  0000 C CNN
F 1 "74HC139" H 9700 3850 60  0000 C CNN
F 2 "" H 9700 3600 60  0001 C CNN
F 3 "" H 9700 3600 60  0000 C CNN
	2    9700 3600
	1    0    0    -1  
$EndComp
Text GLabel 10650 3450 2    60   Input ~ 0
ADCSEL
Text GLabel 10650 3550 2    60   Input ~ 0
FLASHSEL
Text GLabel 10650 3700 2    60   Input ~ 0
DACSEL
$Comp
L +2.8V #PWR018
U 1 1 5443514C
P 1750 4250
F 0 "#PWR018" H 1750 4390 20  0001 C CNN
F 1 "+2.8V" H 1750 4360 30  0000 C CNN
F 2 "" H 1750 4250 60  0000 C CNN
F 3 "" H 1750 4250 60  0000 C CNN
	1    1750 4250
	-1   0    0    -1  
$EndComp
Text GLabel 8300 4200 2    60   Input ~ 0
MENUMODE
$Comp
L GND #PWR019
U 1 1 54435468
P 1750 5300
F 0 "#PWR019" H 1750 5300 30  0001 C CNN
F 1 "GND" H 1750 5230 30  0000 C CNN
F 2 "" H 1750 5300 60  0000 C CNN
F 3 "" H 1750 5300 60  0000 C CNN
	1    1750 5300
	-1   0    0    -1  
$EndComp
$Comp
L GND #PWR020
U 1 1 5443569F
P 2350 4750
F 0 "#PWR020" H 2350 4750 30  0001 C CNN
F 1 "GND" H 2350 4680 30  0000 C CNN
F 2 "" H 2350 4750 60  0000 C CNN
F 3 "" H 2350 4750 60  0000 C CNN
	1    2350 4750
	-1   0    0    -1  
$EndComp
Text GLabel 1100 4600 0    60   Input ~ 0
GSMRX
Text GLabel 1100 4700 0    60   Input ~ 0
SPEECHRX
$Comp
L RES_470_OHM_1/10W_5%_0603_SMD R6
U 1 1 544BDC9D
P 6800 2750
F 0 "R6" V 6750 2800 50  0000 C CNN
F 1 "470" V 6850 2800 50  0000 C CNN
F 2 "IPC-N:RESC1608X50N" H 6800 2750 60  0001 C CNN
F 3 "" H 6800 2750 60  0000 C CNN
F 4 "DigiKey" H 6800 2750 60  0001 C CNN "Vendor"
F 5 "RHM470CGCT-ND" H 6800 2750 60  0001 C CNN "PN"
F 6 "Rohm Semicondctor" H 6800 2750 60  0001 C CNN "Manufacturer"
F 7 "MCR03ERTJ471" H 6800 2750 60  0001 C CNN "MPN"
	1    6800 2750
	0    1    1    0   
$EndComp
$Comp
L MMA8652FCR1 U11
U 1 1 5454277F
P 7750 5800
F 0 "U11" H 7750 6350 60  0000 C CNN
F 1 "MMA8652FCR1" H 7750 6250 60  0000 C CNN
F 2 "" H 7750 5800 60  0000 C CNN
F 3 "" H 7750 5800 60  0000 C CNN
F 4 "DigiKey" H 7750 5800 60  0001 C CNN "Vendor"
F 5 "MMA8652FCR1CT-ND" H 7750 5800 60  0001 C CNN "PN"
F 6 "Freescale Semiconductor" H 7750 5800 60  0001 C CNN "Manufacturer"
F 7 "MMA8652FCR1" H 7750 5800 60  0001 C CNN "MPN"
	1    7750 5800
	1    0    0    -1  
$EndComp
Text Label 6800 5650 0    60   ~ 0
SDA
Text Label 6800 5550 0    60   ~ 0
SCL
$Comp
L GND #PWR021
U 1 1 54542ACE
P 8400 6250
F 0 "#PWR021" H 8400 6250 30  0001 C CNN
F 1 "GND" H 8400 6180 30  0000 C CNN
F 2 "" H 8400 6250 60  0000 C CNN
F 3 "" H 8400 6250 60  0000 C CNN
	1    8400 6250
	1    0    0    -1  
$EndComp
$Comp
L +2.8V #PWR022
U 1 1 54542C99
P 8750 5450
F 0 "#PWR022" H 8750 5590 20  0001 C CNN
F 1 "+2.8V" H 8750 5560 30  0000 C CNN
F 2 "" H 8750 5450 60  0000 C CNN
F 3 "" H 8750 5450 60  0000 C CNN
	1    8750 5450
	1    0    0    -1  
$EndComp
$Comp
L CAP_CER_0.1UF_10V_10%_X7R_0603 C40
U 1 1 54542E34
P 8950 6000
F 0 "C40" H 8950 6100 40  0000 L CNN
F 1 "0.1UF" H 8956 5915 40  0000 L CNN
F 2 "IPC-N:CAPC1608X90N" H 8988 5850 30  0001 C CNN
F 3 "" H 8950 6000 60  0000 C CNN
F 4 "DigiKey" H 8950 6000 60  0001 C CNN "Vendor"
F 5 "399-1095-1-ND" H 8950 6000 60  0001 C CNN "PN"
F 6 "Kemet" H 8950 6000 60  0001 C CNN "Manufacturer"
F 7 "C0603C104K8RACTU" H 8950 6000 60  0001 C CNN "MPN"
	1    8950 6000
	1    0    0    -1  
$EndComp
$Comp
L GND #PWR023
U 1 1 54543034
P 8950 6200
F 0 "#PWR023" H 8950 6200 30  0001 C CNN
F 1 "GND" H 8950 6130 30  0000 C CNN
F 2 "" H 8950 6200 60  0000 C CNN
F 3 "" H 8950 6200 60  0000 C CNN
	1    8950 6200
	1    0    0    -1  
$EndComp
$Comp
L CAP_CER_0.1UF_10V_10%_X7R_0603 C41
U 1 1 54543110
P 9550 5700
F 0 "C41" H 9550 5800 40  0000 L CNN
F 1 "0.1UF" H 9556 5615 40  0000 L CNN
F 2 "IPC-N:CAPC1608X90N" H 9588 5550 30  0001 C CNN
F 3 "" H 9550 5700 60  0000 C CNN
F 4 "DigiKey" H 9550 5700 60  0001 C CNN "Vendor"
F 5 "399-1095-1-ND" H 9550 5700 60  0001 C CNN "PN"
F 6 "Kemet" H 9550 5700 60  0001 C CNN "Manufacturer"
F 7 "C0603C104K8RACTU" H 9550 5700 60  0001 C CNN "MPN"
	1    9550 5700
	1    0    0    -1  
$EndComp
$Comp
L CAP_CER_0.1UF_10V_10%_X7R_0603 C42
U 1 1 5454322A
P 9800 5700
F 0 "C42" H 9800 5800 40  0000 L CNN
F 1 "0.1UF" H 9806 5615 40  0000 L CNN
F 2 "IPC-N:CAPC1608X90N" H 9838 5550 30  0001 C CNN
F 3 "" H 9800 5700 60  0000 C CNN
F 4 "DigiKey" H 9800 5700 60  0001 C CNN "Vendor"
F 5 "399-1095-1-ND" H 9800 5700 60  0001 C CNN "PN"
F 6 "Kemet" H 9800 5700 60  0001 C CNN "Manufacturer"
F 7 "C0603C104K8RACTU" H 9800 5700 60  0001 C CNN "MPN"
	1    9800 5700
	1    0    0    -1  
$EndComp
$Comp
L GND #PWR024
U 1 1 54543382
P 9700 5950
F 0 "#PWR024" H 9700 5950 30  0001 C CNN
F 1 "GND" H 9700 5880 30  0000 C CNN
F 2 "" H 9700 5950 60  0000 C CNN
F 3 "" H 9700 5950 60  0000 C CNN
	1    9700 5950
	1    0    0    -1  
$EndComp
$Comp
L CAP_CER_1UF_10V_10%_X7R_0603 C43
U 1 1 5454352D
P 10150 5700
F 0 "C43" H 10150 5800 40  0000 L CNN
F 1 "1UF" H 10156 5615 40  0000 L CNN
F 2 "IPC-N:CAPC1608X90N" H 10188 5550 30  0001 C CNN
F 3 "" H 10150 5700 60  0000 C CNN
F 4 "DigiKey" H 10150 5700 60  0001 C CNN "Vendor"
F 5 "587-1242-1-ND" H 10150 5700 60  0001 C CNN "PN"
F 6 "Taiyo Yuden" H 10150 5700 60  0001 C CNN "Manufacturer"
F 7 "LMK107B7105KA-T" H 10150 5700 60  0001 C CNN "MPN"
	1    10150 5700
	1    0    0    -1  
$EndComp
Text Label 7050 4150 2    60   ~ 0
ACCEL_INT
Text Label 6400 6050 0    60   ~ 0
ACCEL_INT
$Comp
L RES_4.7K_OHM_1/10W_5%_0603_SMD R11
U 1 1 54545F6F
P 7100 5200
F 0 "R11" V 7050 5250 50  0000 C CNN
F 1 "4.7K" V 7150 5250 50  0000 C CNN
F 2 "IPC-N:RESC1608X50N" H 7100 5200 60  0001 C CNN
F 3 "" H 7100 5200 60  0000 C CNN
F 4 "DigiKey" H 7100 5200 60  0001 C CNN "Vendor"
F 5 "P4.7KGCT-ND" H 7100 5200 60  0001 C CNN "PN"
F 6 "Panasonic Electronic Components" H 7100 5200 60  0001 C CNN "Manufacturer"
F 7 "ERJ-3GEYJ472V" H 7100 5200 60  0001 C CNN "MPN"
	1    7100 5200
	1    0    0    -1  
$EndComp
$Comp
L +2.8V #PWR025
U 1 1 545460BB
P 7100 5000
F 0 "#PWR025" H 7100 5140 20  0001 C CNN
F 1 "+2.8V" H 7100 5110 30  0000 C CNN
F 2 "" H 7100 5000 60  0000 C CNN
F 3 "" H 7100 5000 60  0000 C CNN
	1    7100 5000
	1    0    0    -1  
$EndComp
$Comp
L CAP_CER_18PF_50V_5%_NP0_0603 C44
U 1 1 54546ED8
P 8350 2850
F 0 "C44" H 8400 2900 40  0000 L CNN
F 1 "18PF" H 8356 2765 40  0000 L CNN
F 2 "IPC-N:CAPC1608X90N" H 8388 2700 30  0001 C CNN
F 3 "" H 8350 2850 60  0000 C CNN
F 4 "DigiKey" H 8350 2850 60  0001 C CNN "Vendor"
F 5 "399-1052-1-ND" H 8350 2850 60  0001 C CNN "PN"
F 6 "Kemet" H 8350 2850 60  0001 C CNN "Manufacturer"
F 7 "C0603C180J5GACTU" H 8350 2850 60  0001 C CNN "MPN"
	1    8350 2850
	0    -1   -1   0   
$EndComp
$Comp
L CAP_CER_18PF_50V_5%_NP0_0603 C45
U 1 1 54546FCD
P 8350 3050
F 0 "C45" H 8400 3100 40  0000 L CNN
F 1 "18PF" H 8356 2965 40  0000 L CNN
F 2 "IPC-N:CAPC1608X90N" H 8388 2900 30  0001 C CNN
F 3 "" H 8350 3050 60  0000 C CNN
F 4 "DigiKey" H 8350 3050 60  0001 C CNN "Vendor"
F 5 "399-1052-1-ND" H 8350 3050 60  0001 C CNN "PN"
F 6 "Kemet" H 8350 3050 60  0001 C CNN "Manufacturer"
F 7 "C0603C180J5GACTU" H 8350 3050 60  0001 C CNN "MPN"
	1    8350 3050
	0    -1   -1   0   
$EndComp
$Comp
L GND #PWR026
U 1 1 545477FD
P 8500 3200
F 0 "#PWR026" H 8500 3200 30  0001 C CNN
F 1 "GND" H 8500 3130 30  0000 C CNN
F 2 "" H 8500 3200 60  0000 C CNN
F 3 "" H 8500 3200 60  0000 C CNN
	1    8500 3200
	1    0    0    -1  
$EndComp
$Comp
L 74LVC1G157GV U12
U 1 1 54568376
P 2050 3450
F 0 "U12" H 1850 3800 60  0000 C CNN
F 1 "74LVC1G157GV" H 1600 3700 60  0000 C CNN
F 2 "SOT:SC-74" H 2050 3450 60  0001 C CNN
F 3 "" H 2050 3450 60  0000 C CNN
F 4 "DigiKey" H 2050 3450 60  0001 C CNN "Vendor"
F 5 "568-3007-1-ND" H 2050 3450 60  0001 C CNN "PN"
F 6 "NXP Semiconductors" H 2050 3450 60  0001 C CNN "Manufacturer"
F 7 "74LVC1G157GV,125" H 2050 3450 60  0001 C CNN "MPN"
	1    2050 3450
	1    0    0    -1  
$EndComp
Text GLabel 1350 3550 0    60   Input ~ 0
MENUMODE
Text GLabel 1350 3450 0    60   Input ~ 0
SPEECHTX
Text GLabel 1350 3350 0    60   Input ~ 0
GSMTX
$Comp
L +2.8V #PWR027
U 1 1 545691FE
P 2050 2950
F 0 "#PWR027" H 2050 3090 20  0001 C CNN
F 1 "+2.8V" H 2050 3060 30  0000 C CNN
F 2 "" H 2050 2950 60  0000 C CNN
F 3 "" H 2050 2950 60  0000 C CNN
	1    2050 2950
	1    0    0    -1  
$EndComp
$Comp
L GND #PWR028
U 1 1 54569248
P 2050 3950
F 0 "#PWR028" H 2050 3950 30  0001 C CNN
F 1 "GND" H 2050 3880 30  0000 C CNN
F 2 "" H 2050 3950 60  0000 C CNN
F 3 "" H 2050 3950 60  0000 C CNN
	1    2050 3950
	1    0    0    -1  
$EndComp
$Comp
L GND #PWR029
U 1 1 5459AA32
P 3550 4700
F 0 "#PWR029" H 3550 4700 30  0001 C CNN
F 1 "GND" H 3550 4650 30  0000 C CNN
F 2 "" H 3550 4700 60  0000 C CNN
F 3 "" H 3550 4700 60  0000 C CNN
	1    3550 4700
	-1   0    0    -1  
$EndComp
Text Label 7250 3950 2    60   ~ 0
RX
Text Label 7250 4050 2    60   ~ 0
TX
Text Label 3300 4150 0    60   ~ 0
RX
Text Label 3300 4250 0    60   ~ 0
TX
$Comp
L CONN_3X2 N2
U 1 1 545C1CBD
P 5000 5800
F 0 "N2" H 5000 6050 50  0000 C CNN
F 1 "ICSP" H 5000 5650 40  0000 C CNN
F 2 "" H 5000 5800 60  0000 C CNN
F 3 "" H 5000 5800 60  0000 C CNN
	1    5000 5800
	1    0    0    -1  
$EndComp
$Comp
L +2.8V #PWR030
U 1 1 545C1ED7
P 5550 5450
F 0 "#PWR030" H 5550 5590 20  0001 C CNN
F 1 "+2.8V" H 5550 5560 30  0000 C CNN
F 2 "" H 5550 5450 60  0000 C CNN
F 3 "" H 5550 5450 60  0000 C CNN
	1    5550 5450
	1    0    0    -1  
$EndComp
$Comp
L GND #PWR031
U 1 1 545C2053
P 5600 6000
F 0 "#PWR031" H 5600 6000 30  0001 C CNN
F 1 "GND" H 5600 5930 30  0000 C CNN
F 2 "" H 5600 6000 60  0000 C CNN
F 3 "" H 5600 6000 60  0000 C CNN
	1    5600 6000
	1    0    0    -1  
$EndComp
Text GLabel 4450 5750 0    60   Input ~ 0
SPI_CLK
Text GLabel 4450 5650 0    60   Input ~ 0
MISO
Text GLabel 5550 5750 2    60   Input ~ 0
MOSI
Text Label 3650 5850 0    60   ~ 0
/RESET
$Comp
L CONN_6 N1
U 1 1 545E5768
P 3950 4300
F 0 "N1" V 3900 4300 60  0000 C CNN
F 1 "CONN_6" V 4000 4300 60  0000 C CNN
F 2 "connect:SIL-6" H 3950 4300 60  0001 C CNN
F 3 "" H 3950 4300 60  0000 C CNN
	1    3950 4300
	1    0    0    1   
$EndComp
$Comp
L CONN_2 J1
U 1 1 545E5F04
P 3000 3800
F 0 "J1" V 2950 3800 40  0000 C CNN
F 1 "CONN_2" V 3050 3800 40  0000 C CNN
F 2 "connect:SIL-2" H 3000 3800 60  0001 C CNN
F 3 "" H 3000 3800 60  0000 C CNN
	1    3000 3800
	0    -1   -1   0   
$EndComp
$Comp
L CONN_2 J2
U 1 1 545E5FE6
P 3000 4600
F 0 "J2" V 2950 4600 40  0000 C CNN
F 1 "CONN_2" V 3050 4600 40  0000 C CNN
F 2 "connect:SIL-2" H 3000 4600 60  0001 C CNN
F 3 "" H 3000 4600 60  0000 C CNN
	1    3000 4600
	0    1    1    0   
$EndComp
Wire Wire Line
	4600 2350 3900 2350
Wire Wire Line
	3900 2200 3900 2650
Wire Wire Line
	3900 2450 4600 2450
Connection ~ 3900 2350
Wire Wire Line
	3900 2650 4600 2650
Connection ~ 3900 2450
Wire Wire Line
	1650 1850 1650 1800
Wire Wire Line
	1400 1800 2300 1800
Wire Wire Line
	1850 1800 1850 1700
Wire Wire Line
	1650 2000 1650 2050
Wire Wire Line
	1400 2050 2300 2050
Wire Wire Line
	1850 2050 1850 2150
Wire Wire Line
	2000 1800 2000 1850
Connection ~ 1850 1800
Wire Wire Line
	2000 2050 2000 2000
Connection ~ 1850 2050
Wire Wire Line
	4600 4450 4300 4450
Wire Wire Line
	4300 4450 4300 4850
Wire Wire Line
	4600 4550 4300 4550
Connection ~ 4300 4550
Wire Wire Line
	4600 4650 4300 4650
Connection ~ 4300 4650
Wire Wire Line
	6500 3200 7100 3200
Wire Wire Line
	6500 3300 7100 3300
Wire Wire Line
	7100 3400 6500 3400
Wire Wire Line
	7100 3500 6500 3500
Wire Wire Line
	6500 3600 7550 3600
Wire Wire Line
	6500 3700 7850 3700
Wire Wire Line
	6500 2850 7100 2850
Wire Wire Line
	6500 2650 7100 2650
Wire Wire Line
	6500 4550 7100 4550
Wire Wire Line
	7850 3700 7850 3550
Wire Wire Line
	7550 3600 7550 3550
Wire Wire Line
	7550 3350 7550 3300
Wire Wire Line
	7550 3300 7850 3300
Wire Wire Line
	7850 3300 7850 3350
Connection ~ 7750 3300
Wire Wire Line
	6500 3950 6650 3950
Wire Wire Line
	6500 3800 6950 3800
Wire Wire Line
	4350 850  4350 1100
Wire Wire Line
	3600 1400 4350 1400
Wire Wire Line
	4350 1400 4350 1300
Wire Wire Line
	2300 1800 2300 1850
Connection ~ 2000 1800
Wire Wire Line
	2300 2050 2300 2000
Connection ~ 2000 2050
Wire Wire Line
	1400 2050 1400 2000
Connection ~ 1650 2050
Wire Wire Line
	1400 1850 1400 1800
Connection ~ 1650 1800
Wire Wire Line
	9200 3500 8900 3500
Wire Wire Line
	8900 3500 8900 4650
Wire Wire Line
	8900 4650 6500 4650
Wire Wire Line
	9200 3600 8800 3600
Wire Wire Line
	8800 3600 8800 2350
Wire Wire Line
	8800 2350 6500 2350
Wire Wire Line
	9200 3750 8700 3750
Wire Wire Line
	8700 3750 8700 2550
Wire Wire Line
	8700 2550 6500 2550
Wire Wire Line
	10200 3450 10650 3450
Wire Wire Line
	10200 3550 10650 3550
Wire Wire Line
	10200 3700 10650 3700
Wire Wire Line
	1750 4350 1750 4250
Wire Wire Line
	8300 4200 8250 4200
Wire Wire Line
	8250 4200 8250 4350
Wire Wire Line
	1750 5200 1750 5300
Wire Wire Line
	1250 4600 1100 4600
Wire Wire Line
	1250 4700 1100 4700
Wire Wire Line
	6500 2750 6700 2750
Wire Wire Line
	6900 2750 7100 2750
Wire Wire Line
	7250 5550 6800 5550
Wire Wire Line
	6800 5650 7250 5650
Wire Wire Line
	8200 5850 8400 5850
Wire Wire Line
	8400 5850 8400 6250
Wire Wire Line
	8200 5950 8400 5950
Connection ~ 8400 5950
Wire Wire Line
	8200 6050 8400 6050
Connection ~ 8400 6050
Wire Wire Line
	8200 5550 10150 5550
Wire Wire Line
	8750 5450 8750 5650
Wire Wire Line
	8750 5650 8200 5650
Connection ~ 8750 5550
Wire Wire Line
	8200 5750 8950 5750
Wire Wire Line
	8950 5750 8950 5950
Wire Wire Line
	8950 6100 8950 6200
Wire Wire Line
	9550 5550 9550 5650
Wire Wire Line
	9800 5550 9800 5650
Connection ~ 9550 5550
Wire Wire Line
	9550 5800 9550 5900
Wire Wire Line
	9550 5900 10150 5900
Wire Wire Line
	9700 5900 9700 5950
Wire Wire Line
	9800 5900 9800 5800
Connection ~ 9700 5900
Wire Wire Line
	10150 5550 10150 5650
Connection ~ 9800 5550
Wire Wire Line
	10150 5900 10150 5800
Connection ~ 9800 5900
Wire Wire Line
	6500 4150 7050 4150
Wire Wire Line
	6350 6050 7250 6050
Wire Wire Line
	7100 5300 7100 6050
Connection ~ 7100 6050
Wire Wire Line
	7100 5000 7100 5100
Wire Wire Line
	6500 2950 7900 2950
Wire Wire Line
	6500 3050 7900 3050
Wire Wire Line
	7750 3250 7750 3300
Wire Wire Line
	7850 2850 8300 2850
Wire Wire Line
	8300 3050 8300 3100
Wire Wire Line
	8300 3100 7850 3100
Wire Wire Line
	7850 3100 7850 3050
Connection ~ 7850 3050
Wire Wire Line
	7850 2850 7850 2950
Connection ~ 7850 2950
Wire Wire Line
	8450 2850 8500 2850
Wire Wire Line
	8500 2850 8500 3200
Wire Wire Line
	8450 3050 8500 3050
Connection ~ 8500 3050
Wire Wire Line
	1650 3550 1350 3550
Wire Wire Line
	1650 3450 1350 3450
Wire Wire Line
	1650 3350 1350 3350
Wire Wire Line
	2050 3850 2050 3950
Wire Wire Line
	2050 3050 2050 2950
Wire Wire Line
	8250 4350 6500 4350
Wire Wire Line
	2250 4700 2350 4700
Wire Wire Line
	2350 4700 2350 4750
Wire Wire Line
	2250 4900 2750 4900
Wire Wire Line
	2750 4900 2750 4250
Wire Wire Line
	2400 3450 2750 3450
Wire Wire Line
	3600 4450 3550 4450
Wire Wire Line
	3550 4450 3550 4700
Wire Wire Line
	3600 4550 3550 4550
Connection ~ 3550 4550
Wire Wire Line
	6500 4050 7250 4050
Wire Wire Line
	6850 3950 7250 3950
Wire Wire Line
	3200 4150 3600 4150
Wire Wire Line
	3250 4250 3600 4250
Wire Wire Line
	1550 3550 1550 4000
Wire Wire Line
	1550 4000 1950 4000
Wire Wire Line
	1950 4000 1950 4300
Wire Wire Line
	1950 4300 2350 4300
Wire Wire Line
	2350 4300 2350 4600
Wire Wire Line
	2350 4600 2250 4600
Connection ~ 1550 3550
Wire Wire Line
	5400 5850 5600 5850
Wire Wire Line
	5600 5850 5600 6000
Wire Wire Line
	5400 5650 5550 5650
Wire Wire Line
	5550 5650 5550 5450
Wire Wire Line
	4450 5650 4600 5650
Wire Wire Line
	4600 5750 4450 5750
Wire Wire Line
	5400 5750 5550 5750
Wire Wire Line
	4600 5850 3650 5850
Wire Wire Line
	6500 4250 8100 4250
Wire Wire Line
	8100 4250 8100 2450
Wire Wire Line
	8100 2450 6500 2450
Wire Wire Line
	2750 3450 2750 4150
Wire Wire Line
	2750 4150 2900 4150
Wire Wire Line
	2750 4250 2900 4250
Wire Wire Line
	3100 4250 3200 4250
Wire Wire Line
	3200 4250 3200 4150
Wire Wire Line
	3100 4150 3150 4150
Wire Wire Line
	3150 4150 3150 4200
Wire Wire Line
	3150 4200 3250 4200
Wire Wire Line
	3250 4200 3250 4250
$Comp
L ABMM-8.000MHZ-B2-T X1
U 1 1 546103A3
P 7900 3000
F 0 "X1" V 7950 3100 60  0000 C CNN
F 1 "8.0MHZ" V 7800 3000 60  0000 C CNN
F 2 "XTALs:XTAL_ABRACON_ABMM" H 7900 3000 60  0001 C CNN
F 3 "" H 7900 3000 60  0000 C CNN
F 4 "DigiKey" H 7900 3000 60  0001 C CNN "Vendor"
F 5 "535-9164-1-ND" H 7900 3000 60  0001 C CNN "PN"
F 6 "Abracon Corporation" H 7900 3000 60  0001 C CNN "Manufacturer"
F 7 "ABMM-8.000MHZ-B2-T" H 7900 3000 60  0001 C CNN "MPN"
	1    7900 3000
	0    1    1    0   
$EndComp
$Comp
L SW_PUSH SW2
U 1 1 54763D97
P 6200 6050
F 0 "SW2" H 6210 6170 50  0000 C CNN
F 1 "SW_PUSH" H 6200 5970 50  0000 C CNN
F 2 "Button:FSM_JSM_BUTTON" H 6200 6050 60  0001 C CNN
F 3 "" H 6200 6050 60  0000 C CNN
F 4 "DigiKey" H 6200 6050 60  0001 C CNN "Vendor"
F 5 "450-1792-1-ND" H 6200 6050 60  0001 C CNN "PN"
F 6 "TE Connectivity" H 6200 6050 60  0001 C CNN "Manufacturer"
F 7 "2-1437565-9" H 6200 6050 60  0001 C CNN "MPN"
	1    6200 6050
	1    0    0    -1  
$EndComp
$Comp
L GND #PWR032
U 1 1 547646A5
P 5900 6350
F 0 "#PWR032" H 5900 6350 30  0001 C CNN
F 1 "GND" H 5900 6280 30  0000 C CNN
F 2 "" H 5900 6350 60  0000 C CNN
F 3 "" H 5900 6350 60  0000 C CNN
	1    5900 6350
	1    0    0    -1  
$EndComp
Wire Wire Line
	6050 6050 5900 6050
Wire Wire Line
	5900 6050 5900 6350
$Comp
L SW_PUSH SW1
U 1 1 54764EFC
P 3450 1400
F 0 "SW1" H 3460 1520 50  0000 C CNN
F 1 "SW_PUSH" H 3450 1320 50  0000 C CNN
F 2 "Button:FSM_JSM_BUTTON" H 3450 1400 60  0001 C CNN
F 3 "" H 3450 1400 60  0000 C CNN
F 4 "DigiKey" H 3450 1400 60  0001 C CNN "Vendor"
F 5 "450-1792-1-ND" H 3450 1400 60  0001 C CNN "PN"
F 6 "TE Connectivity" H 3450 1400 60  0001 C CNN "Manufacturer"
F 7 "2-1437565-9" H 3450 1400 60  0001 C CNN "MPN"
	1    3450 1400
	1    0    0    -1  
$EndComp
$Comp
L GND #PWR033
U 1 1 547650EE
P 3050 1600
F 0 "#PWR033" H 3050 1600 30  0001 C CNN
F 1 "GND" H 3050 1530 30  0000 C CNN
F 2 "" H 3050 1600 60  0000 C CNN
F 3 "" H 3050 1600 60  0000 C CNN
	1    3050 1600
	1    0    0    -1  
$EndComp
Wire Wire Line
	3300 1400 3050 1400
Wire Wire Line
	3050 1400 3050 1600
$Comp
L CAP_CER_0.1UF_10V_10%_X7R_0603 C54
U 1 1 547652C1
P 3800 1550
F 0 "C54" H 3850 1600 40  0000 L CNN
F 1 "0.1UF" H 3850 1450 40  0000 L CNN
F 2 "IPC-N:CAPC1608X90N" H 3838 1400 30  0001 C CNN
F 3 "" H 3800 1550 60  0000 C CNN
F 4 "DigiKey" H 3800 1550 60  0001 C CNN "Vendor"
F 5 "399-1095-1-ND" H 3800 1550 60  0001 C CNN "PN"
F 6 "Kemet" H 3800 1550 60  0001 C CNN "Manufacturer"
F 7 "C0603C104K8RACTU" H 3800 1550 60  0001 C CNN "MPN"
	1    3800 1550
	1    0    0    -1  
$EndComp
Wire Wire Line
	3800 1400 3800 1500
Connection ~ 3800 1400
$Comp
L GND #PWR034
U 1 1 5476554F
P 3800 1800
F 0 "#PWR034" H 3800 1800 30  0001 C CNN
F 1 "GND" H 3800 1730 30  0000 C CNN
F 2 "" H 3800 1800 60  0000 C CNN
F 3 "" H 3800 1800 60  0000 C CNN
	1    3800 1800
	1    0    0    -1  
$EndComp
Wire Wire Line
	3800 1650 3800 1800
$Comp
L FDV301N Q3
U 1 1 5477313C
P 9550 4650
F 0 "Q3" H 9700 4750 70  0000 C CNN
F 1 "FDV301N" H 9850 4550 60  0000 C CNN
F 2 "SOT:SOT23" H 9600 4650 60  0001 C CNN
F 3 "" H 9550 4650 60  0000 C CNN
F 4 "DigiKey" H 9550 4650 60  0001 C CNN "Vendor"
F 5 "FDV301NCT-ND" H 9550 4650 60  0001 C CNN "PN"
F 6 "Fairchild Semiconductor" H 9550 4650 60  0001 C CNN "Manufacturer"
F 7 "FDV301N" H 9550 4650 60  0001 C CNN "MPN"
	1    9550 4650
	1    0    0    -1  
$EndComp
$Comp
L GND #PWR035
U 1 1 54773258
P 9600 4900
F 0 "#PWR035" H 9600 4900 30  0001 C CNN
F 1 "GND" H 9600 4830 30  0000 C CNN
F 2 "" H 9600 4900 60  0000 C CNN
F 3 "" H 9600 4900 60  0000 C CNN
	1    9600 4900
	1    0    0    -1  
$EndComp
Wire Wire Line
	9600 4800 9600 4900
Wire Wire Line
	6500 4450 9050 4450
Wire Wire Line
	9050 4450 9050 4650
Wire Wire Line
	9050 4650 9400 4650
$Comp
L CONN_2 M1
U 1 1 54773B38
P 11000 4700
F 0 "M1" V 10950 4700 40  0000 C CNN
F 1 "CONN_2" V 11050 4700 40  0000 C CNN
F 2 "pin_array:PIN_ARRAY_2X1" H 11000 4700 60  0001 C CNN
F 3 "" H 11000 4700 60  0000 C CNN
	1    11000 4700
	1    0    0    -1  
$EndComp
Wire Wire Line
	9600 4500 10350 4500
Wire Wire Line
	10350 4500 10350 4650
Wire Wire Line
	10200 4600 10650 4600
$Comp
L +2.8V #PWR036
U 1 1 5477406C
P 10800 5100
F 0 "#PWR036" H 10800 5240 20  0001 C CNN
F 1 "+2.8V" H 10800 5210 30  0000 C CNN
F 2 "" H 10800 5100 60  0000 C CNN
F 3 "" H 10800 5100 60  0000 C CNN
	1    10800 5100
	1    0    0    -1  
$EndComp
Wire Wire Line
	10650 4800 10650 5200
Wire Wire Line
	10650 5200 10800 5200
Wire Wire Line
	10800 5200 10800 5100
$Comp
L CAP_CER_0.1UF_10V_10%_X7R_0603 C59
U 1 1 547743D8
P 10350 4700
F 0 "C59" H 10400 4750 40  0000 L CNN
F 1 "0.1UF" H 10400 4650 40  0000 L CNN
F 2 "IPC-N:CAPC1608X90N" H 10388 4550 30  0001 C CNN
F 3 "" H 10350 4700 60  0000 C CNN
F 4 "DigiKey" H 10350 4700 60  0001 C CNN "Vendor"
F 5 "399-1095-1-ND" H 10350 4700 60  0001 C CNN "PN"
F 6 "Kemet" H 10350 4700 60  0001 C CNN "Manufacturer"
F 7 "C0603C104K8RACTU" H 10350 4700 60  0001 C CNN "MPN"
	1    10350 4700
	1    0    0    -1  
$EndComp
Connection ~ 10350 4600
Wire Wire Line
	10200 4800 10650 4800
$Comp
L MMBD914-7-F D?
U 1 1 5484B9F4
P 10200 4700
F 0 "D?" V 10150 4750 40  0000 C CNN
F 1 "MMBD914-7-F" V 10450 4700 40  0000 C CNN
F 2 "SOT:SOT23" H 10200 4700 60  0001 C CNN
F 3 "" H 10200 4700 60  0000 C CNN
F 4 "DigiKey" H 10200 4700 60  0001 C CNN "Vendor"
F 5 "MMBD914-FDICT-ND" H 10200 4700 60  0001 C CNN "PN"
F 6 "Diodes Incorporated" H 10200 4700 60  0001 C CNN "Manufacturer"
F 7 "MMBD914-7-F" H 10200 4700 60  0001 C CNN "MPN"
	1    10200 4700
	0    1    1    0   
$EndComp
Wire Wire Line
	10200 4650 10200 4600
Connection ~ 10350 4800
$EndSCHEMATC
