EESchema Schematic File Version 2
LIBS:ChipResistor
LIBS:Schottky
LIBS:SchottkyPack
LIBS:PowerInductors
LIBS:BatteryChargers
LIBS:power
LIBS:LDO
LIBS:Atmel
LIBS:MicAmps
LIBS:ADCs
LIBS:MOSFETs
LIBS:SPI
LIBS:m95
LIBS:DACs
LIBS:SpeakerAmps
LIBS:mma8652fcr1
LIBS:HC49
LIBS:CeramicCapacitors
LIBS:74
LIBS:Switches
LIBS:conn
LIBS:easyvr
LIBS:ABMM
LIBS:2403_260_00031
LIBS:Mic
LIBS:TVS
LIBS:Indication
LIBS:TantalumCapacitors
LIBS:PushButtons
LIBS:sim
LIBS:Standard
LIBS:JustPhone-cache
EELAYER 25 0
EELAYER END
$Descr A4 11693 8268
encoding utf-8
Sheet 2 5
Title ""
Date ""
Rev ""
Comp ""
Comment1 ""
Comment2 ""
Comment3 ""
Comment4 ""
$EndDescr
$Comp
L CAP_CER_1UF_50V_10%_X7R_0805 C1
U 1 1 543AC07A
P 3000 4000
F 0 "C1" H 3050 4050 40  0000 L CNN
F 1 "1UF" H 3050 3900 40  0000 L CNN
F 2 "IPC-N:CAPC2012X140N" H 3038 3850 30  0001 C CNN
F 3 "" H 3000 4000 60  0000 C CNN
F 4 "DigiKey" H 3000 4000 60  0001 C CNN "Vendor"
F 5 "1276-1029-1-ND" H 3000 4000 60  0001 C CNN "PN"
F 6 "Samsung Electro-Mechanics America Inc" H 3000 4000 60  0001 C CNN "Manufacturer"
F 7 "CL21B105KBFNNNE" H 3000 4000 60  0001 C CNN "MPN"
	1    3000 4000
	1    0    0    -1  
$EndComp
$Comp
L RES_2.26K_OHM_1/8W_1%_0805_SMD R1
U 1 1 543AC0D9
P 4550 4100
F 0 "R1" H 4650 4200 50  0000 C CNN
F 1 "2.26K 1%" H 4800 4100 50  0000 C CNN
F 2 "IPC-N:RESC2012X70N" H 4550 4100 60  0001 C CNN
F 3 "" H 4550 4100 60  0000 C CNN
F 4 "DigiKey" H 4550 4100 60  0001 C CNN "Vendor"
F 5 "P2.26KCCT-ND" H 4550 4100 60  0001 C CNN "PN"
F 6 "Panasonic Electronic Components" H 4550 4100 60  0001 C CNN "Manufacturer"
F 7 "ERJ-6ENF2261V" H 4550 4100 60  0001 C CNN "MPN"
	1    4550 4100
	1    0    0    -1  
$EndComp
$Comp
L MCP73812T U1
U 1 1 543AC129
P 3850 3950
F 0 "U1" H 3850 4350 60  0000 C CNN
F 1 "MCP73812T" H 3850 4250 60  0000 C CNN
F 2 "SOT:SOT23-5" H 3850 3950 60  0001 C CNN
F 3 "" H 3850 3950 60  0000 C CNN
F 4 "DigiKey" H 3850 3950 60  0001 C CNN "Vendor"
F 5 "MCP73812T-420I/OTCT-ND" H 3850 3950 60  0001 C CNN "PN"
F 6 "Microchip Technology" H 3850 3950 60  0001 C CNN "Manufacturer"
F 7 "MCP73812T-420I/OT" H 3850 3950 60  0001 C CNN "MPN"
	1    3850 3950
	1    0    0    -1  
$EndComp
$Comp
L CAP_CER_1UF_50V_10%_X7R_0805 C2
U 1 1 543AC390
P 5200 4000
F 0 "C2" H 5250 4050 40  0000 L CNN
F 1 "1UF" H 5250 3900 40  0000 L CNN
F 2 "IPC-N:CAPC2012X140N" H 5238 3850 30  0001 C CNN
F 3 "" H 5200 4000 60  0000 C CNN
F 4 "DigiKey" H 5200 4000 60  0001 C CNN "Vendor"
F 5 "1276-1029-1-ND" H 5200 4000 60  0001 C CNN "PN"
F 6 "Samsung Electro-Mechanics America Inc" H 5200 4000 60  0001 C CNN "Manufacturer"
F 7 "CL21B105KBFNNNE" H 5200 4000 60  0001 C CNN "MPN"
	1    5200 4000
	1    0    0    -1  
$EndComp
$Comp
L GND #PWR01
U 1 1 543AC443
P 3000 4200
F 0 "#PWR01" H 3000 4200 30  0001 C CNN
F 1 "GND" H 3000 4130 30  0000 C CNN
F 2 "" H 3000 4200 60  0000 C CNN
F 3 "" H 3000 4200 60  0000 C CNN
	1    3000 4200
	1    0    0    -1  
$EndComp
$Comp
L GND #PWR02
U 1 1 543AC469
P 3850 4400
F 0 "#PWR02" H 3850 4400 30  0001 C CNN
F 1 "GND" H 3850 4330 30  0000 C CNN
F 2 "" H 3850 4400 60  0000 C CNN
F 3 "" H 3850 4400 60  0000 C CNN
	1    3850 4400
	1    0    0    -1  
$EndComp
$Comp
L GND #PWR03
U 1 1 543AC4A5
P 4550 4300
F 0 "#PWR03" H 4550 4300 30  0001 C CNN
F 1 "GND" H 4550 4230 30  0000 C CNN
F 2 "" H 4550 4300 60  0000 C CNN
F 3 "" H 4550 4300 60  0000 C CNN
	1    4550 4300
	1    0    0    -1  
$EndComp
$Comp
L GND #PWR04
U 1 1 543AC4B4
P 5200 4250
F 0 "#PWR04" H 5200 4250 30  0001 C CNN
F 1 "GND" H 5200 4180 30  0000 C CNN
F 2 "" H 5200 4250 60  0000 C CNN
F 3 "" H 5200 4250 60  0000 C CNN
	1    5200 4250
	1    0    0    -1  
$EndComp
$Comp
L CAP_CER_10UF_6.3V_10%_X7R_0805 C3
U 1 1 543AC79C
P 6250 3900
F 0 "C3" H 6300 3950 40  0000 L CNN
F 1 "10UF" H 6256 3815 40  0000 L CNN
F 2 "IPC-N:CAPC2012X140N" H 6288 3750 30  0001 C CNN
F 3 "" H 6250 3900 60  0000 C CNN
F 4 "DigiKey" H 6250 3900 60  0001 C CNN "Vendor"
F 5 "587-2396-1-ND" H 6250 3900 60  0001 C CNN "PN"
F 6 "Taiyo Yuden" H 6250 3900 60  0001 C CNN "Manufacturer"
F 7 "JMK212B7106KG-T" H 6250 3900 60  0001 C CNN "MPN"
	1    6250 3900
	1    0    0    -1  
$EndComp
$Comp
L CAP_CER_10UF_6.3V_10%_X7R_0805 C4
U 1 1 543ACB11
P 7550 4150
F 0 "C4" H 7600 4200 40  0000 L CNN
F 1 "10UF" H 7600 4050 40  0000 L CNN
F 2 "IPC-N:CAPC2012X140N" H 7588 4000 30  0001 C CNN
F 3 "" H 7550 4150 60  0000 C CNN
F 4 "DigiKey" H 7550 4150 60  0001 C CNN "Vendor"
F 5 "587-2396-1-ND" H 7550 4150 60  0001 C CNN "PN"
F 6 "Taiyo Yuden" H 7550 4150 60  0001 C CNN "Manufacturer"
F 7 "JMK212B7106KG-T" H 7550 4150 60  0001 C CNN "MPN"
	1    7550 4150
	1    0    0    -1  
$EndComp
$Comp
L RES_33.2K_OHM_1/8W_1%_0805_SMD R2
U 1 1 543ACBB1
P 7900 3800
F 0 "R2" H 8000 3850 50  0000 C CNN
F 1 "33.2K" H 8050 3750 50  0000 C CNN
F 2 "IPC-N:RESC2012X70N" H 7900 3800 60  0001 C CNN
F 3 "" H 7900 3800 60  0000 C CNN
F 4 "DigiKey" H 7900 3800 60  0001 C CNN "Vendor"
F 5 "P33.2KCCT-ND" H 7900 3800 60  0001 C CNN "PN"
F 6 "Panasonic Electronic Components" H 7900 3800 60  0001 C CNN "Manufacturer"
F 7 "ERJ-6ENF3322V" H 7900 3800 60  0001 C CNN "MPN"
	1    7900 3800
	1    0    0    -1  
$EndComp
$Comp
L RES_44.2K_OHM_1/8W_1%_0805_SMD R3
U 1 1 543ACE55
P 7900 4100
F 0 "R3" H 8000 4150 50  0000 C CNN
F 1 "44.2K" H 8050 4050 50  0000 C CNN
F 2 "IPC-N:RESC2012X70N" H 7900 4100 60  0001 C CNN
F 3 "" H 7900 4100 60  0000 C CNN
F 4 "DigiKey" H 7900 4100 60  0001 C CNN "Vendor"
F 5 "P44.2KCCT-ND" H 7900 4100 60  0001 C CNN "PN"
F 6 "Panasonic Electronic Components" H 7900 4100 60  0001 C CNN "Manufacturer"
F 7 "ERJ-6ENF4422V" H 7900 4100 60  0001 C CNN "MPN"
	1    7900 4100
	1    0    0    -1  
$EndComp
$Comp
L TPS73101DBV U2
U 1 1 543AD32D
P 7050 3800
F 0 "U2" H 7050 4100 60  0000 C CNN
F 1 "TPS73101DBV" H 7100 4000 60  0000 C CNN
F 2 "SOT:SOT23-5" H 7050 3800 60  0001 C CNN
F 3 "" H 7050 3800 60  0000 C CNN
F 4 "DigiKey" H 7050 3800 60  0001 C CNN "Vendor"
F 5 "296-27058-1-ND" H 7050 3800 60  0001 C CNN "PN"
F 6 "Texas Instruments" H 7050 3800 60  0001 C CNN "Manufacturer"
F 7 "TPS73101DBVR" H 7050 3800 60  0001 C CNN "MPN"
	1    7050 3800
	1    0    0    -1  
$EndComp
$Comp
L GND #PWR05
U 1 1 543AD535
P 6250 4200
F 0 "#PWR05" H 6250 4200 30  0001 C CNN
F 1 "GND" H 6250 4130 30  0000 C CNN
F 2 "" H 6250 4200 60  0000 C CNN
F 3 "" H 6250 4200 60  0000 C CNN
	1    6250 4200
	1    0    0    -1  
$EndComp
$Comp
L GND #PWR06
U 1 1 543AD594
P 7050 4300
F 0 "#PWR06" H 7050 4300 30  0001 C CNN
F 1 "GND" H 7050 4230 30  0000 C CNN
F 2 "" H 7050 4300 60  0000 C CNN
F 3 "" H 7050 4300 60  0000 C CNN
	1    7050 4300
	1    0    0    -1  
$EndComp
$Comp
L GND #PWR07
U 1 1 543AD7CB
P 7550 4400
F 0 "#PWR07" H 7550 4400 30  0001 C CNN
F 1 "GND" H 7550 4330 30  0000 C CNN
F 2 "" H 7550 4400 60  0000 C CNN
F 3 "" H 7550 4400 60  0000 C CNN
	1    7550 4400
	1    0    0    -1  
$EndComp
$Comp
L GND #PWR08
U 1 1 543AD806
P 7900 4350
F 0 "#PWR08" H 7900 4350 30  0001 C CNN
F 1 "GND" H 7900 4280 30  0000 C CNN
F 2 "" H 7900 4350 60  0000 C CNN
F 3 "" H 7900 4350 60  0000 C CNN
	1    7900 4350
	1    0    0    -1  
$EndComp
$Comp
L +2.8V #PWR09
U 1 1 54428891
P 8350 3550
F 0 "#PWR09" H 8350 3690 20  0001 C CNN
F 1 "+2.8V" H 8350 3660 30  0000 C CNN
F 2 "" H 8350 3550 60  0000 C CNN
F 3 "" H 8350 3550 60  0000 C CNN
	1    8350 3550
	1    0    0    -1  
$EndComp
$Comp
L CONN_5 N4
U 1 1 5476303C
P 1950 3950
F 0 "N4" V 1900 3950 50  0000 C CNN
F 1 "CONN_5" V 2000 3950 50  0000 C CNN
F 2 "Conn PC:conn_usb_B_micro_smd" H 1950 3950 60  0001 C CNN
F 3 "" H 1950 3950 60  0000 C CNN
	1    1950 3950
	-1   0    0    -1  
$EndComp
$Comp
L CONN_1 N5
U 1 1 5476324A
P 6250 2600
F 0 "N5" H 6330 2600 40  0000 L CNN
F 1 "CONN_1" H 6250 2655 30  0001 C CNN
F 2 "libcms:1PIN_SMD" H 6250 2600 60  0001 C CNN
F 3 "" H 6250 2600 60  0000 C CNN
	1    6250 2600
	1    0    0    -1  
$EndComp
Wire Wire Line
	3000 3950 3000 3750
Wire Wire Line
	2350 3750 3400 3750
Wire Wire Line
	4300 3850 4550 3850
Wire Wire Line
	4550 3850 4550 4000
Wire Wire Line
	4300 3750 5700 3750
Wire Wire Line
	5200 2600 5200 3950
Wire Wire Line
	5200 4100 5200 4250
Wire Wire Line
	4550 4200 4550 4300
Wire Wire Line
	3850 4300 3850 4400
Wire Wire Line
	3000 4100 3000 4200
Wire Wire Line
	3400 3850 3300 3850
Wire Wire Line
	3300 3850 3300 3750
Connection ~ 3300 3750
Wire Wire Line
	6650 3800 6550 3800
Wire Wire Line
	6550 3800 6550 3700
Wire Wire Line
	6550 3700 6650 3700
Wire Wire Line
	6250 3400 6250 3850
Wire Wire Line
	5900 3750 6550 3750
Connection ~ 6550 3750
Wire Wire Line
	6250 4200 6250 4000
Wire Wire Line
	7050 4200 7050 4300
Wire Wire Line
	7450 3700 8350 3700
Wire Wire Line
	7550 3700 7550 4100
Wire Wire Line
	7900 4000 7900 3900
Wire Wire Line
	7450 3800 7750 3800
Wire Wire Line
	7750 3800 7750 3950
Wire Wire Line
	7750 3950 7900 3950
Connection ~ 7900 3950
Wire Wire Line
	7550 4250 7550 4400
Wire Wire Line
	7900 4200 7900 4350
Connection ~ 7550 3700
Wire Wire Line
	8350 3700 8350 3550
Connection ~ 7900 3700
Connection ~ 3000 3750
Wire Wire Line
	2350 4150 3000 4150
Connection ~ 3000 4150
$Comp
L VBAT #PWR010
U 1 1 54763512
P 6250 3400
F 0 "#PWR010" H 6250 3540 20  0001 C CNN
F 1 "VBAT" H 6250 3510 30  0000 C CNN
F 2 "" H 6250 3400 60  0000 C CNN
F 3 "" H 6250 3400 60  0000 C CNN
	1    6250 3400
	1    0    0    -1  
$EndComp
Connection ~ 5200 3750
$Comp
L CONN_1 N6
U 1 1 54763709
P 6250 2850
F 0 "N6" H 6330 2850 40  0000 L CNN
F 1 "CONN_1" H 6250 2905 30  0001 C CNN
F 2 "libcms:1PIN_SMD" H 6250 2850 60  0001 C CNN
F 3 "" H 6250 2850 60  0000 C CNN
	1    6250 2850
	1    0    0    -1  
$EndComp
$Comp
L GND #PWR011
U 1 1 54763807
P 5900 2950
F 0 "#PWR011" H 5900 2950 30  0001 C CNN
F 1 "GND" H 5900 2880 30  0000 C CNN
F 2 "" H 5900 2950 60  0000 C CNN
F 3 "" H 5900 2950 60  0000 C CNN
	1    5900 2950
	1    0    0    -1  
$EndComp
Wire Wire Line
	6100 2850 5900 2850
Wire Wire Line
	5900 2850 5900 2950
Wire Wire Line
	5200 2600 6100 2600
$Comp
L CONN_2 F1
U 1 1 54774E99
P 5800 3350
F 0 "F1" V 5750 3350 40  0000 C CNN
F 1 "FUSE" V 5850 3350 40  0000 C CNN
F 2 "IPC-N:RESC3216X60N" H 5800 3350 60  0001 C CNN
F 3 "" H 5800 3350 60  0000 C CNN
	1    5800 3350
	0    -1   -1   0   
$EndComp
Wire Wire Line
	5700 3750 5700 3700
Wire Wire Line
	5900 3700 5900 3750
Connection ~ 6250 3750
$EndSCHEMATC
