#VRML V2.0 utf8
#Exported from Wings 3D 0.98.31
DEF cylinder2 Transform {
  children [
    Shape {
      appearance Appearance {
        material DEF default Material {
          diffuseColor 0.820000 0.754023 0.754023
          emissiveColor 0.00000e+0 0.00000e+0 0.00000e+0
          specularColor 1.00000 1.00000 1.00000
          ambientIntensity 1.00000
          transparency 0.00000e+0
          shininess 1.00000
        }
      }
      geometry IndexedFaceSet {
        normalPerVertex TRUE
        coord Coordinate { point [
          -0.839416 0.977938 0.592311,
          -0.847028 0.939669 0.592311,
          -0.868705 0.907227 0.592311,
          -0.901148 0.885550 0.592311,
          -0.939416 0.877938 0.592311,
          -0.977684 0.885550 0.592311,
          -1.01013 0.907227 0.592311,
          -1.03180 0.939669 0.592311,
          -1.03942 0.977938 0.592311,
          -1.03180 1.01621 0.592311,
          -1.01013 1.04865 0.592311,
          -0.977684 1.07033 0.592311,
          -0.939416 1.07794 0.592311,
          -0.901148 1.07033 0.592311,
          -0.868705 1.04865 0.592311,
          -0.847028 1.01621 0.592311,
          -0.839416 0.977938 0.392311,
          -0.847028 0.939669 0.392311,
          -0.868705 0.907227 0.392311,
          -0.901148 0.885550 0.392311,
          -0.939416 0.877938 0.392311,
          -0.977684 0.885550 0.392311,
          -1.01013 0.907227 0.392311,
          -1.03180 0.939669 0.392311,
          -1.03942 0.977938 0.392311,
          -1.03180 1.01621 0.392311,
          -1.01013 1.04865 0.392311,
          -0.977684 1.07033 0.392311,
          -0.939416 1.07794 0.392311,
          -0.901148 1.07033 0.392311,
          -0.868705 1.04865 0.392311,
          -0.847028 1.01621 0.392311 ] }
        coordIndex [
          0, 1, 17, 16, -1,
          0, 15, 14, 13, 12, 11, 10, 9, 8, 7, 6, 5, 4, 3, 2, 1, -1,
          0, 16, 31, 15, -1,
          1, 2, 18, 17, -1,
          2, 3, 19, 18, -1,
          3, 4, 20, 19, -1,
          4, 5, 21, 20, -1,
          5, 6, 22, 21, -1,
          6, 7, 23, 22, -1,
          7, 8, 24, 23, -1,
          8, 9, 25, 24, -1,
          9, 10, 26, 25, -1,
          10, 11, 27, 26, -1,
          11, 12, 28, 27, -1,
          12, 13, 29, 28, -1,
          13, 14, 30, 29, -1,
          14, 15, 31, 30, -1,
          16, 17, 18, 19, 20, 21, 22, 23, 24, 25, 26, 27, 28, 29, 30, 31, -1 ]
        normal Normal { vector [
          0.890909 0.00000e+0 0.454182,
          0.823093 -0.340936 0.454182,
          0.629968 -0.629968 0.454182,
          0.340936 -0.823093 0.454182,
          1.51273e-16 -0.890909 0.454182,
          -0.340936 -0.823093 0.454182,
          -0.629968 -0.629968 0.454182,
          -0.823093 -0.340936 0.454182,
          -0.890909 0.00000e+0 0.454182,
          -0.823093 0.340936 0.454182,
          -0.629968 0.629968 0.454182,
          -0.340936 0.823093 0.454182,
          1.51273e-16 0.890909 0.454182,
          0.340936 0.823093 0.454182,
          0.629968 0.629968 0.454182,
          0.823093 0.340936 0.454182,
          0.890909 0.00000e+0 -0.454182,
          0.823093 -0.340936 -0.454182,
          0.629968 -0.629968 -0.454182,
          0.340936 -0.823093 -0.454182,
          5.04243e-17 -0.890909 -0.454182,
          -0.340936 -0.823093 -0.454182,
          -0.629968 -0.629968 -0.454182,
          -0.823093 -0.340936 -0.454182,
          -0.890909 0.00000e+0 -0.454182,
          -0.823093 0.340936 -0.454182,
          -0.629968 0.629968 -0.454182,
          -0.340936 0.823093 -0.454182,
          5.04243e-17 0.890909 -0.454182,
          0.340936 0.823093 -0.454182,
          0.629968 0.629968 -0.454182,
          0.823093 0.340936 -0.454182 ] }
        normalIndex [
          0, 1, 17, 16, -1,
          0, 15, 14, 13, 12, 11, 10, 9, 8, 7, 6, 5, 4, 3, 2, 1, -1,
          0, 16, 31, 15, -1,
          1, 2, 18, 17, -1,
          2, 3, 19, 18, -1,
          3, 4, 20, 19, -1,
          4, 5, 21, 20, -1,
          5, 6, 22, 21, -1,
          6, 7, 23, 22, -1,
          7, 8, 24, 23, -1,
          8, 9, 25, 24, -1,
          9, 10, 26, 25, -1,
          10, 11, 27, 26, -1,
          11, 12, 28, 27, -1,
          12, 13, 29, 28, -1,
          13, 14, 30, 29, -1,
          14, 15, 31, 30, -1,
          16, 17, 18, 19, 20, 21, 22, 23, 24, 25, 26, 27, 28, 29, 30, 31, -1 ]
      }
    }
  ]
}

DEF cube46 Transform {
  children [
    Shape {
      appearance Appearance {
        material DEF Body Material {
          diffuseColor 0.234100 0.234100 0.234100
          emissiveColor 1.00000e-3 1.00000e-3 1.00000e-3
          specularColor 1.00000 1.00000 1.00000
          ambientIntensity 1.00000
          transparency 0.00000e+0
          shininess 1.00000
        }
      }
      geometry IndexedFaceSet {
        normalPerVertex TRUE
        coord Coordinate { point [
          -1.37763 -1.19927 0.315517,
          -1.37763 1.20623 0.315517,
          -1.37763 1.20623 4.64097e-2,
          -1.37763 -1.19927 4.64097e-2,
          -1.20838 1.37548 0.315517,
          1.19713 1.37548 0.315517,
          1.19713 1.37548 4.64097e-2,
          -1.20838 1.37548 4.64097e-2,
          1.36637 1.20623 0.315517,
          1.36637 -1.19927 0.315517,
          1.36637 -1.19927 4.64097e-2,
          1.36637 1.20623 4.64097e-2,
          1.19713 -1.36852 0.315517,
          -1.20838 -1.36852 0.315517,
          -1.20838 -1.36852 4.64097e-2,
          1.19713 -1.36852 4.64097e-2,
          -1.27985 1.19395 0.566740,
          -1.19609 1.27770 0.566740,
          -1.27985 -1.18699 0.566740,
          -1.19609 -1.27074 0.566740,
          1.18484 -1.27074 0.566740,
          1.26860 -1.18699 0.566740,
          1.26860 1.19395 0.566740,
          1.18484 1.27770 0.566740 ] }
        coordIndex [
          0, 1, 2, 3, -1,
          0, 3, 14, 13, -1,
          0, 13, 19, 18, -1,
          0, 18, 16, 1, -1,
          1, 4, 7, 2, -1,
          1, 16, 17, 4, -1,
          2, 7, 6, 11, 10, 15, 14, 3, -1,
          4, 5, 6, 7, -1,
          4, 17, 23, 5, -1,
          5, 8, 11, 6, -1,
          5, 23, 22, 8, -1,
          8, 9, 10, 11, -1,
          8, 22, 21, 9, -1,
          9, 12, 15, 10, -1,
          9, 21, 20, 12, -1,
          12, 13, 14, 15, -1,
          12, 20, 19, 13, -1,
          16, 18, 19, 20, 21, 22, 23, 17, -1 ]
        normal Normal { vector [
          -0.907787 -0.378662 0.180385,
          -0.907787 0.378662 0.180385,
          -0.812520 0.336557 -0.475963,
          -0.812520 -0.336557 -0.475963,
          -0.378662 0.907787 0.180385,
          0.378662 0.907787 0.180385,
          0.336557 0.812520 -0.475963,
          -0.336557 0.812520 -0.475963,
          0.907787 0.378662 0.180385,
          0.907787 -0.378662 0.180385,
          0.812520 -0.336557 -0.475963,
          0.812520 0.336557 -0.475963,
          0.378662 -0.907787 0.180385,
          -0.378662 -0.907787 0.180385,
          -0.336557 -0.812520 -0.475963,
          0.336557 -0.812520 -0.475963,
          -0.667946 0.280684 0.689249,
          -0.280684 0.667946 0.689249,
          -0.667946 -0.280684 0.689249,
          -0.280684 -0.667946 0.689249,
          0.280684 -0.667946 0.689249,
          0.667946 -0.280684 0.689249,
          0.667946 0.280684 0.689249,
          0.280684 0.667946 0.689249 ] }
        normalIndex [
          0, 1, 2, 3, -1,
          0, 3, 14, 13, -1,
          0, 13, 19, 18, -1,
          0, 18, 16, 1, -1,
          1, 4, 7, 2, -1,
          1, 16, 17, 4, -1,
          2, 7, 6, 11, 10, 15, 14, 3, -1,
          4, 5, 6, 7, -1,
          4, 17, 23, 5, -1,
          5, 8, 11, 6, -1,
          5, 23, 22, 8, -1,
          8, 9, 10, 11, -1,
          8, 22, 21, 9, -1,
          9, 12, 15, 10, -1,
          9, 21, 20, 12, -1,
          12, 13, 14, 15, -1,
          12, 20, 19, 13, -1,
          16, 18, 19, 20, 21, 22, 23, 17, -1 ]
      }
    },
    Shape {
      appearance Appearance {
        material DEF Silver Material {
          diffuseColor 0.820000 0.754023 0.754023
          emissiveColor 0.00000e+0 0.00000e+0 0.00000e+0
          specularColor 1.00000 1.00000 1.00000
          ambientIntensity 1.00000
          transparency 0.00000e+0
          shininess 1.00000
        }
      }
      geometry IndexedFaceSet {
        normalPerVertex TRUE
        coord Coordinate { point [
          0.223693 1.49700 4.37632e-2,
          8.64930e-2 1.49700 4.37632e-2,
          8.64930e-2 1.73220 4.37632e-2,
          0.223693 1.73220 4.37632e-2,
          0.223693 1.47272 4.56322e-3,
          8.64930e-2 1.47272 4.56322e-3,
          8.64930e-2 1.73220 4.56322e-3,
          0.223693 1.73220 4.56322e-3,
          0.223693 1.43820 0.318163,
          8.64930e-2 1.43820 0.318163,
          8.64930e-2 1.41392 0.278963,
          0.223693 1.41392 0.278963,
          0.223693 1.35980 0.318163,
          8.64930e-2 1.35980 0.318163,
          8.64930e-2 1.35980 0.278963,
          0.223693 1.35980 0.278963,
          -8.99070e-2 -1.49004 4.37632e-2,
          -0.227107 -1.49004 4.37632e-2,
          -0.227107 -1.72524 4.37632e-2,
          -8.99070e-2 -1.72524 4.37632e-2,
          -8.99070e-2 -1.46576 4.56322e-3,
          -0.227107 -1.46576 4.56322e-3,
          -0.227107 -1.72524 4.56322e-3,
          -8.99070e-2 -1.72524 4.56322e-3,
          -8.99070e-2 -1.43124 0.318163,
          -0.227107 -1.43124 0.318163,
          -0.227107 -1.40696 0.278963,
          -8.99070e-2 -1.40696 0.278963,
          -8.99070e-2 -1.35284 0.318163,
          -0.227107 -1.35284 0.318163,
          -0.227107 -1.35284 0.278963,
          -8.99070e-2 -1.35284 0.278963,
          -0.403507 -1.49004 4.37632e-2,
          -0.540707 -1.49004 4.37632e-2,
          -0.540707 -1.72524 4.37632e-2,
          -0.403507 -1.72524 4.37632e-2,
          -0.403507 -1.46576 4.56322e-3,
          -0.540707 -1.46576 4.56322e-3,
          -0.540707 -1.72524 4.56322e-3,
          -0.403507 -1.72524 4.56322e-3,
          -0.403507 -1.43124 0.318163,
          -0.540707 -1.43124 0.318163,
          -0.540707 -1.40696 0.278963,
          -0.403507 -1.40696 0.278963,
          -0.403507 -1.35284 0.318163,
          -0.540707 -1.35284 0.318163,
          -0.540707 -1.35284 0.278963,
          -0.403507 -1.35284 0.278963,
          -0.717107 -1.49004 4.37632e-2,
          -0.854307 -1.49004 4.37632e-2,
          -0.854307 -1.72524 4.37632e-2,
          -0.717107 -1.72524 4.37632e-2,
          -0.717107 -1.46576 4.56322e-3,
          -0.854307 -1.46576 4.56322e-3,
          -0.854307 -1.72524 4.56322e-3,
          -0.717107 -1.72524 4.56322e-3,
          -0.717107 -1.43124 0.318163,
          -0.854307 -1.43124 0.318163,
          -0.854307 -1.40696 0.278963,
          -0.717107 -1.40696 0.278963,
          -0.717107 -1.35284 0.318163,
          -0.854307 -1.35284 0.318163,
          -0.854307 -1.35284 0.278963,
          -0.717107 -1.35284 0.278963,
          -1.03071 -1.49004 4.37632e-2,
          -1.16791 -1.49004 4.37632e-2,
          -1.16791 -1.72524 4.37632e-2,
          -1.03071 -1.72524 4.37632e-2,
          -1.03071 -1.46576 4.56322e-3,
          -1.16791 -1.46576 4.56322e-3,
          -1.16791 -1.72524 4.56322e-3,
          -1.03071 -1.72524 4.56322e-3,
          -1.03071 -1.43124 0.318163,
          -1.16791 -1.43124 0.318163,
          -1.16791 -1.40696 0.278963,
          -1.03071 -1.40696 0.278963,
          -1.03071 -1.35284 0.318163,
          -1.16791 -1.35284 0.318163,
          -1.16791 -1.35284 0.278963,
          -1.03071 -1.35284 0.278963,
          1.16449 -1.49004 4.37632e-2,
          1.02729 -1.49004 4.37632e-2,
          1.02729 -1.72524 4.37632e-2,
          1.16449 -1.72524 4.37632e-2,
          1.16449 -1.46576 4.56322e-3,
          1.02729 -1.46576 4.56322e-3,
          1.02729 -1.72524 4.56322e-3,
          1.16449 -1.72524 4.56322e-3,
          1.16449 -1.43124 0.318163,
          1.02729 -1.43124 0.318163,
          1.02729 -1.40696 0.278963,
          1.16449 -1.40696 0.278963,
          1.16449 -1.35284 0.318163,
          1.02729 -1.35284 0.318163,
          1.02729 -1.35284 0.278963,
          1.16449 -1.35284 0.278963,
          0.850893 -1.49004 4.37632e-2,
          0.713693 -1.49004 4.37632e-2,
          0.713693 -1.72524 4.37632e-2,
          0.850893 -1.72524 4.37632e-2,
          0.850893 -1.46576 4.56322e-3,
          0.713693 -1.46576 4.56322e-3,
          0.713693 -1.72524 4.56322e-3,
          0.850893 -1.72524 4.56322e-3,
          0.850893 -1.43124 0.318163,
          0.713693 -1.43124 0.318163,
          0.713693 -1.40696 0.278963,
          0.850893 -1.40696 0.278963,
          0.850893 -1.35284 0.318163,
          0.713693 -1.35284 0.318163,
          0.713693 -1.35284 0.278963,
          0.850893 -1.35284 0.278963,
          0.537293 -1.49004 4.37632e-2,
          0.400093 -1.49004 4.37632e-2,
          0.400093 -1.72524 4.37632e-2,
          0.537293 -1.72524 4.37632e-2,
          0.537293 -1.46576 4.56322e-3,
          0.400093 -1.46576 4.56322e-3,
          0.400093 -1.72524 4.56322e-3,
          0.537293 -1.72524 4.56322e-3,
          0.537293 -1.43124 0.318163,
          0.400093 -1.43124 0.318163,
          0.400093 -1.40696 0.278963,
          0.537293 -1.40696 0.278963,
          0.537293 -1.35284 0.318163,
          0.400093 -1.35284 0.318163,
          0.400093 -1.35284 0.278963,
          0.537293 -1.35284 0.278963,
          0.223693 -1.49004 4.37632e-2,
          8.64930e-2 -1.49004 4.37632e-2,
          8.64930e-2 -1.72524 4.37632e-2,
          0.223693 -1.72524 4.37632e-2,
          0.223693 -1.46576 4.56322e-3,
          8.64930e-2 -1.46576 4.56322e-3,
          8.64930e-2 -1.72524 4.56322e-3,
          0.223693 -1.72524 4.56322e-3,
          0.223693 -1.43124 0.318163,
          8.64930e-2 -1.43124 0.318163,
          8.64930e-2 -1.40696 0.278963,
          0.223693 -1.40696 0.278963,
          0.223693 -1.35284 0.318163,
          8.64930e-2 -1.35284 0.318163,
          8.64930e-2 -1.35284 0.278963,
          0.223693 -1.35284 0.278963,
          -8.99070e-2 1.49700 4.37632e-2,
          -0.227107 1.49700 4.37632e-2,
          -0.227107 1.73220 4.37632e-2,
          -8.99070e-2 1.73220 4.37632e-2,
          -8.99070e-2 1.47272 4.56322e-3,
          -0.227107 1.47272 4.56322e-3,
          -0.227107 1.73220 4.56322e-3,
          -8.99070e-2 1.73220 4.56322e-3,
          -8.99070e-2 1.43820 0.318163,
          -0.227107 1.43820 0.318163,
          -0.227107 1.41392 0.278963,
          -8.99070e-2 1.41392 0.278963,
          -8.99070e-2 1.35980 0.318163,
          -0.227107 1.35980 0.318163,
          -0.227107 1.35980 0.278963,
          -8.99070e-2 1.35980 0.278963,
          -0.403507 1.49700 4.37632e-2,
          -0.540707 1.49700 4.37632e-2,
          -0.540707 1.73220 4.37632e-2,
          -0.403507 1.73220 4.37632e-2,
          -0.403507 1.47272 4.56322e-3,
          -0.540707 1.47272 4.56322e-3,
          -0.540707 1.73220 4.56322e-3,
          -0.403507 1.73220 4.56322e-3,
          -0.403507 1.43820 0.318163,
          -0.540707 1.43820 0.318163,
          -0.540707 1.41392 0.278963,
          -0.403507 1.41392 0.278963,
          -0.403507 1.35980 0.318163,
          -0.540707 1.35980 0.318163,
          -0.540707 1.35980 0.278963,
          -0.403507 1.35980 0.278963,
          -0.717107 1.49700 4.37632e-2,
          -0.854307 1.49700 4.37632e-2,
          -0.854307 1.73220 4.37632e-2,
          -0.717107 1.73220 4.37632e-2,
          -0.717107 1.47272 4.56322e-3,
          -0.854307 1.47272 4.56322e-3,
          -0.854307 1.73220 4.56322e-3,
          -0.717107 1.73220 4.56322e-3,
          -0.717107 1.43820 0.318163,
          -0.854307 1.43820 0.318163,
          -0.854307 1.41392 0.278963,
          -0.717107 1.41392 0.278963,
          -0.717107 1.35980 0.318163,
          -0.854307 1.35980 0.318163,
          -0.854307 1.35980 0.278963,
          -0.717107 1.35980 0.278963,
          -1.03071 1.49700 4.37632e-2,
          -1.16791 1.49700 4.37632e-2,
          -1.16791 1.73220 4.37632e-2,
          -1.03071 1.73220 4.37632e-2,
          -1.03071 1.47272 4.56322e-3,
          -1.16791 1.47272 4.56322e-3,
          -1.16791 1.73220 4.56322e-3,
          -1.03071 1.73220 4.56322e-3,
          -1.03071 1.43820 0.318163,
          -1.16791 1.43820 0.318163,
          -1.16791 1.41392 0.278963,
          -1.03071 1.41392 0.278963,
          -1.03071 1.35980 0.318163,
          -1.16791 1.35980 0.318163,
          -1.16791 1.35980 0.278963,
          -1.03071 1.35980 0.278963,
          1.16449 1.49700 4.37632e-2,
          1.02729 1.49700 4.37632e-2,
          1.02729 1.73220 4.37632e-2,
          1.16449 1.73220 4.37632e-2,
          1.16449 1.47272 4.56322e-3,
          1.02729 1.47272 4.56322e-3,
          1.02729 1.73220 4.56322e-3,
          1.16449 1.73220 4.56322e-3,
          1.16449 1.43820 0.318163,
          1.02729 1.43820 0.318163,
          1.02729 1.41392 0.278963,
          1.16449 1.41392 0.278963,
          1.16449 1.35980 0.318163,
          1.02729 1.35980 0.318163,
          1.02729 1.35980 0.278963,
          1.16449 1.35980 0.278963,
          0.850893 1.49700 4.37632e-2,
          0.713693 1.49700 4.37632e-2,
          0.713693 1.73220 4.37632e-2,
          0.850893 1.73220 4.37632e-2,
          0.850893 1.47272 4.56322e-3,
          0.713693 1.47272 4.56322e-3,
          0.713693 1.73220 4.56322e-3,
          0.850893 1.73220 4.56322e-3,
          0.850893 1.43820 0.318163,
          0.713693 1.43820 0.318163,
          0.713693 1.41392 0.278963,
          0.850893 1.41392 0.278963,
          0.850893 1.35980 0.318163,
          0.713693 1.35980 0.318163,
          0.713693 1.35980 0.278963,
          0.850893 1.35980 0.278963,
          0.537293 1.49700 4.37632e-2,
          0.400093 1.49700 4.37632e-2,
          0.400093 1.73220 4.37632e-2,
          0.537293 1.73220 4.37632e-2,
          0.537293 1.47272 4.56322e-3,
          0.400093 1.47272 4.56322e-3,
          0.400093 1.73220 4.56322e-3,
          0.537293 1.73220 4.56322e-3,
          0.537293 1.43820 0.318163,
          0.400093 1.43820 0.318163,
          0.400093 1.41392 0.278963,
          0.537293 1.41392 0.278963,
          0.537293 1.35980 0.318163,
          0.400093 1.35980 0.318163,
          0.400093 1.35980 0.278963,
          0.537293 1.35980 0.278963,
          -1.49523 9.16800e-2 4.37632e-2,
          -1.49523 0.228880 4.37632e-2,
          -1.73043 0.228880 4.37632e-2,
          -1.73043 9.16800e-2 4.37632e-2,
          -1.47095 9.16800e-2 4.56322e-3,
          -1.47095 0.228880 4.56322e-3,
          -1.73043 0.228880 4.56322e-3,
          -1.73043 9.16800e-2 4.56322e-3,
          -1.43643 9.16800e-2 0.318163,
          -1.43643 0.228880 0.318163,
          -1.41215 0.228880 0.278963,
          -1.41215 9.16800e-2 0.278963,
          -1.35803 9.16800e-2 0.318163,
          -1.35803 0.228880 0.318163,
          -1.35803 0.228880 0.278963,
          -1.35803 9.16800e-2 0.278963,
          -1.49523 0.405280 4.37632e-2,
          -1.49523 0.542480 4.37632e-2,
          -1.73043 0.542480 4.37632e-2,
          -1.73043 0.405280 4.37632e-2,
          -1.47095 0.405280 4.56322e-3,
          -1.47095 0.542480 4.56322e-3,
          -1.73043 0.542480 4.56322e-3,
          -1.73043 0.405280 4.56322e-3,
          -1.43643 0.405280 0.318163,
          -1.43643 0.542480 0.318163,
          -1.41215 0.542480 0.278963,
          -1.41215 0.405280 0.278963,
          -1.35803 0.405280 0.318163,
          -1.35803 0.542480 0.318163,
          -1.35803 0.542480 0.278963,
          -1.35803 0.405280 0.278963,
          -1.49523 0.718880 4.37632e-2,
          -1.49523 0.856080 4.37632e-2,
          -1.73043 0.856080 4.37632e-2,
          -1.73043 0.718880 4.37632e-2,
          -1.47095 0.718880 4.56322e-3,
          -1.47095 0.856080 4.56322e-3,
          -1.73043 0.856080 4.56322e-3,
          -1.73043 0.718880 4.56322e-3,
          -1.43643 0.718880 0.318163,
          -1.43643 0.856080 0.318163,
          -1.41215 0.856080 0.278963,
          -1.41215 0.718880 0.278963,
          -1.35803 0.718880 0.318163,
          -1.35803 0.856080 0.318163,
          -1.35803 0.856080 0.278963,
          -1.35803 0.718880 0.278963,
          -1.49523 1.03248 4.37632e-2,
          -1.49523 1.16968 4.37632e-2,
          -1.73043 1.16968 4.37632e-2,
          -1.73043 1.03248 4.37632e-2,
          -1.47095 1.03248 4.56322e-3,
          -1.47095 1.16968 4.56322e-3,
          -1.73043 1.16968 4.56322e-3,
          -1.73043 1.03248 4.56322e-3,
          -1.43643 1.03248 0.318163,
          -1.43643 1.16968 0.318163,
          -1.41215 1.16968 0.278963,
          -1.41215 1.03248 0.278963,
          -1.35803 1.03248 0.318163,
          -1.35803 1.16968 0.318163,
          -1.35803 1.16968 0.278963,
          -1.35803 1.03248 0.278963,
          -1.49523 -1.16272 4.37632e-2,
          -1.49523 -1.02552 4.37632e-2,
          -1.73043 -1.02552 4.37632e-2,
          -1.73043 -1.16272 4.37632e-2,
          -1.47095 -1.16272 4.56322e-3,
          -1.47095 -1.02552 4.56322e-3,
          -1.73043 -1.02552 4.56322e-3,
          -1.73043 -1.16272 4.56322e-3,
          -1.43643 -1.16272 0.318163,
          -1.43643 -1.02552 0.318163,
          -1.41215 -1.02552 0.278963,
          -1.41215 -1.16272 0.278963,
          -1.35803 -1.16272 0.318163,
          -1.35803 -1.02552 0.318163,
          -1.35803 -1.02552 0.278963,
          -1.35803 -1.16272 0.278963,
          -1.49523 -0.849120 4.37632e-2,
          -1.49523 -0.711920 4.37632e-2,
          -1.73043 -0.711920 4.37632e-2,
          -1.73043 -0.849120 4.37632e-2,
          -1.47095 -0.849120 4.56322e-3,
          -1.47095 -0.711920 4.56322e-3,
          -1.73043 -0.711920 4.56322e-3,
          -1.73043 -0.849120 4.56322e-3,
          -1.43643 -0.849120 0.318163,
          -1.43643 -0.711920 0.318163,
          -1.41215 -0.711920 0.278963,
          -1.41215 -0.849120 0.278963,
          -1.35803 -0.849120 0.318163,
          -1.35803 -0.711920 0.318163,
          -1.35803 -0.711920 0.278963,
          -1.35803 -0.849120 0.278963,
          -1.49523 -0.535520 4.37632e-2,
          -1.49523 -0.398320 4.37632e-2,
          -1.73043 -0.398320 4.37632e-2,
          -1.73043 -0.535520 4.37632e-2,
          -1.47095 -0.535520 4.56322e-3,
          -1.47095 -0.398320 4.56322e-3,
          -1.73043 -0.398320 4.56322e-3,
          -1.73043 -0.535520 4.56322e-3,
          -1.43643 -0.535520 0.318163,
          -1.43643 -0.398320 0.318163,
          -1.41215 -0.398320 0.278963,
          -1.41215 -0.535520 0.278963,
          -1.35803 -0.535520 0.318163,
          -1.35803 -0.398320 0.318163,
          -1.35803 -0.398320 0.278963,
          -1.35803 -0.535520 0.278963,
          -1.49523 -0.221920 4.37632e-2,
          -1.49523 -8.47200e-2 4.37632e-2,
          -1.73043 -8.47200e-2 4.37632e-2,
          -1.73043 -0.221920 4.37632e-2,
          -1.47095 -0.221920 4.56322e-3,
          -1.47095 -8.47200e-2 4.56322e-3,
          -1.73043 -8.47200e-2 4.56322e-3,
          -1.73043 -0.221920 4.56322e-3,
          -1.43643 -0.221920 0.318163,
          -1.43643 -8.47200e-2 0.318163,
          -1.41215 -8.47200e-2 0.278963,
          -1.41215 -0.221920 0.278963,
          -1.35803 -0.221920 0.318163,
          -1.35803 -8.47200e-2 0.318163,
          -1.35803 -8.47200e-2 0.278963,
          -1.35803 -0.221920 0.278963,
          1.49181 9.16800e-2 4.37632e-2,
          1.49181 0.228880 4.37632e-2,
          1.72701 0.228880 4.37632e-2,
          1.72701 9.16800e-2 4.37632e-2,
          1.46753 9.16800e-2 4.56322e-3,
          1.46753 0.228880 4.56322e-3,
          1.72701 0.228880 4.56322e-3,
          1.72701 9.16800e-2 4.56322e-3,
          1.43301 9.16800e-2 0.318163,
          1.43301 0.228880 0.318163,
          1.40873 0.228880 0.278963,
          1.40873 9.16800e-2 0.278963,
          1.35461 9.16800e-2 0.318163,
          1.35461 0.228880 0.318163,
          1.35461 0.228880 0.278963,
          1.35461 9.16800e-2 0.278963,
          1.49181 0.405280 4.37632e-2,
          1.49181 0.542480 4.37632e-2,
          1.72701 0.542480 4.37632e-2,
          1.72701 0.405280 4.37632e-2,
          1.46753 0.405280 4.56322e-3,
          1.46753 0.542480 4.56322e-3,
          1.72701 0.542480 4.56322e-3,
          1.72701 0.405280 4.56322e-3,
          1.43301 0.405280 0.318163,
          1.43301 0.542480 0.318163,
          1.40873 0.542480 0.278963,
          1.40873 0.405280 0.278963,
          1.35461 0.405280 0.318163,
          1.35461 0.542480 0.318163,
          1.35461 0.542480 0.278963,
          1.35461 0.405280 0.278963,
          1.49181 0.718880 4.37632e-2,
          1.49181 0.856080 4.37632e-2,
          1.72701 0.856080 4.37632e-2,
          1.72701 0.718880 4.37632e-2,
          1.46753 0.718880 4.56322e-3,
          1.46753 0.856080 4.56322e-3,
          1.72701 0.856080 4.56322e-3,
          1.72701 0.718880 4.56322e-3,
          1.43301 0.718880 0.318163,
          1.43301 0.856080 0.318163,
          1.40873 0.856080 0.278963,
          1.40873 0.718880 0.278963,
          1.35461 0.718880 0.318163,
          1.35461 0.856080 0.318163,
          1.35461 0.856080 0.278963,
          1.35461 0.718880 0.278963,
          1.49181 1.03248 4.37632e-2,
          1.49181 1.16968 4.37632e-2,
          1.72701 1.16968 4.37632e-2,
          1.72701 1.03248 4.37632e-2,
          1.46753 1.03248 4.56322e-3,
          1.46753 1.16968 4.56322e-3,
          1.72701 1.16968 4.56322e-3,
          1.72701 1.03248 4.56322e-3,
          1.43301 1.03248 0.318163,
          1.43301 1.16968 0.318163,
          1.40873 1.16968 0.278963,
          1.40873 1.03248 0.278963,
          1.35461 1.03248 0.318163,
          1.35461 1.16968 0.318163,
          1.35461 1.16968 0.278963,
          1.35461 1.03248 0.278963,
          1.49181 -1.16272 4.37632e-2,
          1.49181 -1.02552 4.37632e-2,
          1.72701 -1.02552 4.37632e-2,
          1.72701 -1.16272 4.37632e-2,
          1.46753 -1.16272 4.56322e-3,
          1.46753 -1.02552 4.56322e-3,
          1.72701 -1.02552 4.56322e-3,
          1.72701 -1.16272 4.56322e-3,
          1.43301 -1.16272 0.318163,
          1.43301 -1.02552 0.318163,
          1.40873 -1.02552 0.278963,
          1.40873 -1.16272 0.278963,
          1.35461 -1.16272 0.318163,
          1.35461 -1.02552 0.318163,
          1.35461 -1.02552 0.278963,
          1.35461 -1.16272 0.278963,
          1.49181 -0.849120 4.37632e-2,
          1.49181 -0.711920 4.37632e-2,
          1.72701 -0.711920 4.37632e-2,
          1.72701 -0.849120 4.37632e-2,
          1.46753 -0.849120 4.56322e-3,
          1.46753 -0.711920 4.56322e-3,
          1.72701 -0.711920 4.56322e-3,
          1.72701 -0.849120 4.56322e-3,
          1.43301 -0.849120 0.318163,
          1.43301 -0.711920 0.318163,
          1.40873 -0.711920 0.278963,
          1.40873 -0.849120 0.278963,
          1.35461 -0.849120 0.318163,
          1.35461 -0.711920 0.318163,
          1.35461 -0.711920 0.278963,
          1.35461 -0.849120 0.278963,
          1.49181 -0.535520 4.37632e-2,
          1.49181 -0.398320 4.37632e-2,
          1.72701 -0.398320 4.37632e-2,
          1.72701 -0.535520 4.37632e-2,
          1.46753 -0.535520 4.56322e-3,
          1.46753 -0.398320 4.56322e-3,
          1.72701 -0.398320 4.56322e-3,
          1.72701 -0.535520 4.56322e-3,
          1.43301 -0.535520 0.318163,
          1.43301 -0.398320 0.318163,
          1.40873 -0.398320 0.278963,
          1.40873 -0.535520 0.278963,
          1.35461 -0.535520 0.318163,
          1.35461 -0.398320 0.318163,
          1.35461 -0.398320 0.278963,
          1.35461 -0.535520 0.278963,
          1.49181 -0.221920 4.37632e-2,
          1.49181 -8.47200e-2 4.37632e-2,
          1.72701 -8.47200e-2 4.37632e-2,
          1.72701 -0.221920 4.37632e-2,
          1.46753 -0.221920 4.56322e-3,
          1.46753 -8.47200e-2 4.56322e-3,
          1.72701 -8.47200e-2 4.56322e-3,
          1.72701 -0.221920 4.56322e-3,
          1.43301 -0.221920 0.318163,
          1.43301 -8.47200e-2 0.318163,
          1.40873 -8.47200e-2 0.278963,
          1.40873 -0.221920 0.278963,
          1.35461 -0.221920 0.318163,
          1.35461 -8.47200e-2 0.318163,
          1.35461 -8.47200e-2 0.278963,
          1.35461 -0.221920 0.278963 ] }
        coordIndex [
          0, 1, 9, 8, -1,
          0, 3, 2, 1, -1,
          0, 4, 7, 3, -1,
          0, 8, 11, 4, -1,
          1, 2, 6, 5, -1,
          1, 5, 10, 9, -1,
          2, 3, 7, 6, -1,
          4, 5, 6, 7, -1,
          4, 11, 10, 5, -1,
          8, 9, 13, 12, -1,
          8, 12, 15, 11, -1,
          9, 10, 14, 13, -1,
          10, 11, 15, 14, -1,
          12, 13, 14, 15, -1,
          16, 17, 18, 19, -1,
          16, 19, 23, 20, -1,
          16, 20, 27, 24, -1,
          16, 24, 25, 17, -1,
          17, 21, 22, 18, -1,
          17, 25, 26, 21, -1,
          18, 22, 23, 19, -1,
          20, 21, 26, 27, -1,
          20, 23, 22, 21, -1,
          24, 27, 31, 28, -1,
          24, 28, 29, 25, -1,
          25, 29, 30, 26, -1,
          26, 30, 31, 27, -1,
          28, 31, 30, 29, -1,
          32, 33, 34, 35, -1,
          32, 35, 39, 36, -1,
          32, 36, 43, 40, -1,
          32, 40, 41, 33, -1,
          33, 37, 38, 34, -1,
          33, 41, 42, 37, -1,
          34, 38, 39, 35, -1,
          36, 37, 42, 43, -1,
          36, 39, 38, 37, -1,
          40, 43, 47, 44, -1,
          40, 44, 45, 41, -1,
          41, 45, 46, 42, -1,
          42, 46, 47, 43, -1,
          44, 47, 46, 45, -1,
          48, 49, 50, 51, -1,
          48, 51, 55, 52, -1,
          48, 52, 59, 56, -1,
          48, 56, 57, 49, -1,
          49, 53, 54, 50, -1,
          49, 57, 58, 53, -1,
          50, 54, 55, 51, -1,
          52, 53, 58, 59, -1,
          52, 55, 54, 53, -1,
          56, 59, 63, 60, -1,
          56, 60, 61, 57, -1,
          57, 61, 62, 58, -1,
          58, 62, 63, 59, -1,
          60, 63, 62, 61, -1,
          64, 65, 66, 67, -1,
          64, 67, 71, 68, -1,
          64, 68, 75, 72, -1,
          64, 72, 73, 65, -1,
          65, 69, 70, 66, -1,
          65, 73, 74, 69, -1,
          66, 70, 71, 67, -1,
          68, 69, 74, 75, -1,
          68, 71, 70, 69, -1,
          72, 75, 79, 76, -1,
          72, 76, 77, 73, -1,
          73, 77, 78, 74, -1,
          74, 78, 79, 75, -1,
          76, 79, 78, 77, -1,
          80, 81, 82, 83, -1,
          80, 83, 87, 84, -1,
          80, 84, 91, 88, -1,
          80, 88, 89, 81, -1,
          81, 85, 86, 82, -1,
          81, 89, 90, 85, -1,
          82, 86, 87, 83, -1,
          84, 85, 90, 91, -1,
          84, 87, 86, 85, -1,
          88, 91, 95, 92, -1,
          88, 92, 93, 89, -1,
          89, 93, 94, 90, -1,
          90, 94, 95, 91, -1,
          92, 95, 94, 93, -1,
          96, 97, 98, 99, -1,
          96, 99, 103, 100, -1,
          96, 100, 107, 104, -1,
          96, 104, 105, 97, -1,
          97, 101, 102, 98, -1,
          97, 105, 106, 101, -1,
          98, 102, 103, 99, -1,
          100, 101, 106, 107, -1,
          100, 103, 102, 101, -1,
          104, 107, 111, 108, -1,
          104, 108, 109, 105, -1,
          105, 109, 110, 106, -1,
          106, 110, 111, 107, -1,
          108, 111, 110, 109, -1,
          112, 113, 114, 115, -1,
          112, 115, 119, 116, -1,
          112, 116, 123, 120, -1,
          112, 120, 121, 113, -1,
          113, 117, 118, 114, -1,
          113, 121, 122, 117, -1,
          114, 118, 119, 115, -1,
          116, 117, 122, 123, -1,
          116, 119, 118, 117, -1,
          120, 123, 127, 124, -1,
          120, 124, 125, 121, -1,
          121, 125, 126, 122, -1,
          122, 126, 127, 123, -1,
          124, 127, 126, 125, -1,
          128, 129, 130, 131, -1,
          128, 131, 135, 132, -1,
          128, 132, 139, 136, -1,
          128, 136, 137, 129, -1,
          129, 133, 134, 130, -1,
          129, 137, 138, 133, -1,
          130, 134, 135, 131, -1,
          132, 133, 138, 139, -1,
          132, 135, 134, 133, -1,
          136, 139, 143, 140, -1,
          136, 140, 141, 137, -1,
          137, 141, 142, 138, -1,
          138, 142, 143, 139, -1,
          140, 143, 142, 141, -1,
          144, 145, 153, 152, -1,
          144, 147, 146, 145, -1,
          144, 148, 151, 147, -1,
          144, 152, 155, 148, -1,
          145, 146, 150, 149, -1,
          145, 149, 154, 153, -1,
          146, 147, 151, 150, -1,
          148, 149, 150, 151, -1,
          148, 155, 154, 149, -1,
          152, 153, 157, 156, -1,
          152, 156, 159, 155, -1,
          153, 154, 158, 157, -1,
          154, 155, 159, 158, -1,
          156, 157, 158, 159, -1,
          160, 161, 169, 168, -1,
          160, 163, 162, 161, -1,
          160, 164, 167, 163, -1,
          160, 168, 171, 164, -1,
          161, 162, 166, 165, -1,
          161, 165, 170, 169, -1,
          162, 163, 167, 166, -1,
          164, 165, 166, 167, -1,
          164, 171, 170, 165, -1,
          168, 169, 173, 172, -1,
          168, 172, 175, 171, -1,
          169, 170, 174, 173, -1,
          170, 171, 175, 174, -1,
          172, 173, 174, 175, -1,
          176, 177, 185, 184, -1,
          176, 179, 178, 177, -1,
          176, 180, 183, 179, -1,
          176, 184, 187, 180, -1,
          177, 178, 182, 181, -1,
          177, 181, 186, 185, -1,
          178, 179, 183, 182, -1,
          180, 181, 182, 183, -1,
          180, 187, 186, 181, -1,
          184, 185, 189, 188, -1,
          184, 188, 191, 187, -1,
          185, 186, 190, 189, -1,
          186, 187, 191, 190, -1,
          188, 189, 190, 191, -1,
          192, 193, 201, 200, -1,
          192, 195, 194, 193, -1,
          192, 196, 199, 195, -1,
          192, 200, 203, 196, -1,
          193, 194, 198, 197, -1,
          193, 197, 202, 201, -1,
          194, 195, 199, 198, -1,
          196, 197, 198, 199, -1,
          196, 203, 202, 197, -1,
          200, 201, 205, 204, -1,
          200, 204, 207, 203, -1,
          201, 202, 206, 205, -1,
          202, 203, 207, 206, -1,
          204, 205, 206, 207, -1,
          208, 209, 217, 216, -1,
          208, 211, 210, 209, -1,
          208, 212, 215, 211, -1,
          208, 216, 219, 212, -1,
          209, 210, 214, 213, -1,
          209, 213, 218, 217, -1,
          210, 211, 215, 214, -1,
          212, 213, 214, 215, -1,
          212, 219, 218, 213, -1,
          216, 217, 221, 220, -1,
          216, 220, 223, 219, -1,
          217, 218, 222, 221, -1,
          218, 219, 223, 222, -1,
          220, 221, 222, 223, -1,
          224, 225, 233, 232, -1,
          224, 227, 226, 225, -1,
          224, 228, 231, 227, -1,
          224, 232, 235, 228, -1,
          225, 226, 230, 229, -1,
          225, 229, 234, 233, -1,
          226, 227, 231, 230, -1,
          228, 229, 230, 231, -1,
          228, 235, 234, 229, -1,
          232, 233, 237, 236, -1,
          232, 236, 239, 235, -1,
          233, 234, 238, 237, -1,
          234, 235, 239, 238, -1,
          236, 237, 238, 239, -1,
          240, 241, 249, 248, -1,
          240, 243, 242, 241, -1,
          240, 244, 247, 243, -1,
          240, 248, 251, 244, -1,
          241, 242, 246, 245, -1,
          241, 245, 250, 249, -1,
          242, 243, 247, 246, -1,
          244, 245, 246, 247, -1,
          244, 251, 250, 245, -1,
          248, 249, 253, 252, -1,
          248, 252, 255, 251, -1,
          249, 250, 254, 253, -1,
          250, 251, 255, 254, -1,
          252, 253, 254, 255, -1,
          256, 257, 258, 259, -1,
          256, 259, 263, 260, -1,
          256, 260, 267, 264, -1,
          256, 264, 265, 257, -1,
          257, 261, 262, 258, -1,
          257, 265, 266, 261, -1,
          258, 262, 263, 259, -1,
          260, 261, 266, 267, -1,
          260, 263, 262, 261, -1,
          264, 267, 271, 268, -1,
          264, 268, 269, 265, -1,
          265, 269, 270, 266, -1,
          266, 270, 271, 267, -1,
          268, 271, 270, 269, -1,
          272, 273, 274, 275, -1,
          272, 275, 279, 276, -1,
          272, 276, 283, 280, -1,
          272, 280, 281, 273, -1,
          273, 277, 278, 274, -1,
          273, 281, 282, 277, -1,
          274, 278, 279, 275, -1,
          276, 277, 282, 283, -1,
          276, 279, 278, 277, -1,
          280, 283, 287, 284, -1,
          280, 284, 285, 281, -1,
          281, 285, 286, 282, -1,
          282, 286, 287, 283, -1,
          284, 287, 286, 285, -1,
          288, 289, 290, 291, -1,
          288, 291, 295, 292, -1,
          288, 292, 299, 296, -1,
          288, 296, 297, 289, -1,
          289, 293, 294, 290, -1,
          289, 297, 298, 293, -1,
          290, 294, 295, 291, -1,
          292, 293, 298, 299, -1,
          292, 295, 294, 293, -1,
          296, 299, 303, 300, -1,
          296, 300, 301, 297, -1,
          297, 301, 302, 298, -1,
          298, 302, 303, 299, -1,
          300, 303, 302, 301, -1,
          304, 305, 306, 307, -1,
          304, 307, 311, 308, -1,
          304, 308, 315, 312, -1,
          304, 312, 313, 305, -1,
          305, 309, 310, 306, -1,
          305, 313, 314, 309, -1,
          306, 310, 311, 307, -1,
          308, 309, 314, 315, -1,
          308, 311, 310, 309, -1,
          312, 315, 319, 316, -1,
          312, 316, 317, 313, -1,
          313, 317, 318, 314, -1,
          314, 318, 319, 315, -1,
          316, 319, 318, 317, -1,
          320, 321, 322, 323, -1,
          320, 323, 327, 324, -1,
          320, 324, 331, 328, -1,
          320, 328, 329, 321, -1,
          321, 325, 326, 322, -1,
          321, 329, 330, 325, -1,
          322, 326, 327, 323, -1,
          324, 325, 330, 331, -1,
          324, 327, 326, 325, -1,
          328, 331, 335, 332, -1,
          328, 332, 333, 329, -1,
          329, 333, 334, 330, -1,
          330, 334, 335, 331, -1,
          332, 335, 334, 333, -1,
          336, 337, 338, 339, -1,
          336, 339, 343, 340, -1,
          336, 340, 347, 344, -1,
          336, 344, 345, 337, -1,
          337, 341, 342, 338, -1,
          337, 345, 346, 341, -1,
          338, 342, 343, 339, -1,
          340, 341, 346, 347, -1,
          340, 343, 342, 341, -1,
          344, 347, 351, 348, -1,
          344, 348, 349, 345, -1,
          345, 349, 350, 346, -1,
          346, 350, 351, 347, -1,
          348, 351, 350, 349, -1,
          352, 353, 354, 355, -1,
          352, 355, 359, 356, -1,
          352, 356, 363, 360, -1,
          352, 360, 361, 353, -1,
          353, 357, 358, 354, -1,
          353, 361, 362, 357, -1,
          354, 358, 359, 355, -1,
          356, 357, 362, 363, -1,
          356, 359, 358, 357, -1,
          360, 363, 367, 364, -1,
          360, 364, 365, 361, -1,
          361, 365, 366, 362, -1,
          362, 366, 367, 363, -1,
          364, 367, 366, 365, -1,
          368, 369, 370, 371, -1,
          368, 371, 375, 372, -1,
          368, 372, 379, 376, -1,
          368, 376, 377, 369, -1,
          369, 373, 374, 370, -1,
          369, 377, 378, 373, -1,
          370, 374, 375, 371, -1,
          372, 373, 378, 379, -1,
          372, 375, 374, 373, -1,
          376, 379, 383, 380, -1,
          376, 380, 381, 377, -1,
          377, 381, 382, 378, -1,
          378, 382, 383, 379, -1,
          380, 383, 382, 381, -1,
          384, 385, 393, 392, -1,
          384, 387, 386, 385, -1,
          384, 388, 391, 387, -1,
          384, 392, 395, 388, -1,
          385, 386, 390, 389, -1,
          385, 389, 394, 393, -1,
          386, 387, 391, 390, -1,
          388, 389, 390, 391, -1,
          388, 395, 394, 389, -1,
          392, 393, 397, 396, -1,
          392, 396, 399, 395, -1,
          393, 394, 398, 397, -1,
          394, 395, 399, 398, -1,
          396, 397, 398, 399, -1,
          400, 401, 409, 408, -1,
          400, 403, 402, 401, -1,
          400, 404, 407, 403, -1,
          400, 408, 411, 404, -1,
          401, 402, 406, 405, -1,
          401, 405, 410, 409, -1,
          402, 403, 407, 406, -1,
          404, 405, 406, 407, -1,
          404, 411, 410, 405, -1,
          408, 409, 413, 412, -1,
          408, 412, 415, 411, -1,
          409, 410, 414, 413, -1,
          410, 411, 415, 414, -1,
          412, 413, 414, 415, -1,
          416, 417, 425, 424, -1,
          416, 419, 418, 417, -1,
          416, 420, 423, 419, -1,
          416, 424, 427, 420, -1,
          417, 418, 422, 421, -1,
          417, 421, 426, 425, -1,
          418, 419, 423, 422, -1,
          420, 421, 422, 423, -1,
          420, 427, 426, 421, -1,
          424, 425, 429, 428, -1,
          424, 428, 431, 427, -1,
          425, 426, 430, 429, -1,
          426, 427, 431, 430, -1,
          428, 429, 430, 431, -1,
          432, 433, 441, 440, -1,
          432, 435, 434, 433, -1,
          432, 436, 439, 435, -1,
          432, 440, 443, 436, -1,
          433, 434, 438, 437, -1,
          433, 437, 442, 441, -1,
          434, 435, 439, 438, -1,
          436, 437, 438, 439, -1,
          436, 443, 442, 437, -1,
          440, 441, 445, 444, -1,
          440, 444, 447, 443, -1,
          441, 442, 446, 445, -1,
          442, 443, 447, 446, -1,
          444, 445, 446, 447, -1,
          448, 449, 457, 456, -1,
          448, 451, 450, 449, -1,
          448, 452, 455, 451, -1,
          448, 456, 459, 452, -1,
          449, 450, 454, 453, -1,
          449, 453, 458, 457, -1,
          450, 451, 455, 454, -1,
          452, 453, 454, 455, -1,
          452, 459, 458, 453, -1,
          456, 457, 461, 460, -1,
          456, 460, 463, 459, -1,
          457, 458, 462, 461, -1,
          458, 459, 463, 462, -1,
          460, 461, 462, 463, -1,
          464, 465, 473, 472, -1,
          464, 467, 466, 465, -1,
          464, 468, 471, 467, -1,
          464, 472, 475, 468, -1,
          465, 466, 470, 469, -1,
          465, 469, 474, 473, -1,
          466, 467, 471, 470, -1,
          468, 469, 470, 471, -1,
          468, 475, 474, 469, -1,
          472, 473, 477, 476, -1,
          472, 476, 479, 475, -1,
          473, 474, 478, 477, -1,
          474, 475, 479, 478, -1,
          476, 477, 478, 479, -1,
          480, 481, 489, 488, -1,
          480, 483, 482, 481, -1,
          480, 484, 487, 483, -1,
          480, 488, 491, 484, -1,
          481, 482, 486, 485, -1,
          481, 485, 490, 489, -1,
          482, 483, 487, 486, -1,
          484, 485, 486, 487, -1,
          484, 491, 490, 485, -1,
          488, 489, 493, 492, -1,
          488, 492, 495, 491, -1,
          489, 490, 494, 493, -1,
          490, 491, 495, 494, -1,
          492, 493, 494, 495, -1,
          496, 497, 505, 504, -1,
          496, 499, 498, 497, -1,
          496, 500, 503, 499, -1,
          496, 504, 507, 500, -1,
          497, 498, 502, 501, -1,
          497, 501, 506, 505, -1,
          498, 499, 503, 502, -1,
          500, 501, 502, 503, -1,
          500, 507, 506, 501, -1,
          504, 505, 509, 508, -1,
          504, 508, 511, 507, -1,
          505, 506, 510, 509, -1,
          506, 507, 511, 510, -1,
          508, 509, 510, 511, -1 ]
        normal Normal { vector [
          0.789395 0.385936 0.477398,
          -0.789395 0.385936 0.477398,
          -0.577350 0.577350 0.577350,
          0.577350 0.577350 0.577350,
          0.789395 -0.385936 -0.477398,
          -0.789395 -0.385936 -0.477398,
          -0.577350 0.577350 -0.577350,
          0.577350 0.577350 -0.577350,
          0.789395 0.385936 0.477398,
          -0.789395 0.385936 0.477398,
          -0.789395 -0.385936 -0.477398,
          0.789395 -0.385936 -0.477398,
          0.577350 -0.577350 0.577350,
          -0.577350 -0.577350 0.577350,
          -0.577350 -0.577350 -0.577350,
          0.577350 -0.577350 -0.577350,
          0.789395 -0.385936 0.477398,
          -0.789395 -0.385936 0.477398,
          -0.577350 -0.577350 0.577350,
          0.577350 -0.577350 0.577350,
          0.789395 0.385936 -0.477398,
          -0.789395 0.385936 -0.477398,
          -0.577350 -0.577350 -0.577350,
          0.577350 -0.577350 -0.577350,
          0.789395 -0.385936 0.477398,
          -0.789395 -0.385936 0.477398,
          -0.789395 0.385936 -0.477398,
          0.789395 0.385936 -0.477398,
          0.577350 0.577350 0.577350,
          -0.577350 0.577350 0.577350,
          -0.577350 0.577350 -0.577350,
          0.577350 0.577350 -0.577350,
          0.789395 -0.385936 0.477398,
          -0.789395 -0.385936 0.477398,
          -0.577350 -0.577350 0.577350,
          0.577350 -0.577350 0.577350,
          0.789395 0.385936 -0.477398,
          -0.789395 0.385936 -0.477398,
          -0.577350 -0.577350 -0.577350,
          0.577350 -0.577350 -0.577350,
          0.789395 -0.385936 0.477398,
          -0.789395 -0.385936 0.477398,
          -0.789395 0.385936 -0.477398,
          0.789395 0.385936 -0.477398,
          0.577350 0.577350 0.577350,
          -0.577350 0.577350 0.577350,
          -0.577350 0.577350 -0.577350,
          0.577350 0.577350 -0.577350,
          0.789395 -0.385936 0.477398,
          -0.789395 -0.385936 0.477398,
          -0.577350 -0.577350 0.577350,
          0.577350 -0.577350 0.577350,
          0.789395 0.385936 -0.477398,
          -0.789395 0.385936 -0.477398,
          -0.577350 -0.577350 -0.577350,
          0.577350 -0.577350 -0.577350,
          0.789395 -0.385936 0.477398,
          -0.789395 -0.385936 0.477398,
          -0.789395 0.385936 -0.477398,
          0.789395 0.385936 -0.477398,
          0.577350 0.577350 0.577350,
          -0.577350 0.577350 0.577350,
          -0.577350 0.577350 -0.577350,
          0.577350 0.577350 -0.577350,
          0.789395 -0.385936 0.477398,
          -0.789395 -0.385936 0.477398,
          -0.577350 -0.577350 0.577350,
          0.577350 -0.577350 0.577350,
          0.789395 0.385936 -0.477398,
          -0.789395 0.385936 -0.477398,
          -0.577350 -0.577350 -0.577350,
          0.577350 -0.577350 -0.577350,
          0.789395 -0.385936 0.477398,
          -0.789395 -0.385936 0.477398,
          -0.789395 0.385936 -0.477398,
          0.789395 0.385936 -0.477398,
          0.577350 0.577350 0.577350,
          -0.577350 0.577350 0.577350,
          -0.577350 0.577350 -0.577350,
          0.577350 0.577350 -0.577350,
          0.789395 -0.385936 0.477398,
          -0.789395 -0.385936 0.477398,
          -0.577350 -0.577350 0.577350,
          0.577350 -0.577350 0.577350,
          0.789395 0.385936 -0.477398,
          -0.789395 0.385936 -0.477398,
          -0.577350 -0.577350 -0.577350,
          0.577350 -0.577350 -0.577350,
          0.789395 -0.385936 0.477398,
          -0.789395 -0.385936 0.477398,
          -0.789395 0.385936 -0.477398,
          0.789395 0.385936 -0.477398,
          0.577350 0.577350 0.577350,
          -0.577350 0.577350 0.577350,
          -0.577350 0.577350 -0.577350,
          0.577350 0.577350 -0.577350,
          0.789395 -0.385936 0.477398,
          -0.789395 -0.385936 0.477398,
          -0.577350 -0.577350 0.577350,
          0.577350 -0.577350 0.577350,
          0.789395 0.385936 -0.477398,
          -0.789395 0.385936 -0.477398,
          -0.577350 -0.577350 -0.577350,
          0.577350 -0.577350 -0.577350,
          0.789395 -0.385936 0.477398,
          -0.789395 -0.385936 0.477398,
          -0.789395 0.385936 -0.477398,
          0.789395 0.385936 -0.477398,
          0.577350 0.577350 0.577350,
          -0.577350 0.577350 0.577350,
          -0.577350 0.577350 -0.577350,
          0.577350 0.577350 -0.577350,
          0.789395 -0.385936 0.477398,
          -0.789395 -0.385936 0.477398,
          -0.577350 -0.577350 0.577350,
          0.577350 -0.577350 0.577350,
          0.789395 0.385936 -0.477398,
          -0.789395 0.385936 -0.477398,
          -0.577350 -0.577350 -0.577350,
          0.577350 -0.577350 -0.577350,
          0.789395 -0.385936 0.477398,
          -0.789395 -0.385936 0.477398,
          -0.789395 0.385936 -0.477398,
          0.789395 0.385936 -0.477398,
          0.577350 0.577350 0.577350,
          -0.577350 0.577350 0.577350,
          -0.577350 0.577350 -0.577350,
          0.577350 0.577350 -0.577350,
          0.789395 -0.385936 0.477398,
          -0.789395 -0.385936 0.477398,
          -0.577350 -0.577350 0.577350,
          0.577350 -0.577350 0.577350,
          0.789395 0.385936 -0.477398,
          -0.789395 0.385936 -0.477398,
          -0.577350 -0.577350 -0.577350,
          0.577350 -0.577350 -0.577350,
          0.789395 -0.385936 0.477398,
          -0.789395 -0.385936 0.477398,
          -0.789395 0.385936 -0.477398,
          0.789395 0.385936 -0.477398,
          0.577350 0.577350 0.577350,
          -0.577350 0.577350 0.577350,
          -0.577350 0.577350 -0.577350,
          0.577350 0.577350 -0.577350,
          0.789395 0.385936 0.477398,
          -0.789395 0.385936 0.477398,
          -0.577350 0.577350 0.577350,
          0.577350 0.577350 0.577350,
          0.789395 -0.385936 -0.477398,
          -0.789395 -0.385936 -0.477398,
          -0.577350 0.577350 -0.577350,
          0.577350 0.577350 -0.577350,
          0.789395 0.385936 0.477398,
          -0.789395 0.385936 0.477398,
          -0.789395 -0.385936 -0.477398,
          0.789395 -0.385936 -0.477398,
          0.577350 -0.577350 0.577350,
          -0.577350 -0.577350 0.577350,
          -0.577350 -0.577350 -0.577350,
          0.577350 -0.577350 -0.577350,
          0.789395 0.385936 0.477398,
          -0.789395 0.385936 0.477398,
          -0.577350 0.577350 0.577350,
          0.577350 0.577350 0.577350,
          0.789395 -0.385936 -0.477398,
          -0.789395 -0.385936 -0.477398,
          -0.577350 0.577350 -0.577350,
          0.577350 0.577350 -0.577350,
          0.789395 0.385936 0.477398,
          -0.789395 0.385936 0.477398,
          -0.789395 -0.385936 -0.477398,
          0.789395 -0.385936 -0.477398,
          0.577350 -0.577350 0.577350,
          -0.577350 -0.577350 0.577350,
          -0.577350 -0.577350 -0.577350,
          0.577350 -0.577350 -0.577350,
          0.789395 0.385936 0.477398,
          -0.789395 0.385936 0.477398,
          -0.577350 0.577350 0.577350,
          0.577350 0.577350 0.577350,
          0.789395 -0.385936 -0.477398,
          -0.789395 -0.385936 -0.477398,
          -0.577350 0.577350 -0.577350,
          0.577350 0.577350 -0.577350,
          0.789395 0.385936 0.477398,
          -0.789395 0.385936 0.477398,
          -0.789395 -0.385936 -0.477398,
          0.789395 -0.385936 -0.477398,
          0.577350 -0.577350 0.577350,
          -0.577350 -0.577350 0.577350,
          -0.577350 -0.577350 -0.577350,
          0.577350 -0.577350 -0.577350,
          0.789395 0.385936 0.477398,
          -0.789395 0.385936 0.477398,
          -0.577350 0.577350 0.577350,
          0.577350 0.577350 0.577350,
          0.789395 -0.385936 -0.477398,
          -0.789395 -0.385936 -0.477398,
          -0.577350 0.577350 -0.577350,
          0.577350 0.577350 -0.577350,
          0.789395 0.385936 0.477398,
          -0.789395 0.385936 0.477398,
          -0.789395 -0.385936 -0.477398,
          0.789395 -0.385936 -0.477398,
          0.577350 -0.577350 0.577350,
          -0.577350 -0.577350 0.577350,
          -0.577350 -0.577350 -0.577350,
          0.577350 -0.577350 -0.577350,
          0.789395 0.385936 0.477398,
          -0.789395 0.385936 0.477398,
          -0.577350 0.577350 0.577350,
          0.577350 0.577350 0.577350,
          0.789395 -0.385936 -0.477398,
          -0.789395 -0.385936 -0.477398,
          -0.577350 0.577350 -0.577350,
          0.577350 0.577350 -0.577350,
          0.789395 0.385936 0.477398,
          -0.789395 0.385936 0.477398,
          -0.789395 -0.385936 -0.477398,
          0.789395 -0.385936 -0.477398,
          0.577350 -0.577350 0.577350,
          -0.577350 -0.577350 0.577350,
          -0.577350 -0.577350 -0.577350,
          0.577350 -0.577350 -0.577350,
          0.789395 0.385936 0.477398,
          -0.789395 0.385936 0.477398,
          -0.577350 0.577350 0.577350,
          0.577350 0.577350 0.577350,
          0.789395 -0.385936 -0.477398,
          -0.789395 -0.385936 -0.477398,
          -0.577350 0.577350 -0.577350,
          0.577350 0.577350 -0.577350,
          0.789395 0.385936 0.477398,
          -0.789395 0.385936 0.477398,
          -0.789395 -0.385936 -0.477398,
          0.789395 -0.385936 -0.477398,
          0.577350 -0.577350 0.577350,
          -0.577350 -0.577350 0.577350,
          -0.577350 -0.577350 -0.577350,
          0.577350 -0.577350 -0.577350,
          0.789395 0.385936 0.477398,
          -0.789395 0.385936 0.477398,
          -0.577350 0.577350 0.577350,
          0.577350 0.577350 0.577350,
          0.789395 -0.385936 -0.477398,
          -0.789395 -0.385936 -0.477398,
          -0.577350 0.577350 -0.577350,
          0.577350 0.577350 -0.577350,
          0.789395 0.385936 0.477398,
          -0.789395 0.385936 0.477398,
          -0.789395 -0.385936 -0.477398,
          0.789395 -0.385936 -0.477398,
          0.577350 -0.577350 0.577350,
          -0.577350 -0.577350 0.577350,
          -0.577350 -0.577350 -0.577350,
          0.577350 -0.577350 -0.577350,
          -0.385936 -0.789395 0.477398,
          -0.385936 0.789395 0.477398,
          -0.577350 0.577350 0.577350,
          -0.577350 -0.577350 0.577350,
          0.385936 -0.789395 -0.477398,
          0.385936 0.789395 -0.477398,
          -0.577350 0.577350 -0.577350,
          -0.577350 -0.577350 -0.577350,
          -0.385936 -0.789395 0.477398,
          -0.385936 0.789395 0.477398,
          0.385936 0.789395 -0.477398,
          0.385936 -0.789395 -0.477398,
          0.577350 -0.577350 0.577350,
          0.577350 0.577350 0.577350,
          0.577350 0.577350 -0.577350,
          0.577350 -0.577350 -0.577350,
          -0.385936 -0.789395 0.477398,
          -0.385936 0.789395 0.477398,
          -0.577350 0.577350 0.577350,
          -0.577350 -0.577350 0.577350,
          0.385936 -0.789395 -0.477398,
          0.385936 0.789395 -0.477398,
          -0.577350 0.577350 -0.577350,
          -0.577350 -0.577350 -0.577350,
          -0.385936 -0.789395 0.477398,
          -0.385936 0.789395 0.477398,
          0.385936 0.789395 -0.477398,
          0.385936 -0.789395 -0.477398,
          0.577350 -0.577350 0.577350,
          0.577350 0.577350 0.577350,
          0.577350 0.577350 -0.577350,
          0.577350 -0.577350 -0.577350,
          -0.385936 -0.789395 0.477398,
          -0.385936 0.789395 0.477398,
          -0.577350 0.577350 0.577350,
          -0.577350 -0.577350 0.577350,
          0.385936 -0.789395 -0.477398,
          0.385936 0.789395 -0.477398,
          -0.577350 0.577350 -0.577350,
          -0.577350 -0.577350 -0.577350,
          -0.385936 -0.789395 0.477398,
          -0.385936 0.789395 0.477398,
          0.385936 0.789395 -0.477398,
          0.385936 -0.789395 -0.477398,
          0.577350 -0.577350 0.577350,
          0.577350 0.577350 0.577350,
          0.577350 0.577350 -0.577350,
          0.577350 -0.577350 -0.577350,
          -0.385936 -0.789395 0.477398,
          -0.385936 0.789395 0.477398,
          -0.577350 0.577350 0.577350,
          -0.577350 -0.577350 0.577350,
          0.385936 -0.789395 -0.477398,
          0.385936 0.789395 -0.477398,
          -0.577350 0.577350 -0.577350,
          -0.577350 -0.577350 -0.577350,
          -0.385936 -0.789395 0.477398,
          -0.385936 0.789395 0.477398,
          0.385936 0.789395 -0.477398,
          0.385936 -0.789395 -0.477398,
          0.577350 -0.577350 0.577350,
          0.577350 0.577350 0.577350,
          0.577350 0.577350 -0.577350,
          0.577350 -0.577350 -0.577350,
          -0.385936 -0.789395 0.477398,
          -0.385936 0.789395 0.477398,
          -0.577350 0.577350 0.577350,
          -0.577350 -0.577350 0.577350,
          0.385936 -0.789395 -0.477398,
          0.385936 0.789395 -0.477398,
          -0.577350 0.577350 -0.577350,
          -0.577350 -0.577350 -0.577350,
          -0.385936 -0.789395 0.477398,
          -0.385936 0.789395 0.477398,
          0.385936 0.789395 -0.477398,
          0.385936 -0.789395 -0.477398,
          0.577350 -0.577350 0.577350,
          0.577350 0.577350 0.577350,
          0.577350 0.577350 -0.577350,
          0.577350 -0.577350 -0.577350,
          -0.385936 -0.789395 0.477398,
          -0.385936 0.789395 0.477398,
          -0.577350 0.577350 0.577350,
          -0.577350 -0.577350 0.577350,
          0.385936 -0.789395 -0.477398,
          0.385936 0.789395 -0.477398,
          -0.577350 0.577350 -0.577350,
          -0.577350 -0.577350 -0.577350,
          -0.385936 -0.789395 0.477398,
          -0.385936 0.789395 0.477398,
          0.385936 0.789395 -0.477398,
          0.385936 -0.789395 -0.477398,
          0.577350 -0.577350 0.577350,
          0.577350 0.577350 0.577350,
          0.577350 0.577350 -0.577350,
          0.577350 -0.577350 -0.577350,
          -0.385936 -0.789395 0.477398,
          -0.385936 0.789395 0.477398,
          -0.577350 0.577350 0.577350,
          -0.577350 -0.577350 0.577350,
          0.385936 -0.789395 -0.477398,
          0.385936 0.789395 -0.477398,
          -0.577350 0.577350 -0.577350,
          -0.577350 -0.577350 -0.577350,
          -0.385936 -0.789395 0.477398,
          -0.385936 0.789395 0.477398,
          0.385936 0.789395 -0.477398,
          0.385936 -0.789395 -0.477398,
          0.577350 -0.577350 0.577350,
          0.577350 0.577350 0.577350,
          0.577350 0.577350 -0.577350,
          0.577350 -0.577350 -0.577350,
          -0.385936 -0.789395 0.477398,
          -0.385936 0.789395 0.477398,
          -0.577350 0.577350 0.577350,
          -0.577350 -0.577350 0.577350,
          0.385936 -0.789395 -0.477398,
          0.385936 0.789395 -0.477398,
          -0.577350 0.577350 -0.577350,
          -0.577350 -0.577350 -0.577350,
          -0.385936 -0.789395 0.477398,
          -0.385936 0.789395 0.477398,
          0.385936 0.789395 -0.477398,
          0.385936 -0.789395 -0.477398,
          0.577350 -0.577350 0.577350,
          0.577350 0.577350 0.577350,
          0.577350 0.577350 -0.577350,
          0.577350 -0.577350 -0.577350,
          0.385936 -0.789395 0.477398,
          0.385936 0.789395 0.477398,
          0.577350 0.577350 0.577350,
          0.577350 -0.577350 0.577350,
          -0.385936 -0.789395 -0.477398,
          -0.385936 0.789395 -0.477398,
          0.577350 0.577350 -0.577350,
          0.577350 -0.577350 -0.577350,
          0.385936 -0.789395 0.477398,
          0.385936 0.789395 0.477398,
          -0.385936 0.789395 -0.477398,
          -0.385936 -0.789395 -0.477398,
          -0.577350 -0.577350 0.577350,
          -0.577350 0.577350 0.577350,
          -0.577350 0.577350 -0.577350,
          -0.577350 -0.577350 -0.577350,
          0.385936 -0.789395 0.477398,
          0.385936 0.789395 0.477398,
          0.577350 0.577350 0.577350,
          0.577350 -0.577350 0.577350,
          -0.385936 -0.789395 -0.477398,
          -0.385936 0.789395 -0.477398,
          0.577350 0.577350 -0.577350,
          0.577350 -0.577350 -0.577350,
          0.385936 -0.789395 0.477398,
          0.385936 0.789395 0.477398,
          -0.385936 0.789395 -0.477398,
          -0.385936 -0.789395 -0.477398,
          -0.577350 -0.577350 0.577350,
          -0.577350 0.577350 0.577350,
          -0.577350 0.577350 -0.577350,
          -0.577350 -0.577350 -0.577350,
          0.385936 -0.789395 0.477398,
          0.385936 0.789395 0.477398,
          0.577350 0.577350 0.577350,
          0.577350 -0.577350 0.577350,
          -0.385936 -0.789395 -0.477398,
          -0.385936 0.789395 -0.477398,
          0.577350 0.577350 -0.577350,
          0.577350 -0.577350 -0.577350,
          0.385936 -0.789395 0.477398,
          0.385936 0.789395 0.477398,
          -0.385936 0.789395 -0.477398,
          -0.385936 -0.789395 -0.477398,
          -0.577350 -0.577350 0.577350,
          -0.577350 0.577350 0.577350,
          -0.577350 0.577350 -0.577350,
          -0.577350 -0.577350 -0.577350,
          0.385936 -0.789395 0.477398,
          0.385936 0.789395 0.477398,
          0.577350 0.577350 0.577350,
          0.577350 -0.577350 0.577350,
          -0.385936 -0.789395 -0.477398,
          -0.385936 0.789395 -0.477398,
          0.577350 0.577350 -0.577350,
          0.577350 -0.577350 -0.577350,
          0.385936 -0.789395 0.477398,
          0.385936 0.789395 0.477398,
          -0.385936 0.789395 -0.477398,
          -0.385936 -0.789395 -0.477398,
          -0.577350 -0.577350 0.577350,
          -0.577350 0.577350 0.577350,
          -0.577350 0.577350 -0.577350,
          -0.577350 -0.577350 -0.577350,
          0.385936 -0.789395 0.477398,
          0.385936 0.789395 0.477398,
          0.577350 0.577350 0.577350,
          0.577350 -0.577350 0.577350,
          -0.385936 -0.789395 -0.477398,
          -0.385936 0.789395 -0.477398,
          0.577350 0.577350 -0.577350,
          0.577350 -0.577350 -0.577350,
          0.385936 -0.789395 0.477398,
          0.385936 0.789395 0.477398,
          -0.385936 0.789395 -0.477398,
          -0.385936 -0.789395 -0.477398,
          -0.577350 -0.577350 0.577350,
          -0.577350 0.577350 0.577350,
          -0.577350 0.577350 -0.577350,
          -0.577350 -0.577350 -0.577350,
          0.385936 -0.789395 0.477398,
          0.385936 0.789395 0.477398,
          0.577350 0.577350 0.577350,
          0.577350 -0.577350 0.577350,
          -0.385936 -0.789395 -0.477398,
          -0.385936 0.789395 -0.477398,
          0.577350 0.577350 -0.577350,
          0.577350 -0.577350 -0.577350,
          0.385936 -0.789395 0.477398,
          0.385936 0.789395 0.477398,
          -0.385936 0.789395 -0.477398,
          -0.385936 -0.789395 -0.477398,
          -0.577350 -0.577350 0.577350,
          -0.577350 0.577350 0.577350,
          -0.577350 0.577350 -0.577350,
          -0.577350 -0.577350 -0.577350,
          0.385936 -0.789395 0.477398,
          0.385936 0.789395 0.477398,
          0.577350 0.577350 0.577350,
          0.577350 -0.577350 0.577350,
          -0.385936 -0.789395 -0.477398,
          -0.385936 0.789395 -0.477398,
          0.577350 0.577350 -0.577350,
          0.577350 -0.577350 -0.577350,
          0.385936 -0.789395 0.477398,
          0.385936 0.789395 0.477398,
          -0.385936 0.789395 -0.477398,
          -0.385936 -0.789395 -0.477398,
          -0.577350 -0.577350 0.577350,
          -0.577350 0.577350 0.577350,
          -0.577350 0.577350 -0.577350,
          -0.577350 -0.577350 -0.577350,
          0.385936 -0.789395 0.477398,
          0.385936 0.789395 0.477398,
          0.577350 0.577350 0.577350,
          0.577350 -0.577350 0.577350,
          -0.385936 -0.789395 -0.477398,
          -0.385936 0.789395 -0.477398,
          0.577350 0.577350 -0.577350,
          0.577350 -0.577350 -0.577350,
          0.385936 -0.789395 0.477398,
          0.385936 0.789395 0.477398,
          -0.385936 0.789395 -0.477398,
          -0.385936 -0.789395 -0.477398,
          -0.577350 -0.577350 0.577350,
          -0.577350 0.577350 0.577350,
          -0.577350 0.577350 -0.577350,
          -0.577350 -0.577350 -0.577350 ] }
        normalIndex [
          0, 1, 9, 8, -1,
          0, 3, 2, 1, -1,
          0, 4, 7, 3, -1,
          0, 8, 11, 4, -1,
          1, 2, 6, 5, -1,
          1, 5, 10, 9, -1,
          2, 3, 7, 6, -1,
          4, 5, 6, 7, -1,
          4, 11, 10, 5, -1,
          8, 9, 13, 12, -1,
          8, 12, 15, 11, -1,
          9, 10, 14, 13, -1,
          10, 11, 15, 14, -1,
          12, 13, 14, 15, -1,
          16, 17, 18, 19, -1,
          16, 19, 23, 20, -1,
          16, 20, 27, 24, -1,
          16, 24, 25, 17, -1,
          17, 21, 22, 18, -1,
          17, 25, 26, 21, -1,
          18, 22, 23, 19, -1,
          20, 21, 26, 27, -1,
          20, 23, 22, 21, -1,
          24, 27, 31, 28, -1,
          24, 28, 29, 25, -1,
          25, 29, 30, 26, -1,
          26, 30, 31, 27, -1,
          28, 31, 30, 29, -1,
          32, 33, 34, 35, -1,
          32, 35, 39, 36, -1,
          32, 36, 43, 40, -1,
          32, 40, 41, 33, -1,
          33, 37, 38, 34, -1,
          33, 41, 42, 37, -1,
          34, 38, 39, 35, -1,
          36, 37, 42, 43, -1,
          36, 39, 38, 37, -1,
          40, 43, 47, 44, -1,
          40, 44, 45, 41, -1,
          41, 45, 46, 42, -1,
          42, 46, 47, 43, -1,
          44, 47, 46, 45, -1,
          48, 49, 50, 51, -1,
          48, 51, 55, 52, -1,
          48, 52, 59, 56, -1,
          48, 56, 57, 49, -1,
          49, 53, 54, 50, -1,
          49, 57, 58, 53, -1,
          50, 54, 55, 51, -1,
          52, 53, 58, 59, -1,
          52, 55, 54, 53, -1,
          56, 59, 63, 60, -1,
          56, 60, 61, 57, -1,
          57, 61, 62, 58, -1,
          58, 62, 63, 59, -1,
          60, 63, 62, 61, -1,
          64, 65, 66, 67, -1,
          64, 67, 71, 68, -1,
          64, 68, 75, 72, -1,
          64, 72, 73, 65, -1,
          65, 69, 70, 66, -1,
          65, 73, 74, 69, -1,
          66, 70, 71, 67, -1,
          68, 69, 74, 75, -1,
          68, 71, 70, 69, -1,
          72, 75, 79, 76, -1,
          72, 76, 77, 73, -1,
          73, 77, 78, 74, -1,
          74, 78, 79, 75, -1,
          76, 79, 78, 77, -1,
          80, 81, 82, 83, -1,
          80, 83, 87, 84, -1,
          80, 84, 91, 88, -1,
          80, 88, 89, 81, -1,
          81, 85, 86, 82, -1,
          81, 89, 90, 85, -1,
          82, 86, 87, 83, -1,
          84, 85, 90, 91, -1,
          84, 87, 86, 85, -1,
          88, 91, 95, 92, -1,
          88, 92, 93, 89, -1,
          89, 93, 94, 90, -1,
          90, 94, 95, 91, -1,
          92, 95, 94, 93, -1,
          96, 97, 98, 99, -1,
          96, 99, 103, 100, -1,
          96, 100, 107, 104, -1,
          96, 104, 105, 97, -1,
          97, 101, 102, 98, -1,
          97, 105, 106, 101, -1,
          98, 102, 103, 99, -1,
          100, 101, 106, 107, -1,
          100, 103, 102, 101, -1,
          104, 107, 111, 108, -1,
          104, 108, 109, 105, -1,
          105, 109, 110, 106, -1,
          106, 110, 111, 107, -1,
          108, 111, 110, 109, -1,
          112, 113, 114, 115, -1,
          112, 115, 119, 116, -1,
          112, 116, 123, 120, -1,
          112, 120, 121, 113, -1,
          113, 117, 118, 114, -1,
          113, 121, 122, 117, -1,
          114, 118, 119, 115, -1,
          116, 117, 122, 123, -1,
          116, 119, 118, 117, -1,
          120, 123, 127, 124, -1,
          120, 124, 125, 121, -1,
          121, 125, 126, 122, -1,
          122, 126, 127, 123, -1,
          124, 127, 126, 125, -1,
          128, 129, 130, 131, -1,
          128, 131, 135, 132, -1,
          128, 132, 139, 136, -1,
          128, 136, 137, 129, -1,
          129, 133, 134, 130, -1,
          129, 137, 138, 133, -1,
          130, 134, 135, 131, -1,
          132, 133, 138, 139, -1,
          132, 135, 134, 133, -1,
          136, 139, 143, 140, -1,
          136, 140, 141, 137, -1,
          137, 141, 142, 138, -1,
          138, 142, 143, 139, -1,
          140, 143, 142, 141, -1,
          144, 145, 153, 152, -1,
          144, 147, 146, 145, -1,
          144, 148, 151, 147, -1,
          144, 152, 155, 148, -1,
          145, 146, 150, 149, -1,
          145, 149, 154, 153, -1,
          146, 147, 151, 150, -1,
          148, 149, 150, 151, -1,
          148, 155, 154, 149, -1,
          152, 153, 157, 156, -1,
          152, 156, 159, 155, -1,
          153, 154, 158, 157, -1,
          154, 155, 159, 158, -1,
          156, 157, 158, 159, -1,
          160, 161, 169, 168, -1,
          160, 163, 162, 161, -1,
          160, 164, 167, 163, -1,
          160, 168, 171, 164, -1,
          161, 162, 166, 165, -1,
          161, 165, 170, 169, -1,
          162, 163, 167, 166, -1,
          164, 165, 166, 167, -1,
          164, 171, 170, 165, -1,
          168, 169, 173, 172, -1,
          168, 172, 175, 171, -1,
          169, 170, 174, 173, -1,
          170, 171, 175, 174, -1,
          172, 173, 174, 175, -1,
          176, 177, 185, 184, -1,
          176, 179, 178, 177, -1,
          176, 180, 183, 179, -1,
          176, 184, 187, 180, -1,
          177, 178, 182, 181, -1,
          177, 181, 186, 185, -1,
          178, 179, 183, 182, -1,
          180, 181, 182, 183, -1,
          180, 187, 186, 181, -1,
          184, 185, 189, 188, -1,
          184, 188, 191, 187, -1,
          185, 186, 190, 189, -1,
          186, 187, 191, 190, -1,
          188, 189, 190, 191, -1,
          192, 193, 201, 200, -1,
          192, 195, 194, 193, -1,
          192, 196, 199, 195, -1,
          192, 200, 203, 196, -1,
          193, 194, 198, 197, -1,
          193, 197, 202, 201, -1,
          194, 195, 199, 198, -1,
          196, 197, 198, 199, -1,
          196, 203, 202, 197, -1,
          200, 201, 205, 204, -1,
          200, 204, 207, 203, -1,
          201, 202, 206, 205, -1,
          202, 203, 207, 206, -1,
          204, 205, 206, 207, -1,
          208, 209, 217, 216, -1,
          208, 211, 210, 209, -1,
          208, 212, 215, 211, -1,
          208, 216, 219, 212, -1,
          209, 210, 214, 213, -1,
          209, 213, 218, 217, -1,
          210, 211, 215, 214, -1,
          212, 213, 214, 215, -1,
          212, 219, 218, 213, -1,
          216, 217, 221, 220, -1,
          216, 220, 223, 219, -1,
          217, 218, 222, 221, -1,
          218, 219, 223, 222, -1,
          220, 221, 222, 223, -1,
          224, 225, 233, 232, -1,
          224, 227, 226, 225, -1,
          224, 228, 231, 227, -1,
          224, 232, 235, 228, -1,
          225, 226, 230, 229, -1,
          225, 229, 234, 233, -1,
          226, 227, 231, 230, -1,
          228, 229, 230, 231, -1,
          228, 235, 234, 229, -1,
          232, 233, 237, 236, -1,
          232, 236, 239, 235, -1,
          233, 234, 238, 237, -1,
          234, 235, 239, 238, -1,
          236, 237, 238, 239, -1,
          240, 241, 249, 248, -1,
          240, 243, 242, 241, -1,
          240, 244, 247, 243, -1,
          240, 248, 251, 244, -1,
          241, 242, 246, 245, -1,
          241, 245, 250, 249, -1,
          242, 243, 247, 246, -1,
          244, 245, 246, 247, -1,
          244, 251, 250, 245, -1,
          248, 249, 253, 252, -1,
          248, 252, 255, 251, -1,
          249, 250, 254, 253, -1,
          250, 251, 255, 254, -1,
          252, 253, 254, 255, -1,
          256, 257, 258, 259, -1,
          256, 259, 263, 260, -1,
          256, 260, 267, 264, -1,
          256, 264, 265, 257, -1,
          257, 261, 262, 258, -1,
          257, 265, 266, 261, -1,
          258, 262, 263, 259, -1,
          260, 261, 266, 267, -1,
          260, 263, 262, 261, -1,
          264, 267, 271, 268, -1,
          264, 268, 269, 265, -1,
          265, 269, 270, 266, -1,
          266, 270, 271, 267, -1,
          268, 271, 270, 269, -1,
          272, 273, 274, 275, -1,
          272, 275, 279, 276, -1,
          272, 276, 283, 280, -1,
          272, 280, 281, 273, -1,
          273, 277, 278, 274, -1,
          273, 281, 282, 277, -1,
          274, 278, 279, 275, -1,
          276, 277, 282, 283, -1,
          276, 279, 278, 277, -1,
          280, 283, 287, 284, -1,
          280, 284, 285, 281, -1,
          281, 285, 286, 282, -1,
          282, 286, 287, 283, -1,
          284, 287, 286, 285, -1,
          288, 289, 290, 291, -1,
          288, 291, 295, 292, -1,
          288, 292, 299, 296, -1,
          288, 296, 297, 289, -1,
          289, 293, 294, 290, -1,
          289, 297, 298, 293, -1,
          290, 294, 295, 291, -1,
          292, 293, 298, 299, -1,
          292, 295, 294, 293, -1,
          296, 299, 303, 300, -1,
          296, 300, 301, 297, -1,
          297, 301, 302, 298, -1,
          298, 302, 303, 299, -1,
          300, 303, 302, 301, -1,
          304, 305, 306, 307, -1,
          304, 307, 311, 308, -1,
          304, 308, 315, 312, -1,
          304, 312, 313, 305, -1,
          305, 309, 310, 306, -1,
          305, 313, 314, 309, -1,
          306, 310, 311, 307, -1,
          308, 309, 314, 315, -1,
          308, 311, 310, 309, -1,
          312, 315, 319, 316, -1,
          312, 316, 317, 313, -1,
          313, 317, 318, 314, -1,
          314, 318, 319, 315, -1,
          316, 319, 318, 317, -1,
          320, 321, 322, 323, -1,
          320, 323, 327, 324, -1,
          320, 324, 331, 328, -1,
          320, 328, 329, 321, -1,
          321, 325, 326, 322, -1,
          321, 329, 330, 325, -1,
          322, 326, 327, 323, -1,
          324, 325, 330, 331, -1,
          324, 327, 326, 325, -1,
          328, 331, 335, 332, -1,
          328, 332, 333, 329, -1,
          329, 333, 334, 330, -1,
          330, 334, 335, 331, -1,
          332, 335, 334, 333, -1,
          336, 337, 338, 339, -1,
          336, 339, 343, 340, -1,
          336, 340, 347, 344, -1,
          336, 344, 345, 337, -1,
          337, 341, 342, 338, -1,
          337, 345, 346, 341, -1,
          338, 342, 343, 339, -1,
          340, 341, 346, 347, -1,
          340, 343, 342, 341, -1,
          344, 347, 351, 348, -1,
          344, 348, 349, 345, -1,
          345, 349, 350, 346, -1,
          346, 350, 351, 347, -1,
          348, 351, 350, 349, -1,
          352, 353, 354, 355, -1,
          352, 355, 359, 356, -1,
          352, 356, 363, 360, -1,
          352, 360, 361, 353, -1,
          353, 357, 358, 354, -1,
          353, 361, 362, 357, -1,
          354, 358, 359, 355, -1,
          356, 357, 362, 363, -1,
          356, 359, 358, 357, -1,
          360, 363, 367, 364, -1,
          360, 364, 365, 361, -1,
          361, 365, 366, 362, -1,
          362, 366, 367, 363, -1,
          364, 367, 366, 365, -1,
          368, 369, 370, 371, -1,
          368, 371, 375, 372, -1,
          368, 372, 379, 376, -1,
          368, 376, 377, 369, -1,
          369, 373, 374, 370, -1,
          369, 377, 378, 373, -1,
          370, 374, 375, 371, -1,
          372, 373, 378, 379, -1,
          372, 375, 374, 373, -1,
          376, 379, 383, 380, -1,
          376, 380, 381, 377, -1,
          377, 381, 382, 378, -1,
          378, 382, 383, 379, -1,
          380, 383, 382, 381, -1,
          384, 385, 393, 392, -1,
          384, 387, 386, 385, -1,
          384, 388, 391, 387, -1,
          384, 392, 395, 388, -1,
          385, 386, 390, 389, -1,
          385, 389, 394, 393, -1,
          386, 387, 391, 390, -1,
          388, 389, 390, 391, -1,
          388, 395, 394, 389, -1,
          392, 393, 397, 396, -1,
          392, 396, 399, 395, -1,
          393, 394, 398, 397, -1,
          394, 395, 399, 398, -1,
          396, 397, 398, 399, -1,
          400, 401, 409, 408, -1,
          400, 403, 402, 401, -1,
          400, 404, 407, 403, -1,
          400, 408, 411, 404, -1,
          401, 402, 406, 405, -1,
          401, 405, 410, 409, -1,
          402, 403, 407, 406, -1,
          404, 405, 406, 407, -1,
          404, 411, 410, 405, -1,
          408, 409, 413, 412, -1,
          408, 412, 415, 411, -1,
          409, 410, 414, 413, -1,
          410, 411, 415, 414, -1,
          412, 413, 414, 415, -1,
          416, 417, 425, 424, -1,
          416, 419, 418, 417, -1,
          416, 420, 423, 419, -1,
          416, 424, 427, 420, -1,
          417, 418, 422, 421, -1,
          417, 421, 426, 425, -1,
          418, 419, 423, 422, -1,
          420, 421, 422, 423, -1,
          420, 427, 426, 421, -1,
          424, 425, 429, 428, -1,
          424, 428, 431, 427, -1,
          425, 426, 430, 429, -1,
          426, 427, 431, 430, -1,
          428, 429, 430, 431, -1,
          432, 433, 441, 440, -1,
          432, 435, 434, 433, -1,
          432, 436, 439, 435, -1,
          432, 440, 443, 436, -1,
          433, 434, 438, 437, -1,
          433, 437, 442, 441, -1,
          434, 435, 439, 438, -1,
          436, 437, 438, 439, -1,
          436, 443, 442, 437, -1,
          440, 441, 445, 444, -1,
          440, 444, 447, 443, -1,
          441, 442, 446, 445, -1,
          442, 443, 447, 446, -1,
          444, 445, 446, 447, -1,
          448, 449, 457, 456, -1,
          448, 451, 450, 449, -1,
          448, 452, 455, 451, -1,
          448, 456, 459, 452, -1,
          449, 450, 454, 453, -1,
          449, 453, 458, 457, -1,
          450, 451, 455, 454, -1,
          452, 453, 454, 455, -1,
          452, 459, 458, 453, -1,
          456, 457, 461, 460, -1,
          456, 460, 463, 459, -1,
          457, 458, 462, 461, -1,
          458, 459, 463, 462, -1,
          460, 461, 462, 463, -1,
          464, 465, 473, 472, -1,
          464, 467, 466, 465, -1,
          464, 468, 471, 467, -1,
          464, 472, 475, 468, -1,
          465, 466, 470, 469, -1,
          465, 469, 474, 473, -1,
          466, 467, 471, 470, -1,
          468, 469, 470, 471, -1,
          468, 475, 474, 469, -1,
          472, 473, 477, 476, -1,
          472, 476, 479, 475, -1,
          473, 474, 478, 477, -1,
          474, 475, 479, 478, -1,
          476, 477, 478, 479, -1,
          480, 481, 489, 488, -1,
          480, 483, 482, 481, -1,
          480, 484, 487, 483, -1,
          480, 488, 491, 484, -1,
          481, 482, 486, 485, -1,
          481, 485, 490, 489, -1,
          482, 483, 487, 486, -1,
          484, 485, 486, 487, -1,
          484, 491, 490, 485, -1,
          488, 489, 493, 492, -1,
          488, 492, 495, 491, -1,
          489, 490, 494, 493, -1,
          490, 491, 495, 494, -1,
          492, 493, 494, 495, -1,
          496, 497, 505, 504, -1,
          496, 499, 498, 497, -1,
          496, 500, 503, 499, -1,
          496, 504, 507, 500, -1,
          497, 498, 502, 501, -1,
          497, 501, 506, 505, -1,
          498, 499, 503, 502, -1,
          500, 501, 502, 503, -1,
          500, 507, 506, 501, -1,
          504, 505, 509, 508, -1,
          504, 508, 511, 507, -1,
          505, 506, 510, 509, -1,
          506, 507, 511, 510, -1,
          508, 509, 510, 511, -1 ]
      }
    }
  ]
}

