(module 2403_260_00001 (layer F.Cu) (tedit 54626C5F)
  (fp_text reference 2403_260_00001 (at 0 0) (layer F.SilkS)
    (effects (font (size 0.127 0.127) (thickness 0.000001)))
  )
  (fp_text value VAL** (at 0 0) (layer F.SilkS)
    (effects (font (size 0 0)))
  )
  (fp_line (start -7.5 5.5) (end -7.5 0) (layer F.SilkS) (width 0.15))
  (fp_line (start 7.5 5.5) (end -7.5 5.5) (layer F.SilkS) (width 0.15))
  (fp_line (start 7.5 -5.5) (end 7.5 5.5) (layer F.SilkS) (width 0.15))
  (fp_line (start -7.5 -5.5) (end 7.5 -5.5) (layer F.SilkS) (width 0.15))
  (fp_line (start -7.5 0) (end -7.5 -5.5) (layer F.SilkS) (width 0.15))
  (pad 1 smd rect (at 6.7 4.89) (size 2.6 1.8) (layers F.Cu F.Paste F.Mask))
  (pad 2 smd rect (at 6.7 -4.89) (size 2.6 1.8) (layers F.Cu F.Paste F.Mask))
)
