M48
;DRILL file {kicad (2014-10-11 BZR 5175)-product} date Sun 07 Dec 2014 05:34:43 PM PST
;FORMAT={-:-/ absolute / inch / decimal}
FMAT,2
INCH,TZ
T1C0.025
T2C0.031
T3C0.032
T4C0.039
T5C0.040
%
G90
G05
M72
T1
X2.0301Y-2.6024
X2.2083Y-2.7169
X2.2488Y-2.3555
X2.2496Y-2.6185
X2.3465Y-2.2677
X2.4429Y-2.387
X2.4488Y-2.9677
X2.4961Y-2.3602
X2.5476Y-2.3783
X2.5651Y-2.6479
X2.587Y-2.861
X2.5911Y-2.7396
X2.5951Y-2.6758
X2.6205Y-2.7081
X2.6862Y-2.5083
X2.6913Y-2.6815
X2.7343Y-2.6858
X2.785Y-3.0079
X2.8017Y-2.9441
X2.8941Y-2.9543
X2.8945Y-2.0697
X2.9094Y-2.4661
X2.921Y-2.6867
X2.9362Y-2.089
X2.9382Y-2.239
X2.9717Y-2.6492
X2.9926Y-2.4065
X3.0071Y-2.6811
X3.0114Y-2.4697
X3.013Y-2.1839
X3.0309Y-2.7651
X3.0748Y-3.0161
X3.0839Y-2.3075
X3.1035Y-2.3854
X3.1091Y-1.9752
X3.122Y-2.9811
X3.1244Y-2.1565
X3.1278Y-2.4185
X3.1587Y-2.3295
X3.1843Y-2.6831
X3.2323Y-2.1476
X3.2425Y-2.1929
X3.25Y-2.6102
X3.2587Y-2.0909
X3.2988Y-2.3455
X3.3091Y-2.8642
X3.3157Y-1.9752
X3.3457Y-2.2059
X3.3799Y-2.8937
X3.3831Y-1.9614
X3.3863Y-2.7756
X3.4157Y-2.0587
X3.4346Y-2.4638
X3.4354Y-2.7096
X3.4409Y-2.5063
X3.4601Y-2.2963
X3.4792Y-2.2305
X3.4894Y-2.7096
X3.4902Y-2.3843
X3.5059Y-2.6016
X3.5343Y-2.3752
X3.5464Y-2.7102
X3.5705Y-2.6329
X3.6034Y-2.7096
X3.6055Y-2.1913
X3.6136Y-2.5905
X3.6213Y-2.3768
X3.6394Y-2.2768
X3.6609Y-2.3506
X3.6679Y-2.2004
X3.679Y-2.8123
X3.6957Y-2.0445
X3.6989Y-2.6329
X3.7012Y-2.7113
X3.7301Y-2.6063
X3.7373Y-1.9691
X3.7459Y-2.0829
X3.758Y-2.1221
X3.7614Y-2.5778
X3.7705Y-2.832
X3.7835Y-2.7925
X3.7855Y-2.6329
X3.7886Y-2.4673
X3.8Y-2.2552
X3.8139Y-2.0517
X3.8177Y-2.7113
X3.8331Y-2.1563
X3.8615Y-2.2238
X3.8665Y-2.3866
X3.8791Y-2.5024
X3.8815Y-2.8236
X3.913Y-2.1287
X3.9157Y-2.1843
X3.9185Y-2.2799
X3.9307Y-2.5843
X3.9972Y-2.8516
X4.02Y-2.7016
X4.0791Y-3.0443
X4.0823Y-2.7102
X4.0892Y-2.6671
X4.1008Y-2.252
X4.1198Y-3.0503
X4.1306Y-2.7455
X4.1432Y-3.1055
X4.1484Y-2.0823
X4.1606Y-3.0087
X4.1774Y-2.3123
X4.1929Y-2.4528
X4.1929Y-2.5512
X4.2384Y-2.6113
X4.2862Y-2.7106
X4.3947Y-2.925
X4.4214Y-2.6821
X4.4271Y-2.779
X4.4287Y-2.868
X4.4581Y-2.5949
X4.4634Y-2.2921
X4.4786Y-2.8068
X4.4996Y-3.0406
X4.5457Y-3.0465
X4.5827Y-2.6016
X4.5933Y-3.0453
X4.6669Y-2.7318
X4.6697Y-2.9891
X4.6811Y-3.2142
X4.7102Y-2.5205
X4.7817Y-2.7497
X4.7978Y-2.2952
X4.9087Y-2.9945
X4.9449Y-2.4358
X4.9543Y-2.9685
X4.9803Y-3.2067
X4.981Y-2.2197
X4.9866Y-2.6035
X4.9898Y-2.7079
X5.0295Y-3.0748
X5.0531Y-2.3177
X5.0826Y-2.6362
X5.0941Y-2.315
X5.148Y-2.6644
X5.1638Y-2.7516
X5.1843Y-2.3728
X5.185Y-2.865
X5.189Y-3.0579
X5.189Y-3.178
X5.2028Y-2.3193
X5.2232Y-2.7504
X5.2724Y-3.1907
X5.278Y-3.0728
X5.2984Y-2.9046
X5.3417Y-2.3182
X5.3475Y-3.2199
X5.3675Y-3.1199
X5.3685Y-2.9294
X5.376Y-3.1837
X5.3866Y-2.2622
X5.4004Y-2.611
X5.461Y-2.8004
X5.4634Y-2.3705
X5.4673Y-3.0801
T2
X2.372Y-2.0866
X2.4114Y-2.7953
X2.4114Y-2.874
X2.4508Y-2.0866
X2.5295Y-2.0866
X2.6083Y-2.0866
X3.7106Y-2.9134
X3.7894Y-2.9134
X3.8681Y-2.9134
X3.9469Y-2.0866
X3.9469Y-2.9134
X4.0256Y-2.0866
X4.0256Y-2.9134
T3
X3.3366Y-1.8823
X3.4366Y-1.8823
X3.5366Y-1.8823
X3.6366Y-1.8823
X3.7366Y-1.8823
X3.8366Y-1.8823
X3.9606Y-1.8594
X3.9606Y-1.9594
X4.0819Y-1.8594
X4.0819Y-1.9594
T4
X2.0866Y-2.435
X2.0866Y-2.5335
T5
X2.0224Y-2.1795
X2.0224Y-2.2795
X2.7598Y-2.7776
X2.7598Y-2.8776
X2.8598Y-2.7776
X2.8598Y-2.8776
X2.9598Y-2.7776
X2.9598Y-2.8776
X3.5043Y-3.0413
X3.6043Y-3.0413
X3.7043Y-3.0413
X3.8043Y-3.0413
T0
M30
